EESchema Schematic File Version 4
EELAYER 30 0
EELAYER END
$Descr User 16774 11459
encoding utf-8
Sheet 1 1
Title "M10DX01"
Date "2020-09-29"
Rev "01"
Comp "M10CUBE"
Comment1 ""
Comment2 ""
Comment3 "8 x Digital Outputs (High Side Transistor 24V DC)"
Comment4 "8 x Digital Opto Isolated Inputs (24V DC)"
$EndDescr
Wire Wire Line
	3600 3250 3200 3250
Text Label 3200 3250 0    70   ~ 0
SCL
Wire Wire Line
	4600 900  5300 900 
Text Label 4800 900  0    70   ~ 0
SCL
Wire Wire Line
	2150 5200 1550 5200
Text Label 1550 5200 0    70   ~ 0
SCL
Wire Wire Line
	3600 3350 3200 3350
Text Label 3200 3350 0    70   ~ 0
SDA
Wire Wire Line
	4600 1200 5300 1200
Text Label 4800 1200 0    70   ~ 0
SDA
Wire Wire Line
	2150 5100 1550 5100
Text Label 1550 5100 0    70   ~ 0
SDA
Wire Wire Line
	3600 2850 3100 2850
Text Label 3100 2850 0    70   ~ 0
I2C_INT
Wire Wire Line
	4600 1800 5300 1800
Text Label 4800 1800 0    70   ~ 0
I2C_INT
Wire Wire Line
	2150 5600 1550 5600
Text Label 1550 5600 0    70   ~ 0
I2C_INT
Wire Wire Line
	4600 1500 5300 1500
Text Label 4800 1500 0    70   ~ 0
I2C_RES
Wire Wire Line
	3600 2550 3100 2550
Text Label 3100 2550 0    70   ~ 0
I2C_RES
Wire Wire Line
	14500 1600 13150 1600
Wire Wire Line
	13150 1600 12800 1600
Wire Wire Line
	14500 1600 14500 2000
Wire Wire Line
	14500 2000 14500 2700
Wire Wire Line
	14500 2700 14500 3400
Wire Wire Line
	14500 3400 14500 4100
Wire Wire Line
	14500 4100 14500 4800
Wire Wire Line
	14500 4800 14500 5500
Wire Wire Line
	14500 5500 14500 6200
Wire Wire Line
	14500 6200 14500 6900
Wire Wire Line
	14500 6900 14400 6900
Wire Wire Line
	14400 2000 14500 2000
Wire Wire Line
	14400 2700 14500 2700
Wire Wire Line
	14400 3400 14500 3400
Wire Wire Line
	14400 4100 14500 4100
Wire Wire Line
	14400 4800 14500 4800
Wire Wire Line
	14400 5500 14500 5500
Wire Wire Line
	14400 6200 14500 6200
Wire Wire Line
	14900 1750 14900 1600
Wire Wire Line
	14900 1600 14500 1600
Wire Wire Line
	13300 1200 13150 1200
Wire Wire Line
	13150 1200 13150 1600
Text Label 12800 1600 0    70   ~ 0
24V
Connection ~ 14500 2000
Connection ~ 14500 2700
Connection ~ 14500 3400
Connection ~ 14500 4100
Connection ~ 14500 4800
Connection ~ 14500 5500
Connection ~ 14500 6200
Connection ~ 14500 1600
Connection ~ 13150 1600
Wire Wire Line
	9100 1450 9100 1500
Wire Wire Line
	9100 1500 9500 1500
Text Label 9250 1500 0    70   ~ 0
24V
Wire Wire Line
	9100 2250 9100 2300
Wire Wire Line
	9100 2300 9500 2300
Text Label 9300 2300 0    70   ~ 0
24V
Wire Wire Line
	9100 3050 9100 3100
Wire Wire Line
	9100 3100 9500 3100
Text Label 9300 3100 0    70   ~ 0
24V
Wire Wire Line
	9100 3850 9100 3900
Wire Wire Line
	9100 3900 9500 3900
Text Label 9300 3900 0    70   ~ 0
24V
Wire Wire Line
	9100 4650 9100 4700
Wire Wire Line
	9100 4700 9500 4700
Text Label 9300 4700 0    70   ~ 0
24V
Wire Wire Line
	9100 5450 9100 5500
Wire Wire Line
	9100 5500 9500 5500
Text Label 9300 5500 0    70   ~ 0
24V
Wire Wire Line
	9100 6250 9100 6300
Wire Wire Line
	9100 6300 9500 6300
Text Label 9300 6300 0    70   ~ 0
24V
Wire Wire Line
	9100 7050 9100 7100
Wire Wire Line
	9100 7100 9500 7100
Text Label 9300 7100 0    70   ~ 0
24V
Wire Wire Line
	4600 2350 5100 2350
Text Label 4700 2350 0    70   ~ 0
OUT1
Wire Wire Line
	13300 2000 12800 2000
Text Label 12800 2000 0    70   ~ 0
OUT1
Wire Wire Line
	4600 2450 5100 2450
Text Label 4700 2450 0    70   ~ 0
OUT2
Wire Wire Line
	13300 2700 12800 2700
Text Label 12800 2700 0    70   ~ 0
OUT2
Wire Wire Line
	4600 2550 5100 2550
Text Label 4700 2550 0    70   ~ 0
OUT3
Wire Wire Line
	13300 3400 12800 3400
Text Label 12800 3400 0    70   ~ 0
OUT3
Wire Wire Line
	4600 2650 5100 2650
Text Label 4700 2650 0    70   ~ 0
OUT4
Wire Wire Line
	13300 4100 12800 4100
Text Label 12800 4100 0    70   ~ 0
OUT4
Wire Wire Line
	4600 2750 5100 2750
Text Label 4700 2750 0    70   ~ 0
OUT5
Wire Wire Line
	13300 4800 12800 4800
Text Label 12800 4800 0    70   ~ 0
OUT5
Wire Wire Line
	4600 2850 5100 2850
Text Label 4700 2850 0    70   ~ 0
OUT6
Wire Wire Line
	13300 5500 12800 5500
Text Label 12800 5500 0    70   ~ 0
OUT6
Wire Wire Line
	4600 2950 5100 2950
Text Label 4700 2950 0    70   ~ 0
OUT7
Wire Wire Line
	13300 6200 12800 6200
Text Label 12800 6200 0    70   ~ 0
OUT7
Wire Wire Line
	4600 3050 5100 3050
Text Label 4700 3050 0    70   ~ 0
OUT8
Wire Wire Line
	13300 6900 12800 6900
Text Label 12800 6900 0    70   ~ 0
OUT8
Wire Wire Line
	4600 3250 5000 3250
Text Label 4700 3250 0    70   ~ 0
IN1
Wire Wire Line
	4050 5800 3750 5800
Text Label 3750 5800 0    70   ~ 0
IN1
Wire Wire Line
	11650 1650 11450 1650
Text Label 11450 1650 0    70   ~ 0
IN1
Wire Wire Line
	4600 3350 5000 3350
Text Label 4700 3350 0    70   ~ 0
IN2
Wire Wire Line
	4350 5950 3750 5950
Text Label 3750 5950 0    70   ~ 0
IN2
Wire Wire Line
	11650 2450 11450 2450
Text Label 11450 2450 0    70   ~ 0
IN2
Wire Wire Line
	4600 3450 5000 3450
Text Label 4700 3450 0    70   ~ 0
IN3
Wire Wire Line
	4650 6100 3750 6100
Text Label 3750 6100 0    70   ~ 0
IN3
Wire Wire Line
	11650 3250 11450 3250
Text Label 11450 3250 0    70   ~ 0
IN3
Wire Wire Line
	4600 3550 5000 3550
Text Label 4700 3550 0    70   ~ 0
IN4
Wire Wire Line
	4950 6250 3750 6250
Text Label 3750 6250 0    70   ~ 0
IN4
Text Label 11450 4050 0    70   ~ 0
IN4
Wire Wire Line
	4600 3650 5000 3650
Text Label 4700 3650 0    70   ~ 0
IN5
Wire Wire Line
	5350 5800 5650 5800
Text Label 5350 5800 0    70   ~ 0
IN5
Wire Wire Line
	11650 4850 11450 4850
Text Label 11450 4850 0    70   ~ 0
IN5
Wire Wire Line
	4600 3750 5000 3750
Text Label 4700 3750 0    70   ~ 0
IN6
Wire Wire Line
	5350 5950 5950 5950
Text Label 5350 5950 0    70   ~ 0
IN6
Text Label 11450 5650 0    70   ~ 0
IN6
Wire Wire Line
	4600 3850 5000 3850
Text Label 4700 3850 0    70   ~ 0
IN7
Wire Wire Line
	5350 6100 6250 6100
Text Label 5350 6100 0    70   ~ 0
IN7
Wire Wire Line
	11650 6450 11450 6450
Text Label 11450 6450 0    70   ~ 0
IN7
Wire Wire Line
	4600 3950 5000 3950
Text Label 4700 3950 0    70   ~ 0
IN8
Wire Wire Line
	5350 6250 6550 6250
Text Label 5350 6250 0    70   ~ 0
IN8
Wire Wire Line
	11650 7250 11450 7250
Text Label 11450 7250 0    70   ~ 0
IN8
Wire Wire Line
	3600 3550 2600 3550
Wire Wire Line
	2600 3550 2000 3550
Wire Wire Line
	2600 3450 2600 3550
Wire Wire Line
	2800 3850 2800 3800
Wire Wire Line
	2800 3800 2600 3800
Wire Wire Line
	2600 3800 2600 3550
Text Label 2000 3550 0    70   ~ 0
A0
Connection ~ 2600 3550
Wire Wire Line
	3600 3650 2500 3650
Wire Wire Line
	2500 3650 2000 3650
Wire Wire Line
	2500 3450 2500 3650
Wire Wire Line
	2500 3850 2500 3650
Text Label 2000 3650 0    70   ~ 0
A1
Connection ~ 2500 3650
Wire Wire Line
	3600 3750 2400 3750
Wire Wire Line
	2400 3750 2000 3750
Wire Wire Line
	2400 3450 2400 3750
Wire Wire Line
	2200 3850 2200 3800
Wire Wire Line
	2200 3800 2400 3800
Wire Wire Line
	2400 3800 2400 3750
Text Label 2000 3750 0    70   ~ 0
A2
Connection ~ 2400 3750
Wire Wire Line
	14750 2200 14400 2200
Wire Wire Line
	14750 2250 14750 2200
Wire Wire Line
	15100 2200 14750 2200
Text Label 14750 2200 2    70   ~ 0
IO1
Connection ~ 14750 2200
Wire Wire Line
	14800 2900 14400 2900
Wire Wire Line
	14800 3000 14800 2900
Wire Wire Line
	15100 2900 14800 2900
Text Label 14800 2900 2    70   ~ 0
IO2
Connection ~ 14800 2900
Wire Wire Line
	14800 3600 14400 3600
Wire Wire Line
	14800 3700 14800 3600
Wire Wire Line
	15100 3600 14800 3600
Text Label 14800 3600 2    70   ~ 0
IO3
Connection ~ 14800 3600
Wire Wire Line
	14800 4300 14400 4300
Wire Wire Line
	14800 4400 14800 4300
Wire Wire Line
	15100 4300 14800 4300
Text Label 14800 4300 2    70   ~ 0
IO4
Connection ~ 14800 4300
Wire Wire Line
	14800 5000 14400 5000
Wire Wire Line
	14800 5100 14800 5000
Wire Wire Line
	15100 5000 14800 5000
Text Label 14800 5000 2    70   ~ 0
IO5
Connection ~ 14800 5000
Wire Wire Line
	14800 5700 14400 5700
Wire Wire Line
	14800 5800 14800 5700
Wire Wire Line
	15100 5700 14800 5700
Text Label 14800 5700 2    70   ~ 0
IO6
Connection ~ 14800 5700
Wire Wire Line
	14800 6400 14400 6400
Wire Wire Line
	14800 6500 14800 6400
Wire Wire Line
	15100 6400 14800 6400
Text Label 14800 6400 2    70   ~ 0
IO7
Connection ~ 14800 6400
Wire Wire Line
	14800 7100 14400 7100
Wire Wire Line
	14800 7200 14800 7100
Wire Wire Line
	15100 7100 14800 7100
Text Label 14800 7100 2    70   ~ 0
IO8
Connection ~ 14800 7100
Wire Wire Line
	11000 7900 11000 8000
Wire Wire Line
	11000 7900 10600 7900
Text Label 10600 7900 0    70   ~ 0
GND1
Wire Wire Line
	8450 1450 8450 1500
Wire Wire Line
	8450 1500 8150 1500
Text Label 8150 1500 0    70   ~ 0
GND1
Wire Wire Line
	8450 2250 8450 2300
Wire Wire Line
	8450 2300 8150 2300
Text Label 8150 2300 0    70   ~ 0
GND1
Wire Wire Line
	8450 3050 8450 3100
Wire Wire Line
	8450 3100 8150 3100
Text Label 8150 3100 0    70   ~ 0
GND1
Wire Wire Line
	8450 3850 8450 3900
Wire Wire Line
	8450 3900 8150 3900
Text Label 8150 3900 0    70   ~ 0
GND1
Wire Wire Line
	8450 4650 8450 4700
Wire Wire Line
	8450 4700 8150 4700
Text Label 8150 4700 0    70   ~ 0
GND1
Wire Wire Line
	8450 5450 8450 5500
Wire Wire Line
	8450 5500 8150 5500
Text Label 8150 5500 0    70   ~ 0
GND1
Wire Wire Line
	8450 6250 8450 6300
Wire Wire Line
	8450 6300 8150 6300
Text Label 8150 6300 0    70   ~ 0
GND1
Wire Wire Line
	8450 7050 8450 7100
Wire Wire Line
	8450 7100 8150 7100
Text Label 8150 7100 0    70   ~ 0
GND1
Wire Wire Line
	12900 8800 13100 8800
Wire Wire Line
	13100 8800 13100 9100
Wire Wire Line
	13100 9100 12900 9100
Wire Wire Line
	13100 9100 13600 9100
Connection ~ 13100 9100
Text Label 13300 9100 0    70   ~ 0
GND1
Wire Wire Line
	14700 9100 14900 9100
Wire Wire Line
	14900 9100 15500 9100
Wire Wire Line
	14700 8800 14900 8800
Wire Wire Line
	14900 8800 14900 9100
Connection ~ 14900 9100
Text Label 15200 9100 0    70   ~ 0
GND1
Wire Wire Line
	9900 1650 9850 1650
Wire Wire Line
	9900 1750 9900 1650
Wire Wire Line
	10250 1650 9900 1650
Wire Wire Line
	10250 1700 10250 1650
Connection ~ 9900 1650
Connection ~ 10250 1650
Wire Wire Line
	9900 2450 9850 2450
Wire Wire Line
	9900 2550 9900 2450
Wire Wire Line
	10250 2450 9900 2450
Wire Wire Line
	10250 2500 10250 2450
Connection ~ 9900 2450
Connection ~ 10250 2450
Wire Wire Line
	9900 3250 9850 3250
Wire Wire Line
	9900 3350 9900 3250
Wire Wire Line
	10250 3250 9900 3250
Wire Wire Line
	10250 3300 10250 3250
Connection ~ 9900 3250
Connection ~ 10250 3250
Wire Wire Line
	9900 4050 9850 4050
Wire Wire Line
	9900 4150 9900 4050
Wire Wire Line
	10250 4050 9900 4050
Wire Wire Line
	10250 4100 10250 4050
Connection ~ 9900 4050
Connection ~ 10250 4050
Wire Wire Line
	9900 4850 9850 4850
Wire Wire Line
	9900 4950 9900 4850
Wire Wire Line
	10250 4850 9900 4850
Wire Wire Line
	10250 4900 10250 4850
Connection ~ 9900 4850
Connection ~ 10250 4850
Wire Wire Line
	9900 5650 9850 5650
Wire Wire Line
	9900 5750 9900 5650
Wire Wire Line
	10250 5650 9900 5650
Wire Wire Line
	10250 5700 10250 5650
Connection ~ 9900 5650
Wire Wire Line
	9900 6450 9850 6450
Wire Wire Line
	9900 6550 9900 6450
Wire Wire Line
	10250 6450 9900 6450
Wire Wire Line
	10250 6500 10250 6450
Connection ~ 9900 6450
Connection ~ 10250 6450
Wire Wire Line
	9900 7250 9850 7250
Wire Wire Line
	9900 7350 9900 7250
Wire Wire Line
	10250 7250 9900 7250
Wire Wire Line
	10250 7300 10250 7250
Connection ~ 9900 7250
Connection ~ 10250 7250
Wire Wire Line
	2750 5000 2950 5000
Wire Wire Line
	2950 5000 3250 5000
Wire Wire Line
	2750 5100 2950 5100
Wire Wire Line
	2950 5100 2950 5000
Connection ~ 2950 5000
Text Label 3050 5000 0    70   ~ 0
I_5V
Wire Wire Line
	3600 2350 3200 2350
Text Label 3200 2350 0    70   ~ 0
I_5V
Wire Wire Line
	2300 2850 2300 2750
Wire Wire Line
	2300 2750 2000 2750
Wire Wire Line
	2300 2750 2400 2750
Wire Wire Line
	2400 2750 2500 2750
Wire Wire Line
	2500 2750 2600 2750
Wire Wire Line
	2600 2750 2600 2850
Wire Wire Line
	2400 2850 2400 2750
Wire Wire Line
	2500 2850 2500 2750
Connection ~ 2300 2750
Connection ~ 2400 2750
Connection ~ 2500 2750
Text Label 2000 2750 0    70   ~ 0
I_5V
Wire Wire Line
	4200 1800 3800 1800
Wire Wire Line
	3800 1800 3800 1500
Wire Wire Line
	3800 1500 3800 1200
Wire Wire Line
	3800 1200 3800 900 
Wire Wire Line
	3800 900  3400 900 
Wire Wire Line
	4200 900  3800 900 
Wire Wire Line
	4200 1200 3800 1200
Wire Wire Line
	4200 1500 3800 1500
Wire Wire Line
	3800 1800 3400 1800
Connection ~ 3800 900 
Connection ~ 3800 1200
Connection ~ 3800 1500
Text Label 3400 900  0    70   ~ 0
I_5V
Connection ~ 3800 1800
Text Label 3400 1800 0    70   ~ 0
I_5V
Wire Wire Line
	5900 1300 6400 1300
Wire Wire Line
	6400 1300 6800 1300
Wire Wire Line
	6400 1400 6400 1300
Connection ~ 6400 1300
Text Label 5900 1300 0    70   ~ 0
I_5V
Wire Wire Line
	5350 5000 5650 5000
Wire Wire Line
	5650 5000 5950 5000
Wire Wire Line
	5950 5000 6250 5000
Wire Wire Line
	6250 5000 6550 5000
Wire Wire Line
	6550 5000 6750 5000
Wire Wire Line
	5650 5200 5650 5000
Wire Wire Line
	5950 5200 5950 5000
Wire Wire Line
	6250 5200 6250 5000
Wire Wire Line
	6550 5200 6550 5000
Connection ~ 5650 5000
Connection ~ 5950 5000
Connection ~ 6250 5000
Connection ~ 6550 5000
Text Label 5350 5000 0    70   ~ 0
I_5V
Wire Wire Line
	3750 5000 4050 5000
Wire Wire Line
	4050 5000 4350 5000
Wire Wire Line
	4350 5000 4650 5000
Wire Wire Line
	4650 5000 4950 5000
Wire Wire Line
	4950 5000 5150 5000
Wire Wire Line
	4050 5200 4050 5000
Wire Wire Line
	4350 5200 4350 5000
Wire Wire Line
	4650 5200 4650 5000
Wire Wire Line
	4950 5200 4950 5000
Connection ~ 4050 5000
Connection ~ 4350 5000
Connection ~ 4650 5000
Connection ~ 4950 5000
Text Label 3750 5000 0    70   ~ 0
I_5V
Wire Wire Line
	9800 8750 9300 8750
Text Label 9300 8750 0    70   ~ 0
I_5V
Wire Wire Line
	5650 3400 5400 3400
Text Label 5400 3400 0    70   ~ 0
I_5V
Wire Wire Line
	4900 7150 5400 7150
Wire Wire Line
	5400 7150 5400 6950
Wire Wire Line
	6100 7050 6100 6950
Wire Wire Line
	6100 6950 6400 6950
Wire Wire Line
	6400 6950 6950 6950
Wire Wire Line
	6400 7050 6400 6950
Wire Wire Line
	5400 6950 5800 6950
Wire Wire Line
	5800 6950 6100 6950
Wire Wire Line
	5800 7050 5800 6950
Text Label 5200 7150 0    70   ~ 0
3V3
Connection ~ 6400 6950
Text Label 6950 6950 2    70   ~ 0
3V3
Connection ~ 6100 6950
Connection ~ 5800 6950
Wire Wire Line
	2150 5000 1550 5000
Text Label 1550 5000 0    70   ~ 0
3V3
Wire Wire Line
	4550 8100 4200 8100
Text Label 4200 8100 0    70   ~ 0
3V3
Wire Wire Line
	2750 6300 3250 6300
Text Label 1550 6300 0    70   ~ 0
ID_SDA
Wire Wire Line
	6400 7750 6950 7750
Wire Wire Line
	6400 7450 6400 7750
Wire Wire Line
	4900 7750 6400 7750
Text Label 5250 7750 0    70   ~ 0
ID_SDA
Text Label 6950 7750 2    70   ~ 0
ID_SDA
Connection ~ 6400 7750
Wire Wire Line
	2150 6300 1550 6300
Text Label 3250 6300 2    70   ~ 0
ID_SCL
Wire Wire Line
	4900 7550 6100 7550
Wire Wire Line
	6100 7550 6100 7450
Wire Wire Line
	6100 7550 6950 7550
Text Label 5250 7550 0    70   ~ 0
ID_SCL
Text Label 6950 7550 2    70   ~ 0
ID_SCL
Connection ~ 6100 7550
Wire Wire Line
	4900 7350 5100 7350
Wire Wire Line
	5100 7350 5100 8100
Wire Wire Line
	5100 8100 5350 8100
Wire Wire Line
	5100 8100 4950 8100
Wire Wire Line
	5000 8500 5100 8500
Wire Wire Line
	5100 8500 5100 8100
Connection ~ 5100 8100
Wire Wire Line
	12100 1650 12050 1650
Wire Wire Line
	12100 2450 12050 2450
Wire Wire Line
	12100 3250 12050 3250
Wire Wire Line
	12100 4050 12050 4050
Wire Wire Line
	12100 4850 12050 4850
Wire Wire Line
	12100 5650 12050 5650
Wire Wire Line
	12100 6450 12050 6450
Wire Wire Line
	12100 7250 12050 7250
Wire Wire Line
	5500 2350 5650 2350
Wire Wire Line
	5500 2450 5650 2450
Wire Wire Line
	5500 2550 5650 2550
Wire Wire Line
	5500 2650 5650 2650
Wire Wire Line
	5500 2750 5650 2750
Wire Wire Line
	5500 2850 5650 2850
Wire Wire Line
	5500 2950 5650 2950
Wire Wire Line
	5500 3050 5650 3050
Wire Wire Line
	13300 2200 13200 2200
Wire Wire Line
	13200 2200 13200 2500
Wire Wire Line
	13200 2500 13200 2900
Wire Wire Line
	13200 2900 13200 3200
Wire Wire Line
	13200 3200 13200 3600
Wire Wire Line
	13200 3600 13200 3900
Wire Wire Line
	13200 3900 13200 4300
Wire Wire Line
	13200 4300 13200 4600
Wire Wire Line
	13200 4600 13200 5000
Wire Wire Line
	13200 5000 13200 5300
Wire Wire Line
	13200 5300 13200 5700
Wire Wire Line
	13200 5700 13200 6000
Wire Wire Line
	13200 6000 13200 6400
Wire Wire Line
	13200 6400 13200 6700
Wire Wire Line
	13200 6700 13200 7100
Wire Wire Line
	13200 7100 13200 7500
Wire Wire Line
	13300 2900 13200 2900
Wire Wire Line
	13300 3600 13200 3600
Wire Wire Line
	13300 7100 13200 7100
Wire Wire Line
	13300 6400 13200 6400
Wire Wire Line
	13300 5700 13200 5700
Wire Wire Line
	13300 5000 13200 5000
Wire Wire Line
	13300 4300 13200 4300
Wire Wire Line
	13200 7500 14800 7500
Wire Wire Line
	14800 7500 14800 7400
Wire Wire Line
	14800 6700 13200 6700
Wire Wire Line
	14800 6000 13200 6000
Wire Wire Line
	14800 5300 13200 5300
Wire Wire Line
	14800 4600 13200 4600
Wire Wire Line
	14800 3900 13200 3900
Wire Wire Line
	14800 3200 13200 3200
Wire Wire Line
	13200 2200 12800 2200
Wire Wire Line
	14900 2500 14900 2050
Wire Wire Line
	14750 2450 14750 2500
Wire Wire Line
	14750 2500 14900 2500
Wire Wire Line
	14750 2500 13200 2500
Text Label 13400 7500 0    70   ~ 0
GND
Connection ~ 13200 2900
Connection ~ 13200 3600
Connection ~ 13200 7100
Connection ~ 13200 6400
Connection ~ 13200 5700
Connection ~ 13200 5000
Connection ~ 13200 4300
Connection ~ 13200 6700
Connection ~ 13200 6000
Connection ~ 13200 5300
Connection ~ 13200 4600
Connection ~ 13200 3900
Connection ~ 13200 3200
Connection ~ 13200 2200
Text Label 12800 2200 0    70   ~ 0
GND
Connection ~ 14750 2500
Connection ~ 13200 2500
Wire Wire Line
	3600 3950 3200 3950
Text Label 3200 3950 0    70   ~ 0
GND
Wire Wire Line
	2200 4350 2500 4350
Wire Wire Line
	2500 4350 2800 4350
Text Label 1600 4350 0    70   ~ 0
GND
Connection ~ 2500 4350
Connection ~ 2200 4350
Wire Wire Line
	2150 5400 1550 5400
Text Label 1550 5400 0    70   ~ 0
GND
Wire Wire Line
	2150 6200 1550 6200
Text Label 1550 6200 0    70   ~ 0
GND
Wire Wire Line
	2150 6900 1550 6900
Text Label 1550 6900 0    70   ~ 0
GND
Wire Wire Line
	2750 5200 3250 5200
Text Label 3050 5200 0    70   ~ 0
GND
Wire Wire Line
	2750 5600 3250 5600
Text Label 3250 5600 2    70   ~ 0
GND
Wire Wire Line
	2750 5900 3250 5900
Text Label 3250 5900 2    70   ~ 0
GND
Wire Wire Line
	2750 6400 3250 6400
Text Label 3250 6400 2    70   ~ 0
GND
Wire Wire Line
	2750 6600 3250 6600
Text Label 3250 6600 2    70   ~ 0
GND
Wire Wire Line
	4000 7150 3700 7150
Wire Wire Line
	3700 7150 3700 7350
Wire Wire Line
	3700 7350 3700 7550
Wire Wire Line
	3700 7550 3700 7750
Wire Wire Line
	3700 7750 3700 7950
Wire Wire Line
	4000 7350 3700 7350
Wire Wire Line
	4000 7550 3700 7550
Wire Wire Line
	4000 7750 3700 7750
Connection ~ 3700 7350
Connection ~ 3700 7550
Connection ~ 3700 7750
Text Label 4000 7150 0    10   ~ 0
GND
Wire Wire Line
	5000 8600 5950 8600
Wire Wire Line
	5950 8600 5950 8100
Wire Wire Line
	5950 8100 5750 8100
Wire Wire Line
	5950 8100 6400 8100
Connection ~ 5950 8100
Text Label 6150 8100 0    70   ~ 0
GND
Wire Wire Line
	11850 7600 11850 7450
Wire Wire Line
	11850 7450 11600 7450
Wire Wire Line
	11600 7450 11450 7450
Wire Wire Line
	11100 8000 11100 7900
Wire Wire Line
	11100 7900 11600 7900
Wire Wire Line
	11600 7900 11600 7450
Connection ~ 11600 7450
Text Label 11850 7600 0    10   ~ 0
GND
Wire Wire Line
	11650 6700 11650 6650
Wire Wire Line
	11650 6650 11450 6650
Text Label 11650 6700 0    10   ~ 0
GND
Wire Wire Line
	11650 5850 11650 5900
Text Label 11450 5850 0    10   ~ 0
GND
Wire Wire Line
	11450 5050 11650 5050
Wire Wire Line
	11650 5050 11650 5100
Text Label 11450 5050 0    10   ~ 0
GND
Wire Wire Line
	11450 1850 11650 1850
Wire Wire Line
	11650 1850 11650 1900
Text Label 11450 1850 0    10   ~ 0
GND
Wire Wire Line
	11450 2650 11650 2650
Wire Wire Line
	11650 2650 11650 2700
Text Label 11450 2650 0    10   ~ 0
GND
Wire Wire Line
	11450 3450 11650 3450
Wire Wire Line
	11650 3450 11650 3500
Text Label 11450 3450 0    10   ~ 0
GND
Wire Wire Line
	11650 4250 11650 4300
Text Label 11450 4250 0    10   ~ 0
GND
Wire Wire Line
	9700 9000 9300 9000
Text Label 9300 9000 0    70   ~ 0
GND
Wire Wire Line
	5900 1800 6400 1800
Wire Wire Line
	6400 1800 6800 1800
Wire Wire Line
	6400 1700 6400 1800
Connection ~ 6400 1800
Text Label 5900 1800 0    70   ~ 0
GND
Wire Wire Line
	5650 3250 5400 3250
Text Label 5400 3250 0    70   ~ 0
GND
Wire Wire Line
	8650 1450 8650 1650
Wire Wire Line
	8650 1650 8350 1650
Wire Wire Line
	8650 1650 8900 1650
Wire Wire Line
	8900 1650 8900 1450
Connection ~ 8650 1650
Wire Wire Line
	8550 1450 8550 1850
Wire Wire Line
	8550 1850 9750 1850
Wire Wire Line
	9750 1850 9750 2150
Wire Wire Line
	9750 2150 9900 2150
Wire Wire Line
	9900 2150 10250 2150
Wire Wire Line
	10250 2150 10650 2150
Wire Wire Line
	10650 2150 10650 1850
Wire Wire Line
	10250 2100 10250 2150
Wire Wire Line
	9900 2050 9900 2150
Connection ~ 10250 2150
Connection ~ 9900 2150
Wire Wire Line
	9000 1450 9000 1650
Wire Wire Line
	9000 1650 9450 1650
Wire Wire Line
	8350 2450 8650 2450
Wire Wire Line
	8650 2450 8900 2450
Wire Wire Line
	8900 2450 8900 2250
Wire Wire Line
	8650 2250 8650 2450
Connection ~ 8650 2450
Wire Wire Line
	8550 2250 8550 2700
Wire Wire Line
	8550 2700 9700 2700
Wire Wire Line
	9700 2700 9700 2950
Wire Wire Line
	9900 2950 10250 2950
Wire Wire Line
	10250 2950 10650 2950
Wire Wire Line
	10650 2950 10650 2650
Wire Wire Line
	10250 2900 10250 2950
Wire Wire Line
	9900 2850 9900 2950
Wire Wire Line
	9700 2950 9900 2950
Connection ~ 10250 2950
Connection ~ 9900 2950
Wire Wire Line
	9000 2250 9000 2450
Wire Wire Line
	9000 2450 9450 2450
Wire Wire Line
	8350 3250 8650 3250
Wire Wire Line
	8650 3250 8900 3250
Wire Wire Line
	8900 3250 8900 3050
Wire Wire Line
	8650 3050 8650 3250
Connection ~ 8650 3250
Wire Wire Line
	9000 3050 9000 3250
Wire Wire Line
	9000 3250 9450 3250
Wire Wire Line
	8550 3050 8550 3500
Wire Wire Line
	8550 3500 9700 3500
Wire Wire Line
	9700 3500 9700 3750
Wire Wire Line
	9700 3750 9900 3750
Wire Wire Line
	9900 3750 10250 3750
Wire Wire Line
	10250 3750 10650 3750
Wire Wire Line
	10650 3750 10650 3450
Wire Wire Line
	10250 3700 10250 3750
Wire Wire Line
	9900 3650 9900 3750
Connection ~ 10250 3750
Connection ~ 9900 3750
Wire Wire Line
	8350 4050 8650 4050
Wire Wire Line
	8650 4050 8900 4050
Wire Wire Line
	8900 4050 8900 3850
Wire Wire Line
	8650 3850 8650 4050
Connection ~ 8650 4050
Wire Wire Line
	8550 3850 8550 4300
Wire Wire Line
	8550 4300 9700 4300
Wire Wire Line
	9700 4300 9700 4550
Wire Wire Line
	9700 4550 9900 4550
Wire Wire Line
	9900 4550 10250 4550
Wire Wire Line
	10250 4550 10650 4550
Wire Wire Line
	10650 4550 10650 4250
Wire Wire Line
	10250 4500 10250 4550
Wire Wire Line
	9900 4450 9900 4550
Connection ~ 10250 4550
Connection ~ 9900 4550
Wire Wire Line
	9000 3850 9000 4050
Wire Wire Line
	9000 4050 9450 4050
Wire Wire Line
	8350 4850 8650 4850
Wire Wire Line
	8650 4850 8900 4850
Wire Wire Line
	8900 4850 8900 4650
Wire Wire Line
	8650 4650 8650 4850
Connection ~ 8650 4850
Wire Wire Line
	8550 4650 8550 5100
Wire Wire Line
	8550 5100 9700 5100
Wire Wire Line
	9700 5100 9700 5350
Wire Wire Line
	9700 5350 9900 5350
Wire Wire Line
	9900 5350 10250 5350
Wire Wire Line
	10250 5350 10650 5350
Wire Wire Line
	10650 5350 10650 5050
Wire Wire Line
	10250 5300 10250 5350
Wire Wire Line
	9900 5250 9900 5350
Connection ~ 10250 5350
Connection ~ 9900 5350
Wire Wire Line
	9450 4850 9000 4850
Wire Wire Line
	9000 4850 9000 4650
Wire Wire Line
	8350 5650 8650 5650
Wire Wire Line
	8650 5650 8900 5650
Wire Wire Line
	8900 5650 8900 5450
Wire Wire Line
	8650 5450 8650 5650
Connection ~ 8650 5650
Wire Wire Line
	8550 5450 8550 5900
Wire Wire Line
	8550 5900 9700 5900
Wire Wire Line
	9700 5900 9700 6150
Wire Wire Line
	9700 6150 9900 6150
Wire Wire Line
	9900 6150 10250 6150
Wire Wire Line
	10250 6150 10650 6150
Wire Wire Line
	10650 6150 10650 5850
Wire Wire Line
	10250 6100 10250 6150
Wire Wire Line
	9900 6050 9900 6150
Connection ~ 10250 6150
Connection ~ 9900 6150
Wire Wire Line
	9000 5450 9000 5650
Wire Wire Line
	9000 5650 9450 5650
Wire Wire Line
	8350 6450 8650 6450
Wire Wire Line
	8650 6450 8900 6450
Wire Wire Line
	8900 6450 8900 6250
Wire Wire Line
	8650 6250 8650 6450
Connection ~ 8650 6450
Wire Wire Line
	8550 6250 8550 6700
Wire Wire Line
	8550 6700 9750 6700
Wire Wire Line
	9750 6700 9750 6950
Wire Wire Line
	9750 6950 9900 6950
Wire Wire Line
	9900 6950 10250 6950
Wire Wire Line
	10250 6950 10650 6950
Wire Wire Line
	10650 6950 10650 6650
Wire Wire Line
	10250 6900 10250 6950
Wire Wire Line
	9900 6850 9900 6950
Connection ~ 10250 6950
Connection ~ 9900 6950
Wire Wire Line
	9000 6250 9000 6450
Wire Wire Line
	9000 6450 9450 6450
Wire Wire Line
	8350 7250 8650 7250
Wire Wire Line
	8650 7250 8900 7250
Wire Wire Line
	8900 7250 8900 7050
Wire Wire Line
	8650 7050 8650 7250
Connection ~ 8650 7250
Wire Wire Line
	8550 7050 8550 7500
Wire Wire Line
	8550 7500 9750 7500
Wire Wire Line
	9750 7500 9750 7750
Wire Wire Line
	9750 7750 9900 7750
Wire Wire Line
	9900 7750 10250 7750
Wire Wire Line
	10250 7750 10650 7750
Wire Wire Line
	10650 7750 10650 7450
Wire Wire Line
	9900 7650 9900 7750
Wire Wire Line
	10250 7700 10250 7750
Connection ~ 9900 7750
Connection ~ 10250 7750
Wire Wire Line
	9000 7050 9000 7250
Wire Wire Line
	9000 7250 9450 7250
Wire Wire Line
	15100 1200 14200 1200
Text Label 14600 1200 0    70   ~ 0
24V_IN
Wire Wire Line
	12900 8500 13100 8500
Wire Wire Line
	13100 8500 13100 8200
Wire Wire Line
	13100 8200 12900 8200
Wire Wire Line
	13100 8200 13600 8200
Connection ~ 13100 8200
Text Label 13300 8200 0    70   ~ 0
24V_IN
Wire Wire Line
	14700 8200 14900 8200
Wire Wire Line
	14900 8200 15500 8200
Wire Wire Line
	14700 8500 14900 8500
Wire Wire Line
	14900 8500 14900 8200
Connection ~ 14900 8200
Text Label 15200 8200 0    70   ~ 0
24V_IN
Wire Wire Line
	14000 1200 13700 1200
$Comp
L Digitales_IO-Modul_d-eagle-import:M20X2 CON_1
U 1 1 0001D5F7
P 2450 6000
F 0 "CON_1" H 2350 7150 59  0000 L BNN
F 1 "M20X2" H 2350 4900 59  0000 L BNN
F 2 "Connector_PinSocket_2.54mm:PinSocket_2x20_P2.54mm_Vertical" H 2450 6000 50  0001 C CNN
F 3 "" H 2450 6000 50  0001 C CNN
	1    2450 6000
	1    0    0    -1  
$EndComp
$Comp
L Digitales_IO-Modul_d-eagle-import:MCP23017SS IC1
U 1 1 06F92037
P 4100 3150
F 0 "IC1" H 3700 4100 59  0000 L BNN
F 1 "MCP23017SS" H 3700 2150 59  0000 L BNN
F 2 "Package_SO:SSOP-28_5.3x10.2mm_P0.65mm" H 4100 3150 50  0001 C CNN
F 3 "" H 4100 3150 50  0001 C CNN
	1    4100 3150
	1    0    0    -1  
$EndComp
$Comp
L Digitales_IO-Modul_d-eagle-import:SW_DIP-4 SW1
U 1 1 E9E31E47
P 2500 3150
F 0 "SW1" H 2300 3375 59  0000 L BNN
F 1 "SW_DIP-4" H 2300 2750 59  0000 L BNN
F 2 "Digitales IO-Modul_d:EDG-04" H 2500 3150 50  0001 C CNN
F 3 "" H 2500 3150 50  0001 C CNN
	1    2500 3150
	0    1    1    0   
$EndComp
$Comp
L Digitales_IO-Modul_d-eagle-import:C-EUC0805 C1
U 1 1 218CB388
P 6400 1500
F 0 "C1" H 6460 1515 59  0000 L BNN
F 1 "100n" H 6460 1315 59  0000 L BNN
F 2 "Capacitor_SMD:C_0805_2012Metric_Pad1.15x1.40mm_HandSolder" H 6400 1500 50  0001 C CNN
F 3 "" H 6400 1500 50  0001 C CNN
	1    6400 1500
	1    0    0    -1  
$EndComp
$Comp
L Digitales_IO-Modul_d-eagle-import:BSP452 U1
U 1 1 F9562130
P 13500 1900
F 0 "U1" H 13500 1925 42  0000 L BNN
F 1 "BSP452" H 13500 1425 42  0000 L BNN
F 2 "Package_TO_SOT_SMD:SOT-223" H 13500 1900 50  0001 C CNN
F 3 "" H 13500 1900 50  0001 C CNN
	1    13500 1900
	1    0    0    -1  
$EndComp
$Comp
L Digitales_IO-Modul_d-eagle-import:BSP452 U2
U 1 1 C2DEB937
P 13500 2600
F 0 "U2" H 13500 2625 42  0000 L BNN
F 1 "BSP452" H 13500 2125 42  0000 L BNN
F 2 "Package_TO_SOT_SMD:SOT-223" H 13500 2600 50  0001 C CNN
F 3 "" H 13500 2600 50  0001 C CNN
	1    13500 2600
	1    0    0    -1  
$EndComp
$Comp
L Digitales_IO-Modul_d-eagle-import:BSP452 U3
U 1 1 9A04CEE8
P 13500 3300
F 0 "U3" H 13500 3325 42  0000 L BNN
F 1 "BSP452" H 13500 2825 42  0000 L BNN
F 2 "Package_TO_SOT_SMD:SOT-223" H 13500 3300 50  0001 C CNN
F 3 "" H 13500 3300 50  0001 C CNN
	1    13500 3300
	1    0    0    -1  
$EndComp
$Comp
L Digitales_IO-Modul_d-eagle-import:BSP452 U4
U 1 1 7C57E89D
P 13500 4000
F 0 "U4" H 13500 4025 42  0000 L BNN
F 1 "BSP452" H 13500 3525 42  0000 L BNN
F 2 "Package_TO_SOT_SMD:SOT-223" H 13500 4000 50  0001 C CNN
F 3 "" H 13500 4000 50  0001 C CNN
	1    13500 4000
	1    0    0    -1  
$EndComp
$Comp
L Digitales_IO-Modul_d-eagle-import:BSP452 U5
U 1 1 FECC9F54
P 13500 4700
F 0 "U5" H 13500 4725 42  0000 L BNN
F 1 "BSP452" H 13500 4225 42  0000 L BNN
F 2 "Package_TO_SOT_SMD:SOT-223" H 13500 4700 50  0001 C CNN
F 3 "" H 13500 4700 50  0001 C CNN
	1    13500 4700
	1    0    0    -1  
$EndComp
$Comp
L Digitales_IO-Modul_d-eagle-import:BSP452 U6
U 1 1 E64FE535
P 13500 5400
F 0 "U6" H 13500 5425 42  0000 L BNN
F 1 "BSP452" H 13500 4925 42  0000 L BNN
F 2 "Package_TO_SOT_SMD:SOT-223" H 13500 5400 50  0001 C CNN
F 3 "" H 13500 5400 50  0001 C CNN
	1    13500 5400
	1    0    0    -1  
$EndComp
$Comp
L Digitales_IO-Modul_d-eagle-import:BSP452 U7
U 1 1 63AD74B9
P 13500 6100
F 0 "U7" H 13500 6125 42  0000 L BNN
F 1 "BSP452" H 13500 5625 42  0000 L BNN
F 2 "Package_TO_SOT_SMD:SOT-223" H 13500 6100 50  0001 C CNN
F 3 "" H 13500 6100 50  0001 C CNN
	1    13500 6100
	1    0    0    -1  
$EndComp
$Comp
L Digitales_IO-Modul_d-eagle-import:BSP452 U8
U 1 1 8CD5E0B3
P 13500 6800
F 0 "U8" H 13500 6825 42  0000 L BNN
F 1 "BSP452" H 13500 6325 42  0000 L BNN
F 2 "Package_TO_SOT_SMD:SOT-223" H 13500 6800 50  0001 C CNN
F 3 "" H 13500 6800 50  0001 C CNN
	1    13500 6800
	1    0    0    -1  
$EndComp
$Comp
L Digitales_IO-Modul_d-eagle-import:DIODE-DO214AA D1
U 1 1 DBCBC8E8
P 14750 2350
F 0 "D1" V 14831 2450 59  0000 L BNN
F 1 "M1" V 14741 2450 59  0000 L BNN
F 2 "Digitales IO-Modul_d:DO214AA" H 14750 2350 50  0001 C CNN
F 3 "" H 14750 2350 50  0001 C CNN
	1    14750 2350
	0    -1   -1   0   
$EndComp
$Comp
L Digitales_IO-Modul_d-eagle-import:DIODE-DO214AA D2
U 1 1 769858AF
P 14800 3100
F 0 "D2" V 14881 3200 59  0000 L BNN
F 1 "M1" V 14791 3200 59  0000 L BNN
F 2 "Digitales IO-Modul_d:DO214AA" H 14800 3100 50  0001 C CNN
F 3 "" H 14800 3100 50  0001 C CNN
	1    14800 3100
	0    -1   -1   0   
$EndComp
$Comp
L Digitales_IO-Modul_d-eagle-import:DIODE-DO214AA D3
U 1 1 6F49A916
P 14800 3800
F 0 "D3" V 14881 3900 59  0000 L BNN
F 1 "M1" V 14791 3900 59  0000 L BNN
F 2 "Digitales IO-Modul_d:DO214AA" H 14800 3800 50  0001 C CNN
F 3 "" H 14800 3800 50  0001 C CNN
	1    14800 3800
	0    -1   -1   0   
$EndComp
$Comp
L Digitales_IO-Modul_d-eagle-import:DIODE-DO214AA D4
U 1 1 8A3A3D61
P 14800 4500
F 0 "D4" V 14881 4600 59  0000 L BNN
F 1 "M1" V 14791 4600 59  0000 L BNN
F 2 "Digitales IO-Modul_d:DO214AA" H 14800 4500 50  0001 C CNN
F 3 "" H 14800 4500 50  0001 C CNN
	1    14800 4500
	0    -1   -1   0   
$EndComp
$Comp
L Digitales_IO-Modul_d-eagle-import:DIODE-DO214AA D5
U 1 1 2568DA8A
P 14800 5200
F 0 "D5" V 14881 5300 59  0000 L BNN
F 1 "M1" V 14791 5300 59  0000 L BNN
F 2 "Digitales IO-Modul_d:DO214AA" H 14800 5200 50  0001 C CNN
F 3 "" H 14800 5200 50  0001 C CNN
	1    14800 5200
	0    -1   -1   0   
$EndComp
$Comp
L Digitales_IO-Modul_d-eagle-import:DIODE-DO214AA D6
U 1 1 5A771B21
P 14800 5900
F 0 "D6" V 14881 6000 59  0000 L BNN
F 1 "M1" V 14791 6000 59  0000 L BNN
F 2 "Digitales IO-Modul_d:DO214AA" H 14800 5900 50  0001 C CNN
F 3 "" H 14800 5900 50  0001 C CNN
	1    14800 5900
	0    -1   -1   0   
$EndComp
$Comp
L Digitales_IO-Modul_d-eagle-import:DIODE-DO214AA D7
U 1 1 327017E4
P 14800 6600
F 0 "D7" V 14881 6700 59  0000 L BNN
F 1 "M1" V 14791 6700 59  0000 L BNN
F 2 "Digitales IO-Modul_d:DO214AA" H 14800 6600 50  0001 C CNN
F 3 "" H 14800 6600 50  0001 C CNN
	1    14800 6600
	0    -1   -1   0   
$EndComp
$Comp
L Digitales_IO-Modul_d-eagle-import:DIODE-DO214AA D8
U 1 1 A078FBE1
P 14800 7300
F 0 "D8" V 14881 7400 59  0000 L BNN
F 1 "M1" V 14791 7400 59  0000 L BNN
F 2 "Digitales IO-Modul_d:DO214AA" H 14800 7300 50  0001 C CNN
F 3 "" H 14800 7300 50  0001 C CNN
	1    14800 7300
	0    -1   -1   0   
$EndComp
$Comp
L Isolator:LTV-357T OK1
U 1 1 45BFB91C
P 11150 1750
F 0 "OK1" H 10875 1975 59  0000 L BNN
F 1 "PC357" H 10875 1450 59  0000 L BNN
F 2 "OPTO:SOIC254P975X460-4N" H 11150 1750 50  0001 C CNN
F 3 "" H 11150 1750 50  0001 C CNN
	1    11150 1750
	1    0    0    -1  
$EndComp
$Comp
L Digitales_IO-Modul_d-eagle-import:R-EU_R0805 R11
U 1 1 66CAF554
P 10250 1900
F 0 "R11" V 10341 1650 59  0000 L BNN
F 1 "680" V 10230 1650 59  0000 L BNN
F 2 "Resistor_SMD:R_0805_2012Metric_Pad1.15x1.40mm_HandSolder" H 10250 1900 50  0001 C CNN
F 3 "" H 10250 1900 50  0001 C CNN
	1    10250 1900
	0    -1   -1   0   
$EndComp
$Comp
L Digitales_IO-Modul_d-eagle-import:R-EU_R0805 R13
U 1 1 040DBE10
P 10250 3500
F 0 "R13" V 10341 3250 59  0000 L BNN
F 1 "680" V 10220 3260 59  0000 L BNN
F 2 "Resistor_SMD:R_0805_2012Metric_Pad1.15x1.40mm_HandSolder" H 10250 3500 50  0001 C CNN
F 3 "" H 10250 3500 50  0001 C CNN
	1    10250 3500
	0    -1   -1   0   
$EndComp
$Comp
L Digitales_IO-Modul_d-eagle-import:R-EU_R0805 R12
U 1 1 D463C47C
P 10250 2700
F 0 "R12" V 10341 2450 59  0000 L BNN
F 1 "680" V 10230 2450 59  0000 L BNN
F 2 "Resistor_SMD:R_0805_2012Metric_Pad1.15x1.40mm_HandSolder" H 10250 2700 50  0001 C CNN
F 3 "" H 10250 2700 50  0001 C CNN
	1    10250 2700
	0    -1   -1   0   
$EndComp
$Comp
L Digitales_IO-Modul_d-eagle-import:R-EU_R0805 R14
U 1 1 FF42F050
P 10250 4300
F 0 "R14" V 10341 4050 59  0000 L BNN
F 1 "680" V 10230 4050 59  0000 L BNN
F 2 "Resistor_SMD:R_0805_2012Metric_Pad1.15x1.40mm_HandSolder" H 10250 4300 50  0001 C CNN
F 3 "" H 10250 4300 50  0001 C CNN
	1    10250 4300
	0    -1   -1   0   
$EndComp
$Comp
L Digitales_IO-Modul_d-eagle-import:GND #GND06
U 1 1 A07C0193
P 11650 2000
F 0 "#GND06" H 11650 2000 50  0001 C CNN
F 1 "GND" H 11550 1900 59  0000 L BNN
F 2 "" H 11650 2000 50  0001 C CNN
F 3 "" H 11650 2000 50  0001 C CNN
	1    11650 2000
	1    0    0    -1  
$EndComp
$Comp
L Digitales_IO-Modul_d-eagle-import:GND #GND019
U 1 1 48B3EBD8
P 11650 2800
F 0 "#GND019" H 11650 2800 50  0001 C CNN
F 1 "GND" H 11550 2700 59  0000 L BNN
F 2 "" H 11650 2800 50  0001 C CNN
F 3 "" H 11650 2800 50  0001 C CNN
	1    11650 2800
	1    0    0    -1  
$EndComp
$Comp
L Digitales_IO-Modul_d-eagle-import:GND #GND026
U 1 1 9E0685E6
P 11650 3600
F 0 "#GND026" H 11650 3600 50  0001 C CNN
F 1 "GND" H 11550 3500 59  0000 L BNN
F 2 "" H 11650 3600 50  0001 C CNN
F 3 "" H 11650 3600 50  0001 C CNN
	1    11650 3600
	1    0    0    -1  
$EndComp
$Comp
L Digitales_IO-Modul_d-eagle-import:GND #GND032
U 1 1 BDD76BF8
P 11650 4400
F 0 "#GND032" H 11650 4400 50  0001 C CNN
F 1 "GND" H 11550 4300 59  0000 L BNN
F 2 "" H 11650 4400 50  0001 C CNN
F 3 "" H 11650 4400 50  0001 C CNN
	1    11650 4400
	1    0    0    -1  
$EndComp
$Comp
L Digitales_IO-Modul_d-eagle-import:R-EU_R0805 R15
U 1 1 5BEA2741
P 10250 5100
F 0 "R15" V 10341 4850 59  0000 L BNN
F 1 "680" V 10230 4850 59  0000 L BNN
F 2 "Resistor_SMD:R_0805_2012Metric_Pad1.15x1.40mm_HandSolder" H 10250 5100 50  0001 C CNN
F 3 "" H 10250 5100 50  0001 C CNN
	1    10250 5100
	0    -1   -1   0   
$EndComp
$Comp
L Digitales_IO-Modul_d-eagle-import:GND #GND01
U 1 1 DB8695AC
P 11650 5200
F 0 "#GND01" H 11650 5200 50  0001 C CNN
F 1 "GND" H 11550 5100 59  0000 L BNN
F 2 "" H 11650 5200 50  0001 C CNN
F 3 "" H 11650 5200 50  0001 C CNN
	1    11650 5200
	1    0    0    -1  
$EndComp
$Comp
L Digitales_IO-Modul_d-eagle-import:R-EU_R0805 R17
U 1 1 019771F3
P 10250 6700
F 0 "R17" V 10341 6450 59  0000 L BNN
F 1 "680" V 10230 6450 59  0000 L BNN
F 2 "Resistor_SMD:R_0805_2012Metric_Pad1.15x1.40mm_HandSolder" H 10250 6700 50  0001 C CNN
F 3 "" H 10250 6700 50  0001 C CNN
	1    10250 6700
	0    -1   -1   0   
$EndComp
$Comp
L Digitales_IO-Modul_d-eagle-import:R-EU_R0805 R18
U 1 1 B0E9CAAE
P 10250 7500
F 0 "R18" V 10341 7250 59  0000 L BNN
F 1 "680" V 10230 7250 59  0000 L BNN
F 2 "Resistor_SMD:R_0805_2012Metric_Pad1.15x1.40mm_HandSolder" H 10250 7500 50  0001 C CNN
F 3 "" H 10250 7500 50  0001 C CNN
	1    10250 7500
	0    -1   -1   0   
$EndComp
$Comp
L Digitales_IO-Modul_d-eagle-import:R-EU_R1206 R1
U 1 1 9A8FB65B
P 9650 1650
F 0 "R1" H 9500 1709 59  0000 L BNN
F 1 "3k3" H 9500 1520 59  0000 L BNN
F 2 "Resistor_SMD:R_0805_2012Metric_Pad1.15x1.40mm_HandSolder" H 9650 1650 50  0001 C CNN
F 3 "" H 9650 1650 50  0001 C CNN
	1    9650 1650
	1    0    0    -1  
$EndComp
$Comp
L Digitales_IO-Modul_d-eagle-import:R-EU_R1206 R3
U 1 1 05374305
P 9650 3250
F 0 "R3" H 9500 3309 59  0000 L BNN
F 1 "3k3" H 9500 3120 59  0000 L BNN
F 2 "Resistor_SMD:R_0805_2012Metric_Pad1.15x1.40mm_HandSolder" H 9650 3250 50  0001 C CNN
F 3 "" H 9650 3250 50  0001 C CNN
	1    9650 3250
	1    0    0    -1  
$EndComp
$Comp
L Digitales_IO-Modul_d-eagle-import:R-EU_R1206 R4
U 1 1 BBE940DC
P 9650 4050
F 0 "R4" H 9500 4109 59  0000 L BNN
F 1 "3k3" H 9500 3920 59  0000 L BNN
F 2 "Resistor_SMD:R_0805_2012Metric_Pad1.15x1.40mm_HandSolder" H 9650 4050 50  0001 C CNN
F 3 "" H 9650 4050 50  0001 C CNN
	1    9650 4050
	1    0    0    -1  
$EndComp
$Comp
L Digitales_IO-Modul_d-eagle-import:R-EU_R1206 R5
U 1 1 2451A944
P 9650 4850
F 0 "R5" H 9500 4909 59  0000 L BNN
F 1 "3k3" H 9500 4720 59  0000 L BNN
F 2 "Resistor_SMD:R_0805_2012Metric_Pad1.15x1.40mm_HandSolder" H 9650 4850 50  0001 C CNN
F 3 "" H 9650 4850 50  0001 C CNN
	1    9650 4850
	1    0    0    -1  
$EndComp
$Comp
L Digitales_IO-Modul_d-eagle-import:R-EU_R1206 R6
U 1 1 B5D2AB19
P 9650 5650
F 0 "R6" H 9500 5709 59  0000 L BNN
F 1 "3k3" H 9500 5520 59  0000 L BNN
F 2 "Resistor_SMD:R_0805_2012Metric_Pad1.15x1.40mm_HandSolder" H 9650 5650 50  0001 C CNN
F 3 "" H 9650 5650 50  0001 C CNN
	1    9650 5650
	1    0    0    -1  
$EndComp
$Comp
L Digitales_IO-Modul_d-eagle-import:R-EU_R1206 R7
U 1 1 4F34659C
P 9650 6450
F 0 "R7" H 9500 6509 59  0000 L BNN
F 1 "3k3" H 9500 6320 59  0000 L BNN
F 2 "Resistor_SMD:R_0805_2012Metric_Pad1.15x1.40mm_HandSolder" H 9650 6450 50  0001 C CNN
F 3 "" H 9650 6450 50  0001 C CNN
	1    9650 6450
	1    0    0    -1  
$EndComp
$Comp
L Digitales_IO-Modul_d-eagle-import:R-EU_R1206 R8
U 1 1 62E532C4
P 9650 7250
F 0 "R8" H 9500 7309 59  0000 L BNN
F 1 "3k3" H 9500 7120 59  0000 L BNN
F 2 "Resistor_SMD:R_0805_2012Metric_Pad1.15x1.40mm_HandSolder" H 9650 7250 50  0001 C CNN
F 3 "" H 9650 7250 50  0001 C CNN
	1    9650 7250
	1    0    0    -1  
$EndComp
$Comp
L Digitales_IO-Modul_d-eagle-import:C-EUC0805 C2
U 1 1 69098DAB
P 9900 1850
F 0 "C2" H 9960 1865 59  0000 L BNN
F 1 "100n" H 9960 1665 59  0000 L BNN
F 2 "Capacitor_SMD:C_0805_2012Metric_Pad1.15x1.40mm_HandSolder" H 9900 1850 50  0001 C CNN
F 3 "" H 9900 1850 50  0001 C CNN
	1    9900 1850
	1    0    0    -1  
$EndComp
$Comp
L Digitales_IO-Modul_d-eagle-import:C-EUC0805 C3
U 1 1 0AE61553
P 9900 2650
F 0 "C3" H 9960 2665 59  0000 L BNN
F 1 "100n" H 9960 2465 59  0000 L BNN
F 2 "Capacitor_SMD:C_0805_2012Metric_Pad1.15x1.40mm_HandSolder" H 9900 2650 50  0001 C CNN
F 3 "" H 9900 2650 50  0001 C CNN
	1    9900 2650
	1    0    0    -1  
$EndComp
$Comp
L Digitales_IO-Modul_d-eagle-import:C-EUC0805 C4
U 1 1 284EA6E9
P 9900 3450
F 0 "C4" H 9960 3465 59  0000 L BNN
F 1 "100n" H 9960 3265 59  0000 L BNN
F 2 "Capacitor_SMD:C_0805_2012Metric_Pad1.15x1.40mm_HandSolder" H 9900 3450 50  0001 C CNN
F 3 "" H 9900 3450 50  0001 C CNN
	1    9900 3450
	1    0    0    -1  
$EndComp
$Comp
L Digitales_IO-Modul_d-eagle-import:C-EUC0805 C5
U 1 1 F9108C4C
P 9900 4250
F 0 "C5" H 9960 4265 59  0000 L BNN
F 1 "100n" H 9960 4065 59  0000 L BNN
F 2 "Capacitor_SMD:C_0805_2012Metric_Pad1.15x1.40mm_HandSolder" H 9900 4250 50  0001 C CNN
F 3 "" H 9900 4250 50  0001 C CNN
	1    9900 4250
	1    0    0    -1  
$EndComp
$Comp
L Digitales_IO-Modul_d-eagle-import:C-EUC0805 C6
U 1 1 FE64C8E2
P 9900 5050
F 0 "C6" H 9960 5065 59  0000 L BNN
F 1 "100n" H 9960 4865 59  0000 L BNN
F 2 "Capacitor_SMD:C_0805_2012Metric_Pad1.15x1.40mm_HandSolder" H 9900 5050 50  0001 C CNN
F 3 "" H 9900 5050 50  0001 C CNN
	1    9900 5050
	1    0    0    -1  
$EndComp
$Comp
L Digitales_IO-Modul_d-eagle-import:C-EUC0805 C7
U 1 1 B9E0DE35
P 9900 5850
F 0 "C7" H 9960 5865 59  0000 L BNN
F 1 "100n" H 9960 5665 59  0000 L BNN
F 2 "Capacitor_SMD:C_0805_2012Metric_Pad1.15x1.40mm_HandSolder" H 9900 5850 50  0001 C CNN
F 3 "" H 9900 5850 50  0001 C CNN
	1    9900 5850
	1    0    0    -1  
$EndComp
$Comp
L Digitales_IO-Modul_d-eagle-import:C-EUC0805 C8
U 1 1 621C301E
P 9900 6650
F 0 "C8" H 9960 6665 59  0000 L BNN
F 1 "100n" H 9960 6465 59  0000 L BNN
F 2 "Capacitor_SMD:C_0805_2012Metric_Pad1.15x1.40mm_HandSolder" H 9900 6650 50  0001 C CNN
F 3 "" H 9900 6650 50  0001 C CNN
	1    9900 6650
	1    0    0    -1  
$EndComp
$Comp
L Digitales_IO-Modul_d-eagle-import:C-EUC0805 C9
U 1 1 27EB63CA
P 9900 7450
F 0 "C9" H 9960 7465 59  0000 L BNN
F 1 "100n" H 9960 7265 59  0000 L BNN
F 2 "Capacitor_SMD:C_0805_2012Metric_Pad1.15x1.40mm_HandSolder" H 9900 7450 50  0001 C CNN
F 3 "" H 9900 7450 50  0001 C CNN
	1    9900 7450
	1    0    0    -1  
$EndComp
$Comp
L Digitales_IO-Modul_d-eagle-import:GND #GND02
U 1 1 13A376EC
P 11650 6000
F 0 "#GND02" H 11650 6000 50  0001 C CNN
F 1 "GND" H 11550 5900 59  0000 L BNN
F 2 "" H 11650 6000 50  0001 C CNN
F 3 "" H 11650 6000 50  0001 C CNN
	1    11650 6000
	1    0    0    -1  
$EndComp
$Comp
L Digitales_IO-Modul_d-eagle-import:GND #GND03
U 1 1 7679BDCC
P 11650 6800
F 0 "#GND03" H 11650 6800 50  0001 C CNN
F 1 "GND" H 11550 6700 59  0000 L BNN
F 2 "" H 11650 6800 50  0001 C CNN
F 3 "" H 11650 6800 50  0001 C CNN
	1    11650 6800
	1    0    0    -1  
$EndComp
$Comp
L Digitales_IO-Modul_d-eagle-import:GND #GND04
U 1 1 D896219B
P 11850 7700
F 0 "#GND04" H 11850 7700 50  0001 C CNN
F 1 "GND" H 11750 7600 59  0000 L BNN
F 2 "" H 11850 7700 50  0001 C CNN
F 3 "" H 11850 7700 50  0001 C CNN
	1    11850 7700
	1    0    0    -1  
$EndComp
$Comp
L Digitales_IO-Modul_d-eagle-import:R-EU_R0805 R16
U 1 1 0F4B4322
P 10250 5900
F 0 "R16" V 10341 5650 59  0000 L BNN
F 1 "680" V 10230 5650 59  0000 L BNN
F 2 "Resistor_SMD:R_0805_2012Metric_Pad1.15x1.40mm_HandSolder" H 10250 5900 50  0001 C CNN
F 3 "" H 10250 5900 50  0001 C CNN
	1    10250 5900
	0    -1   -1   0   
$EndComp
$Comp
L Digitales_IO-Modul_d-eagle-import:CPOL-EUF C10
U 1 1 063C1451
P 14900 1850
F 0 "C10" H 14945 1869 59  0000 L BNN
F 1 "47µ / 35V" H 14945 1669 59  0000 L BNN
F 2 "Digitales IO-Modul_d:PANASONIC_F" H 14900 1850 50  0001 C CNN
F 3 "" H 14900 1850 50  0001 C CNN
	1    14900 1850
	1    0    0    -1  
$EndComp
$Comp
L Digitales_IO-Modul_d-eagle-import:WIREPADSMD1,27-254 I1
U 1 1 62049814
P 12200 1650
F 0 "I1" H 12155 1723 59  0000 L BNN
F 1 "WIREPADSMD1,27-254" H 12105 1370 59  0000 L BNN
F 2 "Digitales IO-Modul_d:SMD1,27-2,54" H 12200 1650 50  0001 C CNN
F 3 "" H 12200 1650 50  0001 C CNN
	1    12200 1650
	-1   0    0    1   
$EndComp
$Comp
L Digitales_IO-Modul_d-eagle-import:WIREPADSMD1,27-254 I2
U 1 1 669306A2
P 12200 2450
F 0 "I2" H 12155 2523 59  0000 L BNN
F 1 "WIREPADSMD1,27-254" H 12105 2220 59  0000 L BNN
F 2 "Digitales IO-Modul_d:SMD1,27-2,54" H 12200 2450 50  0001 C CNN
F 3 "" H 12200 2450 50  0001 C CNN
	1    12200 2450
	-1   0    0    1   
$EndComp
$Comp
L Digitales_IO-Modul_d-eagle-import:WIREPADSMD1,27-254 I3
U 1 1 5B9721F7
P 12200 3250
F 0 "I3" H 12155 3323 59  0000 L BNN
F 1 "WIREPADSMD1,27-254" H 12105 2970 59  0000 L BNN
F 2 "Digitales IO-Modul_d:SMD1,27-2,54" H 12200 3250 50  0001 C CNN
F 3 "" H 12200 3250 50  0001 C CNN
	1    12200 3250
	-1   0    0    1   
$EndComp
$Comp
L Digitales_IO-Modul_d-eagle-import:WIREPADSMD1,27-254 I4
U 1 1 16EB477C
P 12200 4050
F 0 "I4" H 12155 4123 59  0000 L BNN
F 1 "WIREPADSMD1,27-254" H 12105 3770 59  0000 L BNN
F 2 "Digitales IO-Modul_d:SMD1,27-2,54" H 12200 4050 50  0001 C CNN
F 3 "" H 12200 4050 50  0001 C CNN
	1    12200 4050
	-1   0    0    1   
$EndComp
$Comp
L Digitales_IO-Modul_d-eagle-import:WIREPADSMD1,27-254 I5
U 1 1 2E198873
P 12200 4850
F 0 "I5" H 12155 4923 59  0000 L BNN
F 1 "WIREPADSMD1,27-254" H 12105 4570 59  0000 L BNN
F 2 "Digitales IO-Modul_d:SMD1,27-2,54" H 12200 4850 50  0001 C CNN
F 3 "" H 12200 4850 50  0001 C CNN
	1    12200 4850
	-1   0    0    1   
$EndComp
$Comp
L Digitales_IO-Modul_d-eagle-import:WIREPADSMD1,27-254 I6
U 1 1 578A3CF6
P 12200 5650
F 0 "I6" H 12155 5723 59  0000 L BNN
F 1 "WIREPADSMD1,27-254" H 12105 5370 59  0000 L BNN
F 2 "Digitales IO-Modul_d:SMD1,27-2,54" H 12200 5650 50  0001 C CNN
F 3 "" H 12200 5650 50  0001 C CNN
	1    12200 5650
	-1   0    0    1   
$EndComp
$Comp
L Digitales_IO-Modul_d-eagle-import:WIREPADSMD1,27-254 I7
U 1 1 77E989E7
P 12200 6450
F 0 "I7" H 12155 6523 59  0000 L BNN
F 1 "WIREPADSMD1,27-254" H 12055 6170 59  0000 L BNN
F 2 "Digitales IO-Modul_d:SMD1,27-2,54" H 12200 6450 50  0001 C CNN
F 3 "" H 12200 6450 50  0001 C CNN
	1    12200 6450
	-1   0    0    1   
$EndComp
$Comp
L Digitales_IO-Modul_d-eagle-import:WIREPADSMD1,27-254 I8
U 1 1 250D81D9
P 12200 7250
F 0 "I8" H 12155 7323 59  0000 L BNN
F 1 "WIREPADSMD1,27-254" H 12055 6970 59  0000 L BNN
F 2 "Digitales IO-Modul_d:SMD1,27-2,54" H 12200 7250 50  0001 C CNN
F 3 "" H 12200 7250 50  0001 C CNN
	1    12200 7250
	-1   0    0    1   
$EndComp
$Comp
L Digitales_IO-Modul_d-eagle-import:WIREPADSMD1,27-254 I_5V1
U 1 1 73BE7D13
P 9900 8750
F 0 "I_5V1" H 9795 8777 59  0000 R TNN
F 1 "WIREPADSMD1,27-254" H 9395 8780 59  0000 R TNN
F 2 "Digitales IO-Modul_d:SMD1,27-2,54" H 9900 8750 50  0001 C CNN
F 3 "" H 9900 8750 50  0001 C CNN
	1    9900 8750
	-1   0    0    1   
$EndComp
$Comp
L Digitales_IO-Modul_d-eagle-import:WIREPADSMD1,27-254 GND1
U 1 1 8E097FD0
P 9800 9000
F 0 "GND1" H 9695 9027 59  0000 R TNN
F 1 "WIREPADSMD1,27-254" H 9295 9030 59  0000 R TNN
F 2 "Digitales IO-Modul_d:SMD1,27-2,54" H 9800 9000 50  0001 C CNN
F 3 "" H 9800 9000 50  0001 C CNN
	1    9800 9000
	-1   0    0    1   
$EndComp
$Comp
L Digitales_IO-Modul_d-eagle-import:R-EU_R0603 R9
U 1 1 79878D31
P 4400 900
F 0 "R9" H 4250 959 59  0000 L BNN
F 1 "NB" H 4550 970 59  0000 L BNN
F 2 "Resistor_SMD:R_0805_2012Metric_Pad1.15x1.40mm_HandSolder" H 4400 900 50  0001 C CNN
F 3 "" H 4400 900 50  0001 C CNN
	1    4400 900 
	1    0    0    -1  
$EndComp
$Comp
L Digitales_IO-Modul_d-eagle-import:R-EU_R0603 R10
U 1 1 2E639911
P 4400 1200
F 0 "R10" H 4250 1259 59  0000 L BNN
F 1 "NB" H 4550 1270 59  0000 L BNN
F 2 "Resistor_SMD:R_0805_2012Metric_Pad1.15x1.40mm_HandSolder" H 4400 1200 50  0001 C CNN
F 3 "" H 4400 1200 50  0001 C CNN
	1    4400 1200
	1    0    0    -1  
$EndComp
$Comp
L Digitales_IO-Modul_d-eagle-import:R-EU_R0603 R19
U 1 1 69523DA1
P 4400 1500
F 0 "R19" H 4250 1559 59  0000 L BNN
F 1 "0" H 4550 1570 59  0000 L BNN
F 2 "Resistor_SMD:R_0805_2012Metric_Pad1.15x1.40mm_HandSolder" H 4400 1500 50  0001 C CNN
F 3 "" H 4400 1500 50  0001 C CNN
	1    4400 1500
	1    0    0    -1  
$EndComp
$Comp
L Digitales_IO-Modul_d-eagle-import:R-EU_R0603 R20
U 1 1 818B1D88
P 4400 1800
F 0 "R20" H 4250 1859 59  0000 L BNN
F 1 "NB" H 4550 1870 59  0000 L BNN
F 2 "Resistor_SMD:R_0805_2012Metric_Pad1.15x1.40mm_HandSolder" H 4400 1800 50  0001 C CNN
F 3 "" H 4400 1800 50  0001 C CNN
	1    4400 1800
	1    0    0    -1  
$EndComp
$Comp
L Digitales_IO-Modul_d-eagle-import:RESISTORMARKED-0603 R21
U 1 1 9DD4332C
P 6400 7250
F 0 "R21" H 6250 7309 59  0000 L BNN
F 1 "10k" H 6250 7120 59  0000 L BNN
F 2 "Resistor_SMD:R_0805_2012Metric_Pad1.15x1.40mm_HandSolder" H 6400 7250 50  0001 C CNN
F 3 "" H 6400 7250 50  0001 C CNN
	1    6400 7250
	0    -1   -1   0   
$EndComp
$Comp
L Digitales_IO-Modul_d-eagle-import:RESISTORMARKED-0603 R22
U 1 1 4920326A
P 6100 7250
F 0 "R22" H 5950 7309 59  0000 L BNN
F 1 "10k" H 5950 7120 59  0000 L BNN
F 2 "Resistor_SMD:R_0805_2012Metric_Pad1.15x1.40mm_HandSolder" H 6100 7250 50  0001 C CNN
F 3 "" H 6100 7250 50  0001 C CNN
	1    6100 7250
	0    -1   -1   0   
$EndComp
$Comp
L Digitales_IO-Modul_d-eagle-import:GND #GND05
U 1 1 EF27308A
P 5800 7450
F 0 "#GND05" H 5800 7450 50  0001 C CNN
F 1 "GND" H 5700 7350 59  0000 L BNN
F 2 "" H 5800 7450 50  0001 C CNN
F 3 "" H 5800 7450 50  0001 C CNN
	1    5800 7450
	1    0    0    -1  
$EndComp
$Comp
L Digitales_IO-Modul_d-eagle-import:GND #GND07
U 1 1 9CDE76EF
P 3700 8050
F 0 "#GND07" H 3700 8050 50  0001 C CNN
F 1 "GND" H 3600 7950 59  0000 L BNN
F 2 "" H 3700 8050 50  0001 C CNN
F 3 "" H 3700 8050 50  0001 C CNN
	1    3700 8050
	1    0    0    -1  
$EndComp
$Comp
L Digitales_IO-Modul_d-eagle-import:CAPMARKED-0603 C11
U 1 1 892386DA
P 5800 7250
F 0 "C11" H 5860 7365 59  0000 L BNN
F 1 "0.1uF" H 5860 7165 59  0000 L BNN
F 2 "Digitales IO-Modul_d:0603-CAP-MARKED" H 5800 7250 50  0001 C CNN
F 3 "" H 5800 7250 50  0001 C CNN
	1    5800 7250
	-1   0    0    -1  
$EndComp
$Comp
L Digitales_IO-Modul_d-eagle-import:R-EU_M0805 R23
U 1 1 CE556BDD
P 5550 8100
F 0 "R23" H 5400 8159 59  0000 L BNN
F 1 "DNP" H 5400 7970 59  0000 L BNN
F 2 "Resistor_SMD:R_0805_2012Metric_Pad1.15x1.40mm_HandSolder" H 5550 8100 50  0001 C CNN
F 3 "" H 5550 8100 50  0001 C CNN
	1    5550 8100
	1    0    0    -1  
$EndComp
$Comp
L Digitales_IO-Modul_d-eagle-import:R-EU_M0805 R24
U 1 1 AE0241E3
P 4750 8100
F 0 "R24" H 4600 8159 59  0000 L BNN
F 1 "10k" H 4600 7970 59  0000 L BNN
F 2 "Resistor_SMD:R_0805_2012Metric_Pad1.15x1.40mm_HandSolder" H 4750 8100 50  0001 C CNN
F 3 "" H 4750 8100 50  0001 C CNN
	1    4750 8100
	1    0    0    -1  
$EndComp
$Comp
L Digitales_IO-Modul_d-eagle-import:M02PTH JP2
U 1 1 FA93C76E
P 4700 8600
F 0 "JP2" H 4600 8830 59  0000 L BNN
F 1 "M02PTH" H 4600 8400 59  0000 L BNN
F 2 "Connector_PinHeader_2.54mm:PinHeader_1x02_P2.54mm_Vertical" H 4700 8600 50  0001 C CNN
F 3 "" H 4700 8600 50  0001 C CNN
	1    4700 8600
	1    0    0    -1  
$EndComp
$Comp
L Digitales_IO-Modul_d-eagle-import:R-EU_M0805 R25
U 1 1 A6B2995B
P 11850 1650
F 0 "R25" H 11700 1709 59  0000 L BNN
F 1 "2k" H 11700 1520 59  0000 L BNN
F 2 "Resistor_SMD:R_0805_2012Metric_Pad1.15x1.40mm_HandSolder" H 11850 1650 50  0001 C CNN
F 3 "" H 11850 1650 50  0001 C CNN
	1    11850 1650
	1    0    0    -1  
$EndComp
$Comp
L Digitales_IO-Modul_d-eagle-import:R-EU_M0805 R26
U 1 1 872AF248
P 11850 2450
F 0 "R26" H 11700 2509 59  0000 L BNN
F 1 "2k" H 11700 2320 59  0000 L BNN
F 2 "Resistor_SMD:R_0805_2012Metric_Pad1.15x1.40mm_HandSolder" H 11850 2450 50  0001 C CNN
F 3 "" H 11850 2450 50  0001 C CNN
	1    11850 2450
	1    0    0    -1  
$EndComp
$Comp
L Digitales_IO-Modul_d-eagle-import:R-EU_M0805 R27
U 1 1 56FEAD73
P 11850 3250
F 0 "R27" H 11700 3309 59  0000 L BNN
F 1 "2k" H 11700 3120 59  0000 L BNN
F 2 "Resistor_SMD:R_0805_2012Metric_Pad1.15x1.40mm_HandSolder" H 11850 3250 50  0001 C CNN
F 3 "" H 11850 3250 50  0001 C CNN
	1    11850 3250
	1    0    0    -1  
$EndComp
$Comp
L Digitales_IO-Modul_d-eagle-import:R-EU_M0805 R28
U 1 1 EFDBCC36
P 11850 4050
F 0 "R28" H 11700 4109 59  0000 L BNN
F 1 "2k" H 11700 3920 59  0000 L BNN
F 2 "Resistor_SMD:R_0805_2012Metric_Pad1.15x1.40mm_HandSolder" H 11850 4050 50  0001 C CNN
F 3 "" H 11850 4050 50  0001 C CNN
	1    11850 4050
	1    0    0    -1  
$EndComp
$Comp
L Digitales_IO-Modul_d-eagle-import:R-EU_M0805 R29
U 1 1 50453948
P 11850 4850
F 0 "R29" H 11700 4909 59  0000 L BNN
F 1 "2k" H 11700 4720 59  0000 L BNN
F 2 "Resistor_SMD:R_0805_2012Metric_Pad1.15x1.40mm_HandSolder" H 11850 4850 50  0001 C CNN
F 3 "" H 11850 4850 50  0001 C CNN
	1    11850 4850
	1    0    0    -1  
$EndComp
$Comp
L Digitales_IO-Modul_d-eagle-import:R-EU_M0805 R30
U 1 1 CF223410
P 11850 5650
F 0 "R30" H 11700 5709 59  0000 L BNN
F 1 "2k" H 11700 5520 59  0000 L BNN
F 2 "Resistor_SMD:R_0805_2012Metric_Pad1.15x1.40mm_HandSolder" H 11850 5650 50  0001 C CNN
F 3 "" H 11850 5650 50  0001 C CNN
	1    11850 5650
	1    0    0    -1  
$EndComp
$Comp
L Digitales_IO-Modul_d-eagle-import:R-EU_M0805 R31
U 1 1 66AA5549
P 11850 6450
F 0 "R31" H 11700 6509 59  0000 L BNN
F 1 "2k" H 11700 6320 59  0000 L BNN
F 2 "Resistor_SMD:R_0805_2012Metric_Pad1.15x1.40mm_HandSolder" H 11850 6450 50  0001 C CNN
F 3 "" H 11850 6450 50  0001 C CNN
	1    11850 6450
	1    0    0    -1  
$EndComp
$Comp
L Digitales_IO-Modul_d-eagle-import:R-EU_M0805 R32
U 1 1 DA4FAEE1
P 11850 7250
F 0 "R32" H 11700 7309 59  0000 L BNN
F 1 "2k" H 11700 7120 59  0000 L BNN
F 2 "Resistor_SMD:R_0805_2012Metric_Pad1.15x1.40mm_HandSolder" H 11850 7250 50  0001 C CNN
F 3 "" H 11850 7250 50  0001 C CNN
	1    11850 7250
	1    0    0    -1  
$EndComp
$Comp
L Digitales_IO-Modul_d-eagle-import:R-EU_M0805 R33
U 1 1 0FD5C01C
P 5300 2350
F 0 "R33" H 5000 2359 59  0000 L BNN
F 1 "2k" H 5450 2370 59  0000 L BNN
F 2 "Resistor_SMD:R_0805_2012Metric_Pad1.15x1.40mm_HandSolder" H 5300 2350 50  0001 C CNN
F 3 "" H 5300 2350 50  0001 C CNN
	1    5300 2350
	1    0    0    -1  
$EndComp
$Comp
L Digitales_IO-Modul_d-eagle-import:R-EU_M0805 R34
U 1 1 D2326A9E
P 5300 2450
F 0 "R34" H 5000 2459 59  0000 L BNN
F 1 "2k" H 5450 2470 59  0000 L BNN
F 2 "Resistor_SMD:R_0805_2012Metric_Pad1.15x1.40mm_HandSolder" H 5300 2450 50  0001 C CNN
F 3 "" H 5300 2450 50  0001 C CNN
	1    5300 2450
	1    0    0    -1  
$EndComp
$Comp
L Digitales_IO-Modul_d-eagle-import:R-EU_M0805 R35
U 1 1 4A68D9B5
P 5300 2550
F 0 "R35" H 5000 2559 59  0000 L BNN
F 1 "2k" H 5450 2570 59  0000 L BNN
F 2 "Resistor_SMD:R_0805_2012Metric_Pad1.15x1.40mm_HandSolder" H 5300 2550 50  0001 C CNN
F 3 "" H 5300 2550 50  0001 C CNN
	1    5300 2550
	1    0    0    -1  
$EndComp
$Comp
L Digitales_IO-Modul_d-eagle-import:R-EU_M0805 R36
U 1 1 D4E27231
P 5300 2650
F 0 "R36" H 5000 2659 59  0000 L BNN
F 1 "2k" H 5450 2670 59  0000 L BNN
F 2 "Resistor_SMD:R_0805_2012Metric_Pad1.15x1.40mm_HandSolder" H 5300 2650 50  0001 C CNN
F 3 "" H 5300 2650 50  0001 C CNN
	1    5300 2650
	1    0    0    -1  
$EndComp
$Comp
L Digitales_IO-Modul_d-eagle-import:R-EU_M0805 R37
U 1 1 E324492F
P 5300 2750
F 0 "R37" H 5000 2759 59  0000 L BNN
F 1 "2k" H 5450 2770 59  0000 L BNN
F 2 "Resistor_SMD:R_0805_2012Metric_Pad1.15x1.40mm_HandSolder" H 5300 2750 50  0001 C CNN
F 3 "" H 5300 2750 50  0001 C CNN
	1    5300 2750
	1    0    0    -1  
$EndComp
$Comp
L Digitales_IO-Modul_d-eagle-import:R-EU_M0805 R38
U 1 1 C6936F28
P 5300 2850
F 0 "R38" H 5000 2859 59  0000 L BNN
F 1 "2k" H 5450 2870 59  0000 L BNN
F 2 "Resistor_SMD:R_0805_2012Metric_Pad1.15x1.40mm_HandSolder" H 5300 2850 50  0001 C CNN
F 3 "" H 5300 2850 50  0001 C CNN
	1    5300 2850
	1    0    0    -1  
$EndComp
$Comp
L Digitales_IO-Modul_d-eagle-import:R-EU_M0805 R39
U 1 1 A2552392
P 5300 2950
F 0 "R39" H 5000 2959 59  0000 L BNN
F 1 "2k" H 5450 2970 59  0000 L BNN
F 2 "Resistor_SMD:R_0805_2012Metric_Pad1.15x1.40mm_HandSolder" H 5300 2950 50  0001 C CNN
F 3 "" H 5300 2950 50  0001 C CNN
	1    5300 2950
	1    0    0    -1  
$EndComp
$Comp
L Digitales_IO-Modul_d-eagle-import:R-EU_M0805 R40
U 1 1 E48C0AEE
P 5300 3050
F 0 "R40" H 5000 3059 59  0000 L BNN
F 1 "2k" H 5450 3070 59  0000 L BNN
F 2 "Resistor_SMD:R_0805_2012Metric_Pad1.15x1.40mm_HandSolder" H 5300 3050 50  0001 C CNN
F 3 "" H 5300 3050 50  0001 C CNN
	1    5300 3050
	1    0    0    -1  
$EndComp
$Comp
L Digitales_IO-Modul_d-eagle-import:WIREPADSMD1,27-254 O1
U 1 1 93ACE07A
P 5750 2350
F 0 "O1" H 5455 2323 59  0000 L BNN
F 1 "WIREPADSMD1,27-254" H 4355 2320 59  0000 L BNN
F 2 "Digitales IO-Modul_d:SMD1,27-2,54" H 5750 2350 50  0001 C CNN
F 3 "" H 5750 2350 50  0001 C CNN
	1    5750 2350
	-1   0    0    1   
$EndComp
$Comp
L Digitales_IO-Modul_d-eagle-import:WIREPADSMD1,27-254 O2
U 1 1 BC8CBAD2
P 5750 2450
F 0 "O2" H 5455 2423 59  0000 L BNN
F 1 "WIREPADSMD1,27-254" H 4355 2420 59  0000 L BNN
F 2 "Digitales IO-Modul_d:SMD1,27-2,54" H 5750 2450 50  0001 C CNN
F 3 "" H 5750 2450 50  0001 C CNN
	1    5750 2450
	-1   0    0    1   
$EndComp
$Comp
L Digitales_IO-Modul_d-eagle-import:WIREPADSMD1,27-254 O3
U 1 1 D94F8C87
P 5750 2550
F 0 "O3" H 5455 2523 59  0000 L BNN
F 1 "WIREPADSMD1,27-254" H 4355 2520 59  0000 L BNN
F 2 "Digitales IO-Modul_d:SMD1,27-2,54" H 5750 2550 50  0001 C CNN
F 3 "" H 5750 2550 50  0001 C CNN
	1    5750 2550
	-1   0    0    1   
$EndComp
$Comp
L Digitales_IO-Modul_d-eagle-import:WIREPADSMD1,27-254 O4
U 1 1 199B803D
P 5750 2650
F 0 "O4" H 5455 2623 59  0000 L BNN
F 1 "WIREPADSMD1,27-254" H 4355 2620 59  0000 L BNN
F 2 "Digitales IO-Modul_d:SMD1,27-2,54" H 5750 2650 50  0001 C CNN
F 3 "" H 5750 2650 50  0001 C CNN
	1    5750 2650
	-1   0    0    1   
$EndComp
$Comp
L Digitales_IO-Modul_d-eagle-import:WIREPADSMD1,27-254 O5
U 1 1 F9297B56
P 5750 2750
F 0 "O5" H 5455 2723 59  0000 L BNN
F 1 "WIREPADSMD1,27-254" H 4355 2720 59  0000 L BNN
F 2 "Digitales IO-Modul_d:SMD1,27-2,54" H 5750 2750 50  0001 C CNN
F 3 "" H 5750 2750 50  0001 C CNN
	1    5750 2750
	-1   0    0    1   
$EndComp
$Comp
L Digitales_IO-Modul_d-eagle-import:WIREPADSMD1,27-254 O6
U 1 1 9513BDE4
P 5750 2850
F 0 "O6" H 5455 2823 59  0000 L BNN
F 1 "WIREPADSMD1,27-254" H 4355 2820 59  0000 L BNN
F 2 "Digitales IO-Modul_d:SMD1,27-2,54" H 5750 2850 50  0001 C CNN
F 3 "" H 5750 2850 50  0001 C CNN
	1    5750 2850
	-1   0    0    1   
$EndComp
$Comp
L Digitales_IO-Modul_d-eagle-import:WIREPADSMD1,27-254 O7
U 1 1 9FC1BFFB
P 5750 2950
F 0 "O7" H 5455 2923 59  0000 L BNN
F 1 "WIREPADSMD1,27-254" H 4355 2920 59  0000 L BNN
F 2 "Digitales IO-Modul_d:SMD1,27-2,54" H 5750 2950 50  0001 C CNN
F 3 "" H 5750 2950 50  0001 C CNN
	1    5750 2950
	-1   0    0    1   
$EndComp
$Comp
L Digitales_IO-Modul_d-eagle-import:WIREPADSMD1,27-254 O8
U 1 1 AC807CF6
P 5750 3050
F 0 "O8" H 5455 3023 59  0000 L BNN
F 1 "WIREPADSMD1,27-254" H 4355 3020 59  0000 L BNN
F 2 "Digitales IO-Modul_d:SMD1,27-2,54" H 5750 3050 50  0001 C CNN
F 3 "" H 5750 3050 50  0001 C CNN
	1    5750 3050
	-1   0    0    1   
$EndComp
$Comp
L Digitales_IO-Modul_d-eagle-import:WIREPADSMD1,27-254 O_GND1
U 1 1 9C8BB896
P 5750 3250
F 0 "O_GND1" H 5355 3223 59  0000 L BNN
F 1 "WIREPADSMD1,27-254" H 4255 3220 59  0000 L BNN
F 2 "Digitales IO-Modul_d:SMD1,27-2,54" H 5750 3250 50  0001 C CNN
F 3 "" H 5750 3250 50  0001 C CNN
	1    5750 3250
	-1   0    0    1   
$EndComp
$Comp
L Digitales_IO-Modul_d-eagle-import:WIREPADSMD1,27-254 O_5V1
U 1 1 B5F7826A
P 5750 3400
F 0 "O_5V1" H 5355 3373 59  0000 L BNN
F 1 "WIREPADSMD1,27-254" H 4255 3370 59  0000 L BNN
F 2 "Digitales IO-Modul_d:SMD1,27-2,54" H 5750 3400 50  0001 C CNN
F 3 "" H 5750 3400 50  0001 C CNN
	1    5750 3400
	-1   0    0    1   
$EndComp
$Comp
L Digitales_IO-Modul_d-eagle-import:JUMPER-2'S' JP1
U 1 1 2F430EF2
P 11100 8100
F 0 "JP1" V 11050 8100 59  0000 L BNN
F 1 "JUMPER-2'S'" V 11325 8100 59  0000 L BNN
F 2 "Connector_PinHeader_2.54mm:PinHeader_1x02_P2.54mm_Vertical" H 11100 8100 50  0001 C CNN
F 3 "" H 11100 8100 50  0001 C CNN
	1    11100 8100
	-1   0    0    1   
$EndComp
$Comp
L Digitales_IO-Modul_d-eagle-import:R-EU_R1206 R2
U 1 1 A28984CE
P 9650 2450
F 0 "R2" H 9500 2509 59  0000 L BNN
F 1 "3k3" H 9500 2320 59  0000 L BNN
F 2 "Resistor_SMD:R_0805_2012Metric_Pad1.15x1.40mm_HandSolder" H 9650 2450 50  0001 C CNN
F 3 "" H 9650 2450 50  0001 C CNN
	1    9650 2450
	1    0    0    -1  
$EndComp
$Comp
L Digitales_IO-Modul_d-eagle-import:JUMPER-31-2 JP7
U 1 1 600E0B9C
P 8450 1350
F 0 "JP7" V 8400 1350 59  0000 L BNN
F 1 "JUMPER-31-2" V 8775 1350 59  0000 L BNN
F 2 "Jumper:SolderJumper-3_P1.3mm_Bridged2Bar12_Pad1.0x1.5mm" H 8450 1350 50  0001 C CNN
F 3 "" H 8450 1350 50  0001 C CNN
	1    8450 1350
	1    0    0    -1  
$EndComp
$Comp
L Digitales_IO-Modul_d-eagle-import:JUMPER-31-2 JP8
U 1 1 A6258458
P 8900 1350
F 0 "JP8" V 8850 1350 59  0000 L BNN
F 1 "JUMPER-31-2" V 9225 1350 59  0000 L BNN
F 2 "Jumper:SolderJumper-3_P1.3mm_Bridged2Bar12_Pad1.0x1.5mm" H 8900 1350 50  0001 C CNN
F 3 "" H 8900 1350 50  0001 C CNN
	1    8900 1350
	1    0    0    -1  
$EndComp
$Comp
L Digitales_IO-Modul_d-eagle-import:JUMPER-31-2 JP3
U 1 1 ACD8E5B6
P 8450 2150
F 0 "JP3" V 8400 2150 59  0000 L BNN
F 1 "JUMPER-31-2" V 8775 2150 59  0000 L BNN
F 2 "Jumper:SolderJumper-3_P1.3mm_Bridged2Bar12_Pad1.0x1.5mm" H 8450 2150 50  0001 C CNN
F 3 "" H 8450 2150 50  0001 C CNN
	1    8450 2150
	1    0    0    -1  
$EndComp
$Comp
L Digitales_IO-Modul_d-eagle-import:JUMPER-31-2 JP4
U 1 1 47274FB3
P 8900 2150
F 0 "JP4" V 8850 2150 59  0000 L BNN
F 1 "JUMPER-31-2" V 9225 2150 59  0000 L BNN
F 2 "Jumper:SolderJumper-3_P1.3mm_Bridged2Bar12_Pad1.0x1.5mm" H 8900 2150 50  0001 C CNN
F 3 "" H 8900 2150 50  0001 C CNN
	1    8900 2150
	1    0    0    -1  
$EndComp
$Comp
L Digitales_IO-Modul_d-eagle-import:JUMPER-31-2 JP5
U 1 1 6716FC81
P 8450 2950
F 0 "JP5" V 8400 2950 59  0000 L BNN
F 1 "JUMPER-31-2" V 8775 2950 59  0000 L BNN
F 2 "Jumper:SolderJumper-3_P1.3mm_Bridged2Bar12_Pad1.0x1.5mm" H 8450 2950 50  0001 C CNN
F 3 "" H 8450 2950 50  0001 C CNN
	1    8450 2950
	1    0    0    -1  
$EndComp
$Comp
L Digitales_IO-Modul_d-eagle-import:JUMPER-31-2 JP6
U 1 1 7F37E81D
P 8900 2950
F 0 "JP6" V 8850 2950 59  0000 L BNN
F 1 "JUMPER-31-2" V 9225 2950 59  0000 L BNN
F 2 "Jumper:SolderJumper-3_P1.3mm_Bridged2Bar12_Pad1.0x1.5mm" H 8900 2950 50  0001 C CNN
F 3 "" H 8900 2950 50  0001 C CNN
	1    8900 2950
	1    0    0    -1  
$EndComp
$Comp
L Digitales_IO-Modul_d-eagle-import:JUMPER-31-2 JP9
U 1 1 E957C24B
P 8450 3750
F 0 "JP9" V 8400 3750 59  0000 L BNN
F 1 "JUMPER-31-2" V 8775 3750 59  0000 L BNN
F 2 "Jumper:SolderJumper-3_P1.3mm_Bridged2Bar12_Pad1.0x1.5mm" H 8450 3750 50  0001 C CNN
F 3 "" H 8450 3750 50  0001 C CNN
	1    8450 3750
	1    0    0    -1  
$EndComp
$Comp
L Digitales_IO-Modul_d-eagle-import:JUMPER-31-2 JP10
U 1 1 33F1B700
P 8900 3750
F 0 "JP10" V 8850 3750 59  0000 L BNN
F 1 "JUMPER-31-2" V 9225 3750 59  0000 L BNN
F 2 "Jumper:SolderJumper-3_P1.3mm_Bridged2Bar12_Pad1.0x1.5mm" H 8900 3750 50  0001 C CNN
F 3 "" H 8900 3750 50  0001 C CNN
	1    8900 3750
	1    0    0    -1  
$EndComp
$Comp
L Digitales_IO-Modul_d-eagle-import:JUMPER-31-2 JP11
U 1 1 641450E5
P 8450 4550
F 0 "JP11" V 8400 4550 59  0000 L BNN
F 1 "JUMPER-31-2" V 8775 4550 59  0000 L BNN
F 2 "Jumper:SolderJumper-3_P1.3mm_Bridged2Bar12_Pad1.0x1.5mm" H 8450 4550 50  0001 C CNN
F 3 "" H 8450 4550 50  0001 C CNN
	1    8450 4550
	1    0    0    -1  
$EndComp
$Comp
L Digitales_IO-Modul_d-eagle-import:JUMPER-31-2 JP12
U 1 1 01682B0F
P 8900 4550
F 0 "JP12" V 8850 4550 59  0000 L BNN
F 1 "JUMPER-31-2" V 9225 4550 59  0000 L BNN
F 2 "Jumper:SolderJumper-3_P1.3mm_Bridged2Bar12_Pad1.0x1.5mm" H 8900 4550 50  0001 C CNN
F 3 "" H 8900 4550 50  0001 C CNN
	1    8900 4550
	1    0    0    -1  
$EndComp
$Comp
L Digitales_IO-Modul_d-eagle-import:JUMPER-31-2 JP13
U 1 1 5DBD3DFA
P 8450 5350
F 0 "JP13" V 8400 5350 59  0000 L BNN
F 1 "JUMPER-31-2" V 8775 5350 59  0000 L BNN
F 2 "Jumper:SolderJumper-3_P1.3mm_Bridged2Bar12_Pad1.0x1.5mm" H 8450 5350 50  0001 C CNN
F 3 "" H 8450 5350 50  0001 C CNN
	1    8450 5350
	1    0    0    -1  
$EndComp
$Comp
L Digitales_IO-Modul_d-eagle-import:JUMPER-31-2 JP14
U 1 1 F95814ED
P 8900 5350
F 0 "JP14" V 8850 5350 59  0000 L BNN
F 1 "JUMPER-31-2" V 9225 5350 59  0000 L BNN
F 2 "Jumper:SolderJumper-3_P1.3mm_Bridged2Bar12_Pad1.0x1.5mm" H 8900 5350 50  0001 C CNN
F 3 "" H 8900 5350 50  0001 C CNN
	1    8900 5350
	1    0    0    -1  
$EndComp
$Comp
L Digitales_IO-Modul_d-eagle-import:JUMPER-31-2 JP15
U 1 1 21ED3DCA
P 8450 6150
F 0 "JP15" V 8400 6150 59  0000 L BNN
F 1 "JUMPER-31-2" V 8775 6150 59  0000 L BNN
F 2 "Jumper:SolderJumper-3_P1.3mm_Bridged2Bar12_Pad1.0x1.5mm" H 8450 6150 50  0001 C CNN
F 3 "" H 8450 6150 50  0001 C CNN
	1    8450 6150
	1    0    0    -1  
$EndComp
$Comp
L Digitales_IO-Modul_d-eagle-import:JUMPER-31-2 JP16
U 1 1 90CB011A
P 8900 6150
F 0 "JP16" V 8850 6150 59  0000 L BNN
F 1 "JUMPER-31-2" V 9225 6150 59  0000 L BNN
F 2 "Jumper:SolderJumper-3_P1.3mm_Bridged2Bar12_Pad1.0x1.5mm" H 8900 6150 50  0001 C CNN
F 3 "" H 8900 6150 50  0001 C CNN
	1    8900 6150
	1    0    0    -1  
$EndComp
$Comp
L Digitales_IO-Modul_d-eagle-import:JUMPER-31-2 JP17
U 1 1 D47F630B
P 8450 6950
F 0 "JP17" V 8400 6950 59  0000 L BNN
F 1 "JUMPER-31-2" V 8775 6950 59  0000 L BNN
F 2 "Jumper:SolderJumper-3_P1.3mm_Bridged2Bar12_Pad1.0x1.5mm" H 8450 6950 50  0001 C CNN
F 3 "" H 8450 6950 50  0001 C CNN
	1    8450 6950
	1    0    0    -1  
$EndComp
$Comp
L Digitales_IO-Modul_d-eagle-import:JUMPER-31-2 JP18
U 1 1 9909AC52
P 8900 6950
F 0 "JP18" V 8850 6950 59  0000 L BNN
F 1 "JUMPER-31-2" V 9225 6950 59  0000 L BNN
F 2 "Jumper:SolderJumper-3_P1.3mm_Bridged2Bar12_Pad1.0x1.5mm" H 8900 6950 50  0001 C CNN
F 3 "" H 8900 6950 50  0001 C CNN
	1    8900 6950
	1    0    0    -1  
$EndComp
$Comp
L Digitales_IO-Modul_d-eagle-import:TE5 F1
U 1 1 C259DF1D
P 13500 1200
F 0 "F1" H 13350 1255 59  0000 L BNN
F 1 "4A" H 13350 1085 59  0000 L BNN
F 2 "Digitales IO-Modul_d:TE5" H 13500 1200 50  0001 C CNN
F 3 "" H 13500 1200 50  0001 C CNN
	1    13500 1200
	1    0    0    -1  
$EndComp
$Comp
L Digitales_IO-Modul_d-eagle-import:SCHOTTKY-DIODESMC D10
U 1 1 7C864EEE
P 14100 1200
F 0 "D10" H 14010 1275 59  0000 L BNN
F 1 "MBR540T3G" H 14010 1065 59  0000 L BNN
F 2 "Digitales IO-Modul_d:SMC" H 14100 1200 50  0001 C CNN
F 3 "" H 14100 1200 50  0001 C CNN
	1    14100 1200
	-1   0    0    1   
$EndComp
$Comp
L Digitales_IO-Modul_d-eagle-import:L4_R POWER1
U 1 1 6E33AD2A
P 12800 8200
F 0 "POWER1" H 12535 8230 59  0000 R TNN
F 1 "L4_R" H 12500 8050 59  0000 L BNN
F 2 "Digitales IO-Modul_d:L4_R" H 12800 8200 50  0001 C CNN
F 3 "" H 12800 8200 50  0001 C CNN
	1    12800 8200
	1    0    0    -1  
$EndComp
$Comp
L Digitales_IO-Modul_d-eagle-import:L4_R POWER1
U 2 1 6E33AD26
P 12800 8500
F 0 "POWER1" H 12535 8530 59  0000 R TNN
F 1 "L4_R" H 12500 8350 59  0000 L BNN
F 2 "Digitales IO-Modul_d:L4_R" H 12800 8500 50  0001 C CNN
F 3 "" H 12800 8500 50  0001 C CNN
	2    12800 8500
	1    0    0    -1  
$EndComp
$Comp
L Digitales_IO-Modul_d-eagle-import:L4_R POWER1
U 3 1 6E33AD22
P 12800 8800
F 0 "POWER1" H 12535 8830 59  0000 R TNN
F 1 "L4_R" H 12500 8650 59  0000 L BNN
F 2 "Digitales IO-Modul_d:L4_R" H 12800 8800 50  0001 C CNN
F 3 "" H 12800 8800 50  0001 C CNN
	3    12800 8800
	1    0    0    -1  
$EndComp
$Comp
L Digitales_IO-Modul_d-eagle-import:L4_R POWER1
U 4 1 6E33AD3E
P 12800 9100
F 0 "POWER1" H 12535 9130 59  0000 R TNN
F 1 "L4_R" H 12500 8950 59  0000 L BNN
F 2 "Digitales IO-Modul_d:L4_R" H 12800 9100 50  0001 C CNN
F 3 "" H 12800 9100 50  0001 C CNN
	4    12800 9100
	1    0    0    -1  
$EndComp
$Comp
L Digitales_IO-Modul_d-eagle-import:L8_L IN_1
U 1 1 15CFE6B5
P 8250 1650
F 0 "IN_1" H 7985 1680 59  0000 R TNN
F 1 "L8_L" H 7950 1500 59  0000 L BNN
F 2 "Digitales IO-Modul_d:L8_L" H 8250 1650 50  0001 C CNN
F 3 "" H 8250 1650 50  0001 C CNN
	1    8250 1650
	1    0    0    -1  
$EndComp
$Comp
L Digitales_IO-Modul_d-eagle-import:L8_L IN_1
U 2 1 15CFE6B9
P 8250 2450
F 0 "IN_1" H 7985 2480 59  0000 R TNN
F 1 "L8_L" H 7950 2300 59  0000 L BNN
F 2 "Digitales IO-Modul_d:L8_L" H 8250 2450 50  0001 C CNN
F 3 "" H 8250 2450 50  0001 C CNN
	2    8250 2450
	1    0    0    -1  
$EndComp
$Comp
L Digitales_IO-Modul_d-eagle-import:L8_L IN_1
U 3 1 15CFE6BD
P 8250 3250
F 0 "IN_1" H 7985 3280 59  0000 R TNN
F 1 "L8_L" H 7950 3100 59  0000 L BNN
F 2 "Digitales IO-Modul_d:L8_L" H 8250 3250 50  0001 C CNN
F 3 "" H 8250 3250 50  0001 C CNN
	3    8250 3250
	1    0    0    -1  
$EndComp
$Comp
L Digitales_IO-Modul_d-eagle-import:L8_L IN_1
U 4 1 15CFE6A1
P 8250 4050
F 0 "IN_1" H 7985 4080 59  0000 R TNN
F 1 "L8_L" H 7950 3900 59  0000 L BNN
F 2 "Digitales IO-Modul_d:L8_L" H 8250 4050 50  0001 C CNN
F 3 "" H 8250 4050 50  0001 C CNN
	4    8250 4050
	1    0    0    -1  
$EndComp
$Comp
L Digitales_IO-Modul_d-eagle-import:L8_L IN_1
U 5 1 15CFE6A5
P 8250 4850
F 0 "IN_1" H 7985 4880 59  0000 R TNN
F 1 "L8_L" H 7950 4700 59  0000 L BNN
F 2 "Digitales IO-Modul_d:L8_L" H 8250 4850 50  0001 C CNN
F 3 "" H 8250 4850 50  0001 C CNN
	5    8250 4850
	1    0    0    -1  
$EndComp
$Comp
L Digitales_IO-Modul_d-eagle-import:L8_L IN_1
U 6 1 15CFE6A9
P 8250 5650
F 0 "IN_1" H 7985 5680 59  0000 R TNN
F 1 "L8_L" H 7950 5500 59  0000 L BNN
F 2 "Digitales IO-Modul_d:L8_L" H 8250 5650 50  0001 C CNN
F 3 "" H 8250 5650 50  0001 C CNN
	6    8250 5650
	1    0    0    -1  
$EndComp
$Comp
L Digitales_IO-Modul_d-eagle-import:L8_L IN_1
U 7 1 15CFE6AD
P 8250 6450
F 0 "IN_1" H 7985 6480 59  0000 R TNN
F 1 "L8_L" H 7950 6300 59  0000 L BNN
F 2 "Digitales IO-Modul_d:L8_L" H 8250 6450 50  0001 C CNN
F 3 "" H 8250 6450 50  0001 C CNN
	7    8250 6450
	1    0    0    -1  
$EndComp
$Comp
L Digitales_IO-Modul_d-eagle-import:L8_L IN_1
U 8 1 15CFE691
P 8250 7250
F 0 "IN_1" H 7985 7280 59  0000 R TNN
F 1 "L8_L" H 7950 7100 59  0000 L BNN
F 2 "Digitales IO-Modul_d:L8_L" H 8250 7250 50  0001 C CNN
F 3 "" H 8250 7250 50  0001 C CNN
	8    8250 7250
	1    0    0    -1  
$EndComp
$Comp
L Digitales_IO-Modul_d-eagle-import:L8_R OUT_1
U 1 1 E42A779D
P 15200 2200
F 0 "OUT_1" H 14935 2230 59  0000 R TNN
F 1 "L8_R" H 14900 2050 59  0000 L BNN
F 2 "Digitales IO-Modul_d:L8_R" H 15200 2200 50  0001 C CNN
F 3 "" H 15200 2200 50  0001 C CNN
	1    15200 2200
	-1   0    0    -1  
$EndComp
$Comp
L Digitales_IO-Modul_d-eagle-import:L8_R OUT_1
U 2 1 E42A7791
P 15200 2900
F 0 "OUT_1" H 14935 2930 59  0000 R TNN
F 1 "L8_R" H 14900 2750 59  0000 L BNN
F 2 "Digitales IO-Modul_d:L8_R" H 15200 2900 50  0001 C CNN
F 3 "" H 15200 2900 50  0001 C CNN
	2    15200 2900
	-1   0    0    -1  
$EndComp
$Comp
L Digitales_IO-Modul_d-eagle-import:L8_R OUT_1
U 3 1 E42A7795
P 15200 3600
F 0 "OUT_1" H 14935 3630 59  0000 R TNN
F 1 "L8_R" H 14900 3450 59  0000 L BNN
F 2 "Digitales IO-Modul_d:L8_R" H 15200 3600 50  0001 C CNN
F 3 "" H 15200 3600 50  0001 C CNN
	3    15200 3600
	-1   0    0    -1  
$EndComp
$Comp
L Digitales_IO-Modul_d-eagle-import:L8_R OUT_1
U 4 1 E42A7789
P 15200 4300
F 0 "OUT_1" H 14935 4330 59  0000 R TNN
F 1 "L8_R" H 14900 4150 59  0000 L BNN
F 2 "Digitales IO-Modul_d:L8_R" H 15200 4300 50  0001 C CNN
F 3 "" H 15200 4300 50  0001 C CNN
	4    15200 4300
	-1   0    0    -1  
$EndComp
$Comp
L Digitales_IO-Modul_d-eagle-import:L8_R OUT_1
U 5 1 E42A778D
P 15200 5000
F 0 "OUT_1" H 14935 5030 59  0000 R TNN
F 1 "L8_R" H 14900 4850 59  0000 L BNN
F 2 "Digitales IO-Modul_d:L8_R" H 15200 5000 50  0001 C CNN
F 3 "" H 15200 5000 50  0001 C CNN
	5    15200 5000
	-1   0    0    -1  
$EndComp
$Comp
L Digitales_IO-Modul_d-eagle-import:L8_R OUT_1
U 6 1 E42A7781
P 15200 5700
F 0 "OUT_1" H 14935 5730 59  0000 R TNN
F 1 "L8_R" H 14900 5550 59  0000 L BNN
F 2 "Digitales IO-Modul_d:L8_R" H 15200 5700 50  0001 C CNN
F 3 "" H 15200 5700 50  0001 C CNN
	6    15200 5700
	-1   0    0    -1  
$EndComp
$Comp
L Digitales_IO-Modul_d-eagle-import:L8_R OUT_1
U 7 1 E42A7785
P 15200 6400
F 0 "OUT_1" H 14935 6430 59  0000 R TNN
F 1 "L8_R" H 14900 6250 59  0000 L BNN
F 2 "Digitales IO-Modul_d:L8_R" H 15200 6400 50  0001 C CNN
F 3 "" H 15200 6400 50  0001 C CNN
	7    15200 6400
	-1   0    0    -1  
$EndComp
$Comp
L Digitales_IO-Modul_d-eagle-import:L8_R OUT_1
U 8 1 E42A77B9
P 15200 7100
F 0 "OUT_1" H 14935 7130 59  0000 R TNN
F 1 "L8_R" H 14900 6950 59  0000 L BNN
F 2 "Digitales IO-Modul_d:L8_R" H 15200 7100 50  0001 C CNN
F 3 "" H 15200 7100 50  0001 C CNN
	8    15200 7100
	-1   0    0    -1  
$EndComp
$Comp
L Digitales_IO-Modul_d-eagle-import:L4_L POWER2
U 1 1 0356F00C
P 14600 8200
F 0 "POWER2" H 14335 8230 59  0000 R TNN
F 1 "L4_L" H 14300 8050 59  0000 L BNN
F 2 "Digitales IO-Modul_d:L4_L" H 14600 8200 50  0001 C CNN
F 3 "" H 14600 8200 50  0001 C CNN
	1    14600 8200
	1    0    0    -1  
$EndComp
$Comp
L Digitales_IO-Modul_d-eagle-import:L4_L POWER2
U 2 1 0356F000
P 14600 8500
F 0 "POWER2" H 14335 8530 59  0000 R TNN
F 1 "L4_L" H 14300 8350 59  0000 L BNN
F 2 "Digitales IO-Modul_d:L4_L" H 14600 8500 50  0001 C CNN
F 3 "" H 14600 8500 50  0001 C CNN
	2    14600 8500
	1    0    0    -1  
$EndComp
$Comp
L Digitales_IO-Modul_d-eagle-import:L4_L POWER2
U 3 1 0356F004
P 14600 8800
F 0 "POWER2" H 14335 8830 59  0000 R TNN
F 1 "L4_L" H 14300 8650 59  0000 L BNN
F 2 "Digitales IO-Modul_d:L4_L" H 14600 8800 50  0001 C CNN
F 3 "" H 14600 8800 50  0001 C CNN
	3    14600 8800
	1    0    0    -1  
$EndComp
$Comp
L Digitales_IO-Modul_d-eagle-import:L4_L POWER2
U 4 1 0356F018
P 14600 9100
F 0 "POWER2" H 14335 9130 59  0000 R TNN
F 1 "L4_L" H 14300 8950 59  0000 L BNN
F 2 "Digitales IO-Modul_d:L4_L" H 14600 9100 50  0001 C CNN
F 3 "" H 14600 9100 50  0001 C CNN
	4    14600 9100
	1    0    0    -1  
$EndComp
Text Notes 9550 1300 0    59   ~ 0
Schaltschwelle 7 .. 8V
Text Notes 9550 1400 0    59   ~ 0
Eingangsspannung 24V
Text Notes 11400 1200 0    59   ~ 0
 LED's gemeinsamer PIN 5V
Text Notes 5550 2100 0    59   ~ 0
LED's gemeinsamer PIN GND
$Comp
L Device:R R41
U 1 1 5F86855A
P 2200 4000
F 0 "R41" H 2270 4046 50  0000 L CNN
F 1 "10K" H 2270 3955 50  0000 L CNN
F 2 "Resistor_SMD:R_0805_2012Metric_Pad1.15x1.40mm_HandSolder" V 2130 4000 50  0001 C CNN
F 3 "~" H 2200 4000 50  0001 C CNN
	1    2200 4000
	1    0    0    -1  
$EndComp
$Comp
L Device:R R42
U 1 1 5F86991C
P 2500 4000
F 0 "R42" H 2570 4046 50  0000 L CNN
F 1 "10K" H 2570 3955 50  0000 L CNN
F 2 "Resistor_SMD:R_0805_2012Metric_Pad1.15x1.40mm_HandSolder" V 2430 4000 50  0001 C CNN
F 3 "~" H 2500 4000 50  0001 C CNN
	1    2500 4000
	1    0    0    -1  
$EndComp
$Comp
L Device:R R43
U 1 1 5F869E5F
P 2800 4000
F 0 "R43" H 2870 4046 50  0000 L CNN
F 1 "10K" H 2870 3955 50  0000 L CNN
F 2 "Resistor_SMD:R_0805_2012Metric_Pad1.15x1.40mm_HandSolder" V 2730 4000 50  0001 C CNN
F 3 "~" H 2800 4000 50  0001 C CNN
	1    2800 4000
	1    0    0    -1  
$EndComp
Wire Wire Line
	1600 4350 2200 4350
Wire Wire Line
	2200 4150 2200 4350
Wire Wire Line
	2500 4150 2500 4350
Wire Wire Line
	2800 4150 2800 4350
$Comp
L Device:R R44
U 1 1 5F975100
P 4050 5350
F 0 "R44" H 4120 5396 50  0000 L CNN
F 1 "10K" H 4120 5305 50  0000 L CNN
F 2 "Resistor_SMD:R_0805_2012Metric_Pad1.15x1.40mm_HandSolder" V 3980 5350 50  0001 C CNN
F 3 "~" H 4050 5350 50  0001 C CNN
	1    4050 5350
	1    0    0    -1  
$EndComp
$Comp
L Device:R R45
U 1 1 5F97623C
P 4350 5350
F 0 "R45" H 4420 5396 50  0000 L CNN
F 1 "10K" H 4420 5305 50  0000 L CNN
F 2 "Resistor_SMD:R_0805_2012Metric_Pad1.15x1.40mm_HandSolder" V 4280 5350 50  0001 C CNN
F 3 "~" H 4350 5350 50  0001 C CNN
	1    4350 5350
	1    0    0    -1  
$EndComp
$Comp
L Device:R R46
U 1 1 5F976714
P 4650 5350
F 0 "R46" H 4720 5396 50  0000 L CNN
F 1 "10K" H 4720 5305 50  0000 L CNN
F 2 "Resistor_SMD:R_0805_2012Metric_Pad1.15x1.40mm_HandSolder" V 4580 5350 50  0001 C CNN
F 3 "~" H 4650 5350 50  0001 C CNN
	1    4650 5350
	1    0    0    -1  
$EndComp
$Comp
L Device:R R47
U 1 1 5F976B61
P 4950 5350
F 0 "R47" H 5020 5396 50  0000 L CNN
F 1 "10K" H 5020 5305 50  0000 L CNN
F 2 "Resistor_SMD:R_0805_2012Metric_Pad1.15x1.40mm_HandSolder" V 4880 5350 50  0001 C CNN
F 3 "~" H 4950 5350 50  0001 C CNN
	1    4950 5350
	1    0    0    -1  
$EndComp
$Comp
L Device:R R48
U 1 1 5F976EEE
P 5650 5350
F 0 "R48" H 5720 5396 50  0000 L CNN
F 1 "10K" H 5720 5305 50  0000 L CNN
F 2 "Resistor_SMD:R_0805_2012Metric_Pad1.15x1.40mm_HandSolder" V 5580 5350 50  0001 C CNN
F 3 "~" H 5650 5350 50  0001 C CNN
	1    5650 5350
	1    0    0    -1  
$EndComp
$Comp
L Device:R R49
U 1 1 5F9774AC
P 5950 5350
F 0 "R49" H 6020 5396 50  0000 L CNN
F 1 "10K" H 6020 5305 50  0000 L CNN
F 2 "Resistor_SMD:R_0805_2012Metric_Pad1.15x1.40mm_HandSolder" V 5880 5350 50  0001 C CNN
F 3 "~" H 5950 5350 50  0001 C CNN
	1    5950 5350
	1    0    0    -1  
$EndComp
$Comp
L Device:R R50
U 1 1 5F977836
P 6250 5350
F 0 "R50" H 6320 5396 50  0000 L CNN
F 1 "10K" H 6320 5305 50  0000 L CNN
F 2 "Resistor_SMD:R_0805_2012Metric_Pad1.15x1.40mm_HandSolder" V 6180 5350 50  0001 C CNN
F 3 "~" H 6250 5350 50  0001 C CNN
	1    6250 5350
	1    0    0    -1  
$EndComp
$Comp
L Device:R R51
U 1 1 5F977C65
P 6550 5350
F 0 "R51" H 6620 5396 50  0000 L CNN
F 1 "10K" H 6620 5305 50  0000 L CNN
F 2 "Resistor_SMD:R_0805_2012Metric_Pad1.15x1.40mm_HandSolder" V 6480 5350 50  0001 C CNN
F 3 "~" H 6550 5350 50  0001 C CNN
	1    6550 5350
	1    0    0    -1  
$EndComp
Wire Wire Line
	6550 5500 6550 6250
Wire Wire Line
	6250 5500 6250 6100
Wire Wire Line
	5950 5500 5950 5950
Wire Wire Line
	5650 5500 5650 5800
Wire Wire Line
	4050 5500 4050 5800
Wire Wire Line
	4350 5500 4350 5950
Wire Wire Line
	4650 5500 4650 6100
Wire Wire Line
	4950 5500 4950 6250
Wire Wire Line
	10250 1650 10850 1650
Wire Wire Line
	10650 1850 10850 1850
$Comp
L Isolator:LTV-357T OK2
U 1 1 6016D4FC
P 11150 2550
F 0 "OK2" H 10875 2775 59  0000 L BNN
F 1 "PC357" H 10875 2250 59  0000 L BNN
F 2 "OPTO:SOIC254P975X460-4N" H 11150 2550 50  0001 C CNN
F 3 "" H 11150 2550 50  0001 C CNN
	1    11150 2550
	1    0    0    -1  
$EndComp
$Comp
L Isolator:LTV-357T OK3
U 1 1 60172E76
P 11150 3350
F 0 "OK3" H 10875 3575 59  0000 L BNN
F 1 "PC357" H 10875 3050 59  0000 L BNN
F 2 "OPTO:SOIC254P975X460-4N" H 11150 3350 50  0001 C CNN
F 3 "" H 11150 3350 50  0001 C CNN
	1    11150 3350
	1    0    0    -1  
$EndComp
Wire Wire Line
	11650 4050 11450 4050
Wire Wire Line
	11450 4250 11650 4250
$Comp
L Isolator:LTV-357T OK4
U 1 1 6017D2B6
P 11150 4150
F 0 "OK4" H 10875 4375 59  0000 L BNN
F 1 "PC357" H 10875 3850 59  0000 L BNN
F 2 "OPTO:SOIC254P975X460-4N" H 11150 4150 50  0001 C CNN
F 3 "" H 11150 4150 50  0001 C CNN
	1    11150 4150
	1    0    0    -1  
$EndComp
$Comp
L Isolator:LTV-357T OK5
U 1 1 601809AD
P 11150 4950
F 0 "OK5" H 10875 5175 59  0000 L BNN
F 1 "PC357" H 10875 4650 59  0000 L BNN
F 2 "OPTO:SOIC254P975X460-4N" H 11150 4950 50  0001 C CNN
F 3 "" H 11150 4950 50  0001 C CNN
	1    11150 4950
	1    0    0    -1  
$EndComp
$Comp
L Isolator:LTV-357T OK7
U 1 1 6018CECE
P 11150 6550
F 0 "OK7" H 10875 6775 59  0000 L BNN
F 1 "PC357" H 10875 6250 59  0000 L BNN
F 2 "OPTO:SOIC254P975X460-4N" H 11150 6550 50  0001 C CNN
F 3 "" H 11150 6550 50  0001 C CNN
	1    11150 6550
	1    0    0    -1  
$EndComp
$Comp
L Isolator:LTV-357T OK8
U 1 1 601902FE
P 11150 7350
F 0 "OK8" H 10875 7575 59  0000 L BNN
F 1 "PC357" H 10875 7050 59  0000 L BNN
F 2 "OPTO:SOIC254P975X460-4N" H 11150 7350 50  0001 C CNN
F 3 "" H 11150 7350 50  0001 C CNN
	1    11150 7350
	1    0    0    -1  
$EndComp
Wire Wire Line
	10650 7450 10850 7450
Wire Wire Line
	10250 7250 10850 7250
Wire Wire Line
	10650 6650 10850 6650
Wire Wire Line
	10250 6450 10850 6450
Wire Wire Line
	10650 5050 10850 5050
Wire Wire Line
	10250 4850 10850 4850
Wire Wire Line
	10650 4250 10850 4250
Wire Wire Line
	10250 4050 10850 4050
Wire Wire Line
	10650 3450 10850 3450
Wire Wire Line
	10250 3250 10850 3250
$Comp
L Isolator:LTV-357T OK6
U 1 1 6057CE35
P 11150 5750
F 0 "OK6" H 10875 5975 59  0000 L BNN
F 1 "PC357" H 10875 5450 59  0000 L BNN
F 2 "OPTO:SOIC254P975X460-4N" H 11150 5750 50  0001 C CNN
F 3 "" H 11150 5750 50  0001 C CNN
	1    11150 5750
	1    0    0    -1  
$EndComp
Wire Wire Line
	11450 5650 11650 5650
Wire Wire Line
	11450 5850 11650 5850
Wire Wire Line
	10250 5650 10850 5650
Connection ~ 10250 5650
Wire Wire Line
	10650 5850 10850 5850
Wire Wire Line
	10250 2450 10850 2450
Wire Wire Line
	10650 2650 10850 2650
$Comp
L Digitales_IO-Modul_d-eagle-import:FM24C16 IC2
U 1 1 90F8467C
P 4500 7450
F 0 "IC2" H 4100 7850 59  0000 L BNN
F 1 "AT24C32" H 4100 6950 59  0000 L BNN
F 2 "Digitales IO-Modul_d:EIAJ-SOIC-8" H 4500 7450 50  0001 C CNN
F 3 "" H 4500 7450 50  0001 C CNN
	1    4500 7450
	1    0    0    -1  
$EndComp
$EndSCHEMATC
