(module DIODE:DO214AA (layer F.Cu) (tedit 5F5A591E)
  (descr <b>DIODE</b>)
  (fp_text reference D1 (at 1.5891 2.1073 -180) (layer F.SilkS)
    (effects (font (size 0.57912 0.57912) (thickness 0.057912)) (justify left bottom))
  )
  (fp_text value B340A (at -2.2463 2.0964 -180) (layer F.Fab)
    (effects (font (size 0.57912 0.57912) (thickness 0.057912)) (justify left bottom))
  )
  (fp_line (start -2.4 -1.1) (end 2.4 -1.1) (layer F.Fab) (width 0.35))
  (fp_line (start 2.4 -1.1) (end 2.4 1.1) (layer F.Fab) (width 0.35))
  (fp_line (start 2.4 1.1) (end -2.4 1.1) (layer F.Fab) (width 0.35))
  (fp_line (start -2.4 1.1) (end -2.4 -1.1) (layer F.Fab) (width 0.35))
  (fp_line (start -1.2 0) (end 0.05 -0.7) (layer F.SilkS) (width 0.35))
  (fp_line (start 0.05 -0.7) (end 0.05 0.7) (layer F.SilkS) (width 0.35))
  (fp_line (start 0.05 0.7) (end -1.2 0) (layer F.SilkS) (width 0.35))
  (fp_poly (pts (xy -2.75 0.7) (xy -2.5 0.7) (xy -2.5 -0.65) (xy -2.75 -0.65)) (layer F.Fab) (width 0))
  (fp_poly (pts (xy 2.5 0.7) (xy 2.75 0.7) (xy 2.75 -0.65) (xy 2.5 -0.65)) (layer F.Fab) (width 0))
  (fp_poly (pts (xy -1.4 1.05) (xy -1.1 1.05) (xy -1.1 -1.05) (xy -1.4 -1.05)) (layer F.SilkS) (width 0))
  (pad 2 smd rect (at 2.55 0) (size 1.8 2.2) (layers F.Cu F.Paste F.Mask)
    (solder_mask_margin 0.0508))
  (pad 1 smd rect (at -2.55 0) (size 1.8 2.2) (layers F.Cu F.Paste F.Mask)
    (solder_mask_margin 0.0508))
  (model ${KISYS3DMOD}/Diode_SMD.3dshapes/D_PowerDI-123.wrl
    (at (xyz 0 0 0))
    (scale (xyz 1 1 1))
    (rotate (xyz 0 0 0))
  )
)
