Ref,Val,Package,PosX,PosY,Rot,Side
"C1","100nF","C_0805_2012Metric_Pad1.18x1.45mm_HandSolder",-49.720000,-14.060000,180.000000,bottom
"C3","100nF","C_0805_2012Metric_Pad1.18x1.45mm_HandSolder",-45.440000,-21.190000,-90.000000,bottom
"C4","100nF","C_0805_2012Metric_Pad1.18x1.45mm_HandSolder",-45.440000,-25.370000,90.000000,bottom
"C5","10µF","CP_EIA-3216-18_Kemet-A_Pad1.58x1.35mm_HandSolder",-35.160000,-25.080000,90.000000,bottom
"C6","10µF","CP_EIA-3216-18_Kemet-A_Pad1.58x1.35mm_HandSolder",-40.555000,-17.140000,180.000000,bottom
"C7","100nF","C_0805_2012Metric_Pad1.18x1.45mm_HandSolder",-38.626480,-71.652000,0.000000,bottom
"C8","100nF","C_0805_2012Metric_Pad1.18x1.45mm_HandSolder",-51.586480,-19.902000,180.000000,bottom
"C9","100nF","C_1206_3216Metric_Pad1.33x1.80mm_HandSolder",-69.546480,-65.492000,90.000000,bottom
"C10","100nF","C_1206_3216Metric_Pad1.33x1.80mm_HandSolder",-69.546480,-57.990568,90.000000,bottom
"C11","100nF","C_1206_3216Metric_Pad1.33x1.80mm_HandSolder",-69.546480,-50.489140,90.000000,bottom
"C12","100nF","C_1206_3216Metric_Pad1.33x1.80mm_HandSolder",-69.546480,-42.987712,90.000000,bottom
"C13","100nF","C_1206_3216Metric_Pad1.33x1.80mm_HandSolder",-69.546480,-35.486284,90.000000,bottom
"C14","100nF","C_1206_3216Metric_Pad1.33x1.80mm_HandSolder",-69.546480,-27.984856,90.000000,bottom
"C15","100nF","C_1206_3216Metric_Pad1.33x1.80mm_HandSolder",-69.546480,-20.483428,90.000000,bottom
"C16","100nF","C_1206_3216Metric_Pad1.33x1.80mm_HandSolder",-69.546480,-12.982000,90.000000,bottom
"C17","100nF","C_0805_2012Metric_Pad1.18x1.45mm_HandSolder",-48.650000,-27.910000,180.000000,bottom
"C18","100nF","C_0805_2012Metric_Pad1.18x1.45mm_HandSolder",-16.006480,-17.940000,90.000000,bottom
"C19","100nF","C_0805_2012Metric_Pad1.18x1.45mm_HandSolder",-16.006480,-21.750000,90.000000,bottom
"C20","100nF","C_0805_2012Metric_Pad1.18x1.45mm_HandSolder",-16.006480,-25.560000,90.000000,bottom
"C21","100nF","C_0805_2012Metric_Pad1.18x1.45mm_HandSolder",-16.006480,-29.370000,90.000000,bottom
"C22","100nF","C_0805_2012Metric_Pad1.18x1.45mm_HandSolder",-16.006480,-33.180000,90.000000,bottom
"C23","100nF","C_0805_2012Metric_Pad1.18x1.45mm_HandSolder",-16.006480,-36.990000,90.000000,bottom
"C24","100nF","C_0805_2012Metric_Pad1.18x1.45mm_HandSolder",-15.996480,-40.800000,90.000000,bottom
"C25","100nF","C_0805_2012Metric_Pad1.18x1.45mm_HandSolder",-16.026480,-44.610000,90.000000,bottom
"D2","D","D_SOD-323_HandSoldering",-63.146480,-66.817000,180.000000,bottom
"D3","D","D_SOD-323_HandSoldering",-63.146480,-59.317000,180.000000,bottom
"D4","D","D_SOD-323_HandSoldering",-63.146480,-51.817000,180.000000,bottom
"D5","D","D_SOD-323_HandSoldering",-63.146480,-44.317000,180.000000,bottom
"D6","D","D_SOD-323_HandSoldering",-63.146480,-36.817000,180.000000,bottom
"D7","D","D_SOD-323_HandSoldering",-63.146480,-29.317000,180.000000,bottom
"D8","D","D_SOD-323_HandSoldering",-63.146480,-21.817000,180.000000,bottom
"D9","D","D_SOD-323_HandSoldering",-63.146480,-14.317000,180.000000,bottom
"FID1","Fiducial","Fiducial_1mm_Mask2mm",-77.146480,-4.002000,180.000000,bottom
"FID2","Fiducial","Fiducial_1mm_Mask2mm",-9.536480,-86.002000,180.000000,bottom
"FID3","Fiducial","Fiducial_1mm_Mask2mm",-10.666480,-3.992000,180.000000,bottom
"J1","40HAT","PinSocket_2x20_P2.54mm_Vertical",-20.870000,-5.270000,-90.000000,bottom
"Q1","DMG2305UX-7","SOT-23",-51.620000,-17.050000,180.000000,bottom
"Q2","2N7002","SOT-23",-44.996480,-83.002000,0.000000,bottom
"R1","3.9K","R_0805_2012Metric_Pad1.20x1.40mm_HandSolder",-55.510000,-10.110000,180.000000,bottom
"R2","3.9K","R_0805_2012Metric_Pad1.20x1.40mm_HandSolder",-55.510000,-8.150000,180.000000,bottom
"R3","10K","R_0805_2012Metric_Pad1.20x1.40mm_HandSolder",-55.510000,-12.060000,180.000000,bottom
"R4","10K","R_0805_2012Metric_Pad1.20x1.40mm_HandSolder",-34.276480,-71.652000,0.000000,bottom
"R5","560","R_0805_2012Metric_Pad1.20x1.40mm_HandSolder",-79.950000,-4.020000,-90.000000,bottom
"R6","2.7K","R_0805_2012Metric_Pad1.20x1.40mm_HandSolder",-25.960000,-9.220000,-90.000000,bottom
"R7","2.7K","R_0805_2012Metric_Pad1.20x1.40mm_HandSolder",-23.425000,-9.220000,-90.000000,bottom
"R8","47","R_2010_5025Metric",-75.586480,-67.672000,180.000000,bottom
"R9","47","R_2010_5025Metric",-75.586480,-60.072000,180.000000,bottom
"R10","47","R_2010_5025Metric",-75.586480,-52.573665,180.000000,bottom
"R11","47","R_2010_5025Metric",-75.586480,-45.075332,180.000000,bottom
"R12","100","R_0805_2012Metric_Pad1.20x1.40mm_HandSolder",-58.970000,-80.900000,90.000000,bottom
"R13","100","R_0805_2012Metric_Pad1.20x1.40mm_HandSolder",-61.510000,-80.900000,90.000000,bottom
"R14","47","R_2010_5025Metric",-75.586480,-37.576999,180.000000,bottom
"R15","100","R_0805_2012Metric_Pad1.20x1.40mm_HandSolder",-64.050000,-80.900000,90.000000,bottom
"R16","100","R_0805_2012Metric_Pad1.20x1.40mm_HandSolder",-66.590000,-80.900000,90.000000,bottom
"R17","100","R_0805_2012Metric_Pad1.20x1.40mm_HandSolder",-69.130000,-80.900000,90.000000,bottom
"R18","47","R_2010_5025Metric",-75.586480,-30.078666,180.000000,bottom
"R19","100","R_0805_2012Metric_Pad1.20x1.40mm_HandSolder",-71.670000,-80.900000,90.000000,bottom
"R20","100","R_0805_2012Metric_Pad1.20x1.40mm_HandSolder",-74.210000,-80.900000,90.000000,bottom
"R21","100","R_0805_2012Metric_Pad1.20x1.40mm_HandSolder",-76.750000,-80.900000,90.000000,bottom
"R22","47","R_2010_5025Metric",-75.586480,-22.580333,180.000000,bottom
"R23","47","R_2010_5025Metric",-75.586480,-15.082000,180.000000,bottom
"R24","1K","R_0805_2012Metric_Pad1.20x1.40mm_HandSolder",-7.096480,-17.940000,-90.000000,bottom
"R25","680","R_0805_2012Metric_Pad1.20x1.40mm_HandSolder",-9.046480,-17.940000,90.000000,bottom
"R26","1K","R_0805_2012Metric_Pad1.20x1.40mm_HandSolder",-11.000000,-17.940000,90.000000,bottom
"R27","1K","R_0805_2012Metric_Pad1.20x1.40mm_HandSolder",-7.096480,-21.750000,-90.000000,bottom
"R28","680","R_0805_2012Metric_Pad1.20x1.40mm_HandSolder",-9.046480,-21.750000,90.000000,bottom
"R29","1K","R_0805_2012Metric_Pad1.20x1.40mm_HandSolder",-11.000000,-21.750000,90.000000,bottom
"R30","1K","R_0805_2012Metric_Pad1.20x1.40mm_HandSolder",-7.096480,-25.552000,-90.000000,bottom
"R31","680","R_0805_2012Metric_Pad1.20x1.40mm_HandSolder",-9.046480,-25.552000,90.000000,bottom
"R32","1K","R_0805_2012Metric_Pad1.20x1.40mm_HandSolder",-11.000000,-25.560000,90.000000,bottom
"R33","1K","R_0805_2012Metric_Pad1.20x1.40mm_HandSolder",-7.096480,-29.370000,-90.000000,bottom
"R34","680","R_0805_2012Metric_Pad1.20x1.40mm_HandSolder",-9.046480,-29.370000,90.000000,bottom
"R35","1K","R_0805_2012Metric_Pad1.20x1.40mm_HandSolder",-11.000000,-29.370000,90.000000,bottom
"R36","1K","R_0805_2012Metric_Pad1.20x1.40mm_HandSolder",-7.096480,-33.180000,-90.000000,bottom
"R37","680","R_0805_2012Metric_Pad1.20x1.40mm_HandSolder",-9.046480,-33.180000,90.000000,bottom
"R38","1K","R_0805_2012Metric_Pad1.20x1.40mm_HandSolder",-11.000000,-33.180000,90.000000,bottom
"R39","1K","R_0805_2012Metric_Pad1.20x1.40mm_HandSolder",-7.096480,-36.990000,-90.000000,bottom
"R40","100","R_0805_2012Metric_Pad1.20x1.40mm_HandSolder",-13.260000,-80.900000,90.000000,bottom
"R41","680","R_0805_2012Metric_Pad1.20x1.40mm_HandSolder",-9.046480,-36.990000,90.000000,bottom
"R42","100","R_0805_2012Metric_Pad1.20x1.40mm_HandSolder",-15.800000,-80.900000,90.000000,bottom
"R43","1K","R_0805_2012Metric_Pad1.20x1.40mm_HandSolder",-11.000000,-36.990000,90.000000,bottom
"R44","100","R_0805_2012Metric_Pad1.20x1.40mm_HandSolder",-18.340000,-80.900000,90.000000,bottom
"R45","1K","R_0805_2012Metric_Pad1.20x1.40mm_HandSolder",-7.096480,-40.800000,-90.000000,bottom
"R46","100","R_0805_2012Metric_Pad1.20x1.40mm_HandSolder",-20.880000,-80.900000,90.000000,bottom
"R47","680","R_0805_2012Metric_Pad1.20x1.40mm_HandSolder",-9.046480,-40.800000,90.000000,bottom
"R48","100","R_0805_2012Metric_Pad1.20x1.40mm_HandSolder",-23.420000,-80.900000,90.000000,bottom
"R49","1K","R_0805_2012Metric_Pad1.20x1.40mm_HandSolder",-11.000000,-40.800000,90.000000,bottom
"R50","100","R_0805_2012Metric_Pad1.20x1.40mm_HandSolder",-25.960000,-80.900000,90.000000,bottom
"R51","1K","R_0805_2012Metric_Pad1.20x1.40mm_HandSolder",-7.096480,-44.610000,-90.000000,bottom
"R52","100","R_0805_2012Metric_Pad1.20x1.40mm_HandSolder",-28.500000,-80.900000,90.000000,bottom
"R53","680","R_0805_2012Metric_Pad1.20x1.40mm_HandSolder",-9.046480,-44.610000,90.000000,bottom
"R54","100","R_0805_2012Metric_Pad1.20x1.40mm_HandSolder",-31.040000,-80.900000,90.000000,bottom
"R55","1K","R_0805_2012Metric_Pad1.20x1.40mm_HandSolder",-11.000000,-44.610000,90.000000,bottom
"R56","1M","R_0805_2012Metric_Pad1.20x1.40mm_HandSolder",-10.776480,-76.172000,-90.000000,bottom
"R57","1M","R_0805_2012Metric_Pad1.20x1.40mm_HandSolder",-85.006480,-79.712000,-90.000000,bottom
"R58","1K","R_0805_2012Metric_Pad1.20x1.40mm_HandSolder",-42.026480,-83.002000,-90.000000,bottom
"R59","1K","R_0805_2012Metric_Pad1.20x1.40mm_HandSolder",-47.976480,-83.002000,90.000000,bottom
"RN1","150","R_Array_Convex_4x1206",-57.436480,-46.332000,0.000000,bottom
"RN2","150","R_Array_Convex_4x1206",-57.046480,-23.932000,0.000000,bottom
"RN3","10K","R_Array_Convex_4x1206",-30.355000,-23.650000,180.000000,bottom
"RN4","10K","R_Array_Convex_4x1206",-30.350000,-38.850000,180.000000,bottom
"U1","24LC32A","SOIC-8_3.9x4.9mm_P1.27mm",-49.800000,-10.130000,0.000000,bottom
"U2","TS1117-3.3","SOT-223-3_TabPin2",-40.580000,-23.300000,-90.000000,bottom
"U3","ULN2803A","SOIC-18W_7.5x11.6mm_P1.27mm",-48.650000,-35.110000,0.000000,bottom
"U4","TLP290-4","SOP-16_4.55x10.3mm_P1.27mm",-22.555000,-23.650000,0.000000,bottom
"U5","TLP290-4","SOP-16_4.55x10.3mm_P1.27mm",-22.550000,-38.850000,0.000000,bottom
