M48
; DRILL file {KiCad 5.99.0-unknown-d946d6e68f~129~ubuntu20.04.1} date Tue Jun 22 20:23:30 2021
; FORMAT={-:-/ absolute / metric / decimal}
; #@! TF.CreationDate,2021-06-22T20:23:30+03:00
; #@! TF.GenerationSoftware,Kicad,Pcbnew,5.99.0-unknown-d946d6e68f~129~ubuntu20.04.1
; #@! TF.FileFunction,NonPlated,1,2,NPTH
FMAT,2
METRIC
%
G90
G05
T0
M30
