(module LOGO:OSHWGR (layer F.Cu) (tedit 0)
  (fp_text reference G*** (at 0 0) (layer F.SilkS) hide
    (effects (font (size 1.524 1.524) (thickness 0.3)))
  )
  (fp_text value LOGO (at 0.75 0) (layer F.SilkS) hide
    (effects (font (size 1.524 1.524) (thickness 0.3)))
  )
  (fp_poly (pts (xy -3.867078 2.023564) (xy -3.729567 2.057292) (xy -3.640667 2.084112) (xy -3.640667 2.203801)
    (xy -3.64149 2.265879) (xy -3.645123 2.300416) (xy -3.653306 2.313723) (xy -3.667784 2.312107)
    (xy -3.6703 2.311097) (xy -3.832307 2.252967) (xy -3.975774 2.222205) (xy -4.102064 2.218779)
    (xy -4.212544 2.242658) (xy -4.308579 2.29381) (xy -4.312033 2.296345) (xy -4.370892 2.359386)
    (xy -4.414802 2.445755) (xy -4.441903 2.547546) (xy -4.450337 2.656851) (xy -4.438241 2.765763)
    (xy -4.430067 2.798094) (xy -4.386077 2.903517) (xy -4.322637 2.981759) (xy -4.238474 3.033737)
    (xy -4.132316 3.060369) (xy -4.061152 3.064562) (xy -3.98508 3.06385) (xy -3.936639 3.057689)
    (xy -3.909593 3.040954) (xy -3.897708 3.008516) (xy -3.894748 2.955248) (xy -3.894667 2.927655)
    (xy -3.894667 2.810933) (xy -4.080933 2.810933) (xy -4.080933 2.5908) (xy -3.6068 2.5908)
    (xy -3.6068 3.182106) (xy -3.720573 3.217247) (xy -3.91116 3.263821) (xy -4.086825 3.280959)
    (xy -4.249169 3.268786) (xy -4.284134 3.261997) (xy -4.423398 3.216462) (xy -4.542543 3.145744)
    (xy -4.639028 3.051912) (xy -4.710315 2.937036) (xy -4.724706 2.90321) (xy -4.752958 2.797943)
    (xy -4.765508 2.676615) (xy -4.762308 2.552229) (xy -4.74331 2.43779) (xy -4.726622 2.385109)
    (xy -4.66351 2.267171) (xy -4.575651 2.169733) (xy -4.465958 2.093753) (xy -4.337342 2.040188)
    (xy -4.192715 2.009997) (xy -4.03499 2.004136) (xy -3.867078 2.023564)) (layer F.SilkS) (width 0.01))
  (fp_poly (pts (xy -1.41956 2.026218) (xy -1.385463 2.037506) (xy -1.294176 2.089327) (xy -1.213914 2.167823)
    (xy -1.150575 2.266189) (xy -1.118951 2.344881) (xy -1.094405 2.45897) (xy -1.082984 2.591033)
    (xy -1.08469 2.727899) (xy -1.099527 2.856398) (xy -1.118799 2.937829) (xy -1.165402 3.044576)
    (xy -1.232317 3.13717) (xy -1.313333 3.208041) (xy -1.363134 3.235679) (xy -1.451318 3.262759)
    (xy -1.553315 3.275821) (xy -1.653105 3.273616) (xy -1.711292 3.262824) (xy -1.826623 3.216065)
    (xy -1.919498 3.146288) (xy -1.990665 3.052381) (xy -2.040873 2.933231) (xy -2.070872 2.787726)
    (xy -2.077619 2.71857) (xy -2.077706 2.6416) (xy -1.769206 2.6416) (xy -1.76473 2.780435)
    (xy -1.750588 2.888847) (xy -1.725707 2.969168) (xy -1.689017 3.023733) (xy -1.639445 3.054876)
    (xy -1.57592 3.064931) (xy -1.574826 3.064933) (xy -1.511805 3.052984) (xy -1.468952 3.022201)
    (xy -1.435811 2.97728) (xy -1.412221 2.915906) (xy -1.3972 2.833429) (xy -1.389765 2.7252)
    (xy -1.388534 2.6416) (xy -1.392907 2.502116) (xy -1.406672 2.393193) (xy -1.430801 2.31259)
    (xy -1.466261 2.258067) (xy -1.514024 2.22738) (xy -1.571708 2.218267) (xy -1.636227 2.227628)
    (xy -1.686578 2.257348) (xy -1.723904 2.309876) (xy -1.749351 2.387665) (xy -1.76406 2.493167)
    (xy -1.769177 2.628832) (xy -1.769206 2.6416) (xy -2.077706 2.6416) (xy -2.077792 2.566621)
    (xy -2.057643 2.423225) (xy -2.018812 2.294453) (xy -1.96294 2.186379) (xy -1.918728 2.130596)
    (xy -1.844085 2.074164) (xy -1.747877 2.033944) (xy -1.639073 2.011502) (xy -1.526644 2.008405)
    (xy -1.41956 2.026218)) (layer F.SilkS) (width 0.01))
  (fp_poly (pts (xy -0.278826 2.016434) (xy -0.180036 2.047052) (xy -0.093784 2.102811) (xy -0.045251 2.149167)
    (xy 0.0164 2.229402) (xy 0.060037 2.321588) (xy 0.087347 2.431367) (xy 0.10002 2.56438)
    (xy 0.101399 2.639151) (xy 0.095415 2.787174) (xy 0.076747 2.908505) (xy 0.043776 3.008459)
    (xy -0.005119 3.092353) (xy -0.053811 3.148527) (xy -0.141892 3.214063) (xy -0.248624 3.258154)
    (xy -0.364764 3.278559) (xy -0.48107 3.273039) (xy -0.525959 3.26296) (xy -0.64121 3.217187)
    (xy -0.731797 3.150438) (xy -0.801197 3.059396) (xy -0.847653 2.95613) (xy -0.875605 2.846415)
    (xy -0.891285 2.718713) (xy -0.892718 2.6416) (xy -0.583873 2.6416) (xy -0.579505 2.779895)
    (xy -0.56564 2.887821) (xy -0.541134 2.96783) (xy -0.504843 3.022374) (xy -0.455623 3.053903)
    (xy -0.392331 3.064871) (xy -0.386375 3.064933) (xy -0.327885 3.056165) (xy -0.283735 3.025601)
    (xy -0.280497 3.022183) (xy -0.24848 2.97547) (xy -0.225719 2.911997) (xy -0.211286 2.827141)
    (xy -0.204254 2.71628) (xy -0.2032 2.637175) (xy -0.207422 2.4995) (xy -0.220824 2.392252)
    (xy -0.244509 2.312969) (xy -0.279581 2.259187) (xy -0.327144 2.228445) (xy -0.388302 2.21828)
    (xy -0.390951 2.218267) (xy -0.454344 2.228205) (xy -0.503858 2.259538) (xy -0.540532 2.314538)
    (xy -0.565401 2.395481) (xy -0.579502 2.504641) (xy -0.583873 2.6416) (xy -0.892718 2.6416)
    (xy -0.893734 2.586956) (xy -0.881994 2.465078) (xy -0.881593 2.462748) (xy -0.844156 2.31871)
    (xy -0.786765 2.202031) (xy -0.709397 2.112691) (xy -0.612032 2.050669) (xy -0.494649 2.015947)
    (xy -0.397933 2.007841) (xy -0.278826 2.016434)) (layer F.SilkS) (width 0.01))
  (fp_poly (pts (xy 0.950838 2.025786) (xy 0.985894 2.037454) (xy 1.075935 2.08917) (xy 1.155575 2.167902)
    (xy 1.21933 2.267159) (xy 1.254904 2.355958) (xy 1.275009 2.451797) (xy 1.285206 2.566501)
    (xy 1.285763 2.689229) (xy 1.27695 2.809142) (xy 1.259034 2.9154) (xy 1.239454 2.980455)
    (xy 1.18625 3.079133) (xy 1.11252 3.164114) (xy 1.02647 3.226426) (xy 1.004877 3.237019)
    (xy 0.924774 3.261854) (xy 0.829683 3.275578) (xy 0.735786 3.276702) (xy 0.672837 3.267633)
    (xy 0.561261 3.228501) (xy 0.47413 3.170806) (xy 0.404677 3.08913) (xy 0.366791 3.0226)
    (xy 0.321183 2.901543) (xy 0.295453 2.767163) (xy 0.289237 2.633134) (xy 0.602406 2.633134)
    (xy 0.60575 2.772588) (xy 0.618442 2.88169) (xy 0.641622 2.962939) (xy 0.676428 3.018841)
    (xy 0.724001 3.051897) (xy 0.785479 3.064611) (xy 0.798959 3.064933) (xy 0.857073 3.0563)
    (xy 0.901246 3.025928) (xy 0.905606 3.021353) (xy 0.938035 2.971273) (xy 0.961094 2.89935)
    (xy 0.975437 2.802212) (xy 0.981718 2.67649) (xy 0.982133 2.626907) (xy 0.976803 2.490786)
    (xy 0.961104 2.381317) (xy 0.935478 2.30039) (xy 0.900361 2.249896) (xy 0.89323 2.244299)
    (xy 0.835253 2.221929) (xy 0.767283 2.221478) (xy 0.704575 2.242295) (xy 0.688492 2.253041)
    (xy 0.655278 2.289622) (xy 0.63105 2.342445) (xy 0.614816 2.41589) (xy 0.605584 2.514335)
    (xy 0.602406 2.633134) (xy 0.289237 2.633134) (xy 0.288929 2.62651) (xy 0.300939 2.486632)
    (xy 0.330808 2.354575) (xy 0.377864 2.23739) (xy 0.441436 2.142123) (xy 0.451938 2.130596)
    (xy 0.526638 2.074095) (xy 0.62288 2.033793) (xy 0.731662 2.01126) (xy 0.843982 2.008068)
    (xy 0.950838 2.025786)) (layer F.SilkS) (width 0.01))
  (fp_poly (pts (xy 2.108621 2.018431) (xy 2.170133 2.037036) (xy 2.262114 2.089543) (xy 2.34275 2.168681)
    (xy 2.406148 2.267652) (xy 2.437049 2.344881) (xy 2.461595 2.45897) (xy 2.473016 2.591033)
    (xy 2.47131 2.727899) (xy 2.456473 2.856398) (xy 2.437201 2.937829) (xy 2.389583 3.046446)
    (xy 2.32098 3.140014) (xy 2.237393 3.211262) (xy 2.19021 3.236984) (xy 2.099198 3.264775)
    (xy 1.994739 3.277137) (xy 1.893223 3.272838) (xy 1.844708 3.26296) (xy 1.730818 3.217973)
    (xy 1.639645 3.152853) (xy 1.570174 3.065864) (xy 1.521393 2.95527) (xy 1.492286 2.819334)
    (xy 1.48184 2.65632) (xy 1.481781 2.6416) (xy 1.786794 2.6416) (xy 1.79127 2.780435)
    (xy 1.805412 2.888847) (xy 1.830293 2.969168) (xy 1.866983 3.023733) (xy 1.916555 3.054876)
    (xy 1.98008 3.064931) (xy 1.981174 3.064933) (xy 2.044195 3.052984) (xy 2.087048 3.022201)
    (xy 2.120189 2.97728) (xy 2.143779 2.915906) (xy 2.1588 2.833429) (xy 2.166235 2.7252)
    (xy 2.167466 2.6416) (xy 2.163093 2.502116) (xy 2.149328 2.393193) (xy 2.125199 2.31259)
    (xy 2.089739 2.258067) (xy 2.041976 2.22738) (xy 1.984292 2.218267) (xy 1.919773 2.227628)
    (xy 1.869422 2.257348) (xy 1.832096 2.309876) (xy 1.806649 2.387665) (xy 1.79194 2.493167)
    (xy 1.786823 2.628832) (xy 1.786794 2.6416) (xy 1.481781 2.6416) (xy 1.489603 2.482004)
    (xy 1.513983 2.349717) (xy 1.556288 2.241778) (xy 1.617885 2.155228) (xy 1.700143 2.087105)
    (xy 1.75137 2.058063) (xy 1.864387 2.018791) (xy 1.987385 2.005384) (xy 2.108621 2.018431)) (layer F.SilkS) (width 0.01))
  (fp_poly (pts (xy 3.321774 2.026218) (xy 3.35587 2.037506) (xy 3.447157 2.089327) (xy 3.527419 2.167823)
    (xy 3.590758 2.266189) (xy 3.622383 2.344881) (xy 3.646928 2.45897) (xy 3.65835 2.591033)
    (xy 3.656643 2.727899) (xy 3.641806 2.856398) (xy 3.622534 2.937829) (xy 3.575931 3.044576)
    (xy 3.509017 3.13717) (xy 3.428001 3.208041) (xy 3.3782 3.235679) (xy 3.290016 3.262759)
    (xy 3.188018 3.275821) (xy 3.088228 3.273616) (xy 3.030041 3.262824) (xy 2.91471 3.216065)
    (xy 2.821835 3.146288) (xy 2.750668 3.052381) (xy 2.70046 2.933231) (xy 2.670462 2.787726)
    (xy 2.663715 2.71857) (xy 2.663627 2.6416) (xy 2.972127 2.6416) (xy 2.976603 2.780435)
    (xy 2.990746 2.888847) (xy 3.015626 2.969168) (xy 3.052316 3.023733) (xy 3.101888 3.054876)
    (xy 3.165413 3.064931) (xy 3.166508 3.064933) (xy 3.229529 3.052984) (xy 3.272381 3.022201)
    (xy 3.305522 2.97728) (xy 3.329112 2.915906) (xy 3.344133 2.833429) (xy 3.351569 2.7252)
    (xy 3.3528 2.6416) (xy 3.348427 2.502116) (xy 3.334661 2.393193) (xy 3.310532 2.31259)
    (xy 3.275072 2.258067) (xy 3.227309 2.22738) (xy 3.169625 2.218267) (xy 3.105107 2.227628)
    (xy 3.054756 2.257348) (xy 3.017429 2.309876) (xy 2.991983 2.387665) (xy 2.977273 2.493167)
    (xy 2.972156 2.628832) (xy 2.972127 2.6416) (xy 2.663627 2.6416) (xy 2.663541 2.566621)
    (xy 2.68369 2.423225) (xy 2.722521 2.294453) (xy 2.778393 2.186379) (xy 2.822605 2.130596)
    (xy 2.897248 2.074164) (xy 2.993457 2.033944) (xy 3.102261 2.011502) (xy 3.21469 2.008405)
    (xy 3.321774 2.026218)) (layer F.SilkS) (width 0.01))
  (fp_poly (pts (xy -3.052234 2.032128) (xy -2.884863 2.034882) (xy -2.747739 2.043544) (xy -2.63762 2.058974)
    (xy -2.551263 2.082035) (xy -2.485427 2.113588) (xy -2.43687 2.154495) (xy -2.402786 2.204759)
    (xy -2.381503 2.269632) (xy -2.371532 2.349847) (xy -2.373193 2.43159) (xy -2.386803 2.501042)
    (xy -2.395459 2.521891) (xy -2.432636 2.573666) (xy -2.484908 2.623413) (xy -2.539284 2.659532)
    (xy -2.558553 2.667514) (xy -2.580053 2.676418) (xy -2.577463 2.687128) (xy -2.548256 2.706782)
    (xy -2.543672 2.709576) (xy -2.501825 2.740933) (xy -2.461297 2.785185) (xy -2.418633 2.847251)
    (xy -2.37038 2.932051) (xy -2.323921 3.0226) (xy -2.27778 3.114877) (xy -2.246399 3.180692)
    (xy -2.230678 3.224484) (xy -2.23152 3.250694) (xy -2.249825 3.263761) (xy -2.286495 3.268124)
    (xy -2.342432 3.268224) (xy -2.373759 3.268061) (xy -2.531533 3.267988) (xy -2.638552 3.056216)
    (xy -2.688933 2.959657) (xy -2.730533 2.889948) (xy -2.767936 2.842819) (xy -2.805727 2.814003)
    (xy -2.84849 2.79923) (xy -2.90081 2.794232) (xy -2.920159 2.794) (xy -2.9972 2.794)
    (xy -2.9972 3.268133) (xy -3.318934 3.268133) (xy -3.318934 2.252134) (xy -2.9972 2.252134)
    (xy -2.9972 2.577568) (xy -2.868362 2.571062) (xy -2.799552 2.566164) (xy -2.755566 2.558251)
    (xy -2.727368 2.544737) (xy -2.707496 2.525002) (xy -2.680329 2.467914) (xy -2.674701 2.39992)
    (xy -2.690048 2.33469) (xy -2.71703 2.293697) (xy -2.743828 2.271265) (xy -2.774684 2.25866)
    (xy -2.820027 2.253189) (xy -2.877897 2.252134) (xy -2.9972 2.252134) (xy -3.318934 2.252134)
    (xy -3.318934 2.032) (xy -3.052234 2.032128)) (layer F.SilkS) (width 0.01))
  (fp_poly (pts (xy 4.6736 2.810933) (xy 4.859867 2.810933) (xy 4.859867 3.031067) (xy 4.6736 3.031067)
    (xy 4.6736 3.268133) (xy 4.385733 3.268133) (xy 4.385733 3.031067) (xy 3.843867 3.031067)
    (xy 3.844946 2.810933) (xy 4.029591 2.810933) (xy 4.385733 2.810933) (xy 4.385733 2.556934)
    (xy 4.385218 2.46854) (xy 4.3838 2.393525) (xy 4.381666 2.337743) (xy 4.379006 2.307046)
    (xy 4.377537 2.302934) (xy 4.36597 2.316313) (xy 4.338842 2.353478) (xy 4.299276 2.409971)
    (xy 4.2504 2.481334) (xy 4.199467 2.556934) (xy 4.029591 2.810933) (xy 3.844946 2.810933)
    (xy 3.845237 2.751667) (xy 4.087352 2.396067) (xy 4.329468 2.040467) (xy 4.6736 2.030815)
    (xy 4.6736 2.810933)) (layer F.SilkS) (width 0.01))
  (fp_poly (pts (xy 4.893733 1.540934) (xy -4.842933 1.540934) (xy -4.842933 -2.963333) (xy 3.167608 -2.963333)
    (xy 3.162837 -2.764367) (xy 3.158066 -2.5654) (xy -0.6477 -2.561129) (xy -4.453467 -2.556859)
    (xy -4.453467 1.134534) (xy 4.504131 1.134534) (xy 4.508432 -0.910166) (xy 4.512733 -2.954867)
    (xy 4.703233 -2.959654) (xy 4.893733 -2.964442) (xy 4.893733 1.540934)) (layer F.SilkS) (width 0.01))
  (fp_poly (pts (xy -2.829479 -1.841968) (xy -2.727144 -1.816013) (xy -2.717925 -1.812517) (xy -2.599711 -1.747902)
    (xy -2.497383 -1.654079) (xy -2.411322 -1.531944) (xy -2.341906 -1.382398) (xy -2.289514 -1.206339)
    (xy -2.254525 -1.004664) (xy -2.237319 -0.778272) (xy -2.235478 -0.668866) (xy -2.244668 -0.424037)
    (xy -2.272178 -0.206719) (xy -2.317924 -0.017126) (xy -2.381817 0.144529) (xy -2.463772 0.278032)
    (xy -2.563701 0.383171) (xy -2.681517 0.459731) (xy -2.697101 0.467101) (xy -2.751863 0.489973)
    (xy -2.802251 0.50477) (xy -2.859206 0.513526) (xy -2.93367 0.518277) (xy -2.980267 0.51977)
    (xy -3.090624 0.519522) (xy -3.176536 0.51262) (xy -3.2258 0.50209) (xy -3.365522 0.43886)
    (xy -3.485832 0.349001) (xy -3.583584 0.2352) (xy -3.629988 0.156766) (xy -3.683273 0.024705)
    (xy -3.724187 -0.132512) (xy -3.75273 -0.308515) (xy -3.768902 -0.496933) (xy -3.770107 -0.558644)
    (xy -3.451211 -0.558644) (xy -3.442303 -0.362843) (xy -3.422571 -0.193207) (xy -3.392263 -0.05141)
    (xy -3.351624 0.060875) (xy -3.316376 0.122125) (xy -3.241452 0.19987) (xy -3.149261 0.251825)
    (xy -3.046086 0.276541) (xy -2.938211 0.272566) (xy -2.83192 0.238449) (xy -2.825764 0.235428)
    (xy -2.745681 0.178025) (xy -2.681982 0.093369) (xy -2.643636 0.010021) (xy -2.61782 -0.066771)
    (xy -2.598041 -0.14572) (xy -2.583628 -0.232669) (xy -2.573909 -0.333461) (xy -2.568216 -0.453941)
    (xy -2.565876 -0.599952) (xy -2.56573 -0.668866) (xy -2.569417 -0.871088) (xy -2.58064 -1.042792)
    (xy -2.600245 -1.18666) (xy -2.629081 -1.305374) (xy -2.667997 -1.401617) (xy -2.717841 -1.47807)
    (xy -2.779461 -1.537417) (xy -2.853705 -1.582338) (xy -2.854786 -1.582852) (xy -2.934094 -1.604988)
    (xy -3.027148 -1.607598) (xy -3.120955 -1.591942) (xy -3.202522 -1.559279) (xy -3.22131 -1.54732)
    (xy -3.282981 -1.492619) (xy -3.333491 -1.422268) (xy -3.373753 -1.333193) (xy -3.404678 -1.222319)
    (xy -3.427177 -1.08657) (xy -3.442161 -0.922871) (xy -3.449049 -0.778933) (xy -3.451211 -0.558644)
    (xy -3.770107 -0.558644) (xy -3.772702 -0.691396) (xy -3.764131 -0.885534) (xy -3.743188 -1.072976)
    (xy -3.709873 -1.247351) (xy -3.664186 -1.402291) (xy -3.630026 -1.484995) (xy -3.568301 -1.586729)
    (xy -3.485851 -1.680907) (xy -3.391497 -1.758945) (xy -3.294062 -1.812259) (xy -3.293409 -1.812517)
    (xy -3.193633 -1.83987) (xy -3.074921 -1.853896) (xy -2.949471 -1.854595) (xy -2.829479 -1.841968)) (layer F.SilkS) (width 0.01))
  (fp_poly (pts (xy -0.961598 -1.85098) (xy -0.862536 -1.841531) (xy -0.765023 -1.823116) (xy -0.656001 -1.793595)
    (xy -0.5969 -1.77522) (xy -0.491067 -1.741372) (xy -0.491067 -1.588941) (xy -0.492361 -1.522756)
    (xy -0.495829 -1.472571) (xy -0.500852 -1.445524) (xy -0.503767 -1.442915) (xy -0.633428 -1.505521)
    (xy -0.742446 -1.551155) (xy -0.838108 -1.581994) (xy -0.927705 -1.600213) (xy -1.018525 -1.60799)
    (xy -1.058818 -1.608666) (xy -1.196082 -1.596748) (xy -1.313148 -1.562234) (xy -1.407952 -1.506984)
    (xy -1.478427 -1.432859) (xy -1.522508 -1.341718) (xy -1.538127 -1.235422) (xy -1.534952 -1.179932)
    (xy -1.520814 -1.10893) (xy -1.494372 -1.049493) (xy -1.452105 -0.999169) (xy -1.390491 -0.955504)
    (xy -1.306005 -0.916045) (xy -1.195127 -0.878339) (xy -1.054334 -0.839933) (xy -1.042468 -0.836955)
    (xy -0.871969 -0.78846) (xy -0.731838 -0.734933) (xy -0.618713 -0.674355) (xy -0.529231 -0.604711)
    (xy -0.460029 -0.523984) (xy -0.425608 -0.467055) (xy -0.384844 -0.35951) (xy -0.362766 -0.233535)
    (xy -0.359694 -0.099159) (xy -0.375954 0.03359) (xy -0.406054 0.139896) (xy -0.465303 0.250413)
    (xy -0.55226 0.346691) (xy -0.662546 0.425325) (xy -0.791784 0.482913) (xy -0.877134 0.50606)
    (xy -0.96236 0.517691) (xy -1.070073 0.523145) (xy -1.18951 0.522678) (xy -1.309907 0.516548)
    (xy -1.420503 0.505013) (xy -1.4986 0.491188) (xy -1.576274 0.471866) (xy -1.653661 0.449979)
    (xy -1.714954 0.43002) (xy -1.718734 0.428625) (xy -1.8034 0.396952) (xy -1.813122 0.065374)
    (xy -1.706661 0.124699) (xy -1.545051 0.202459) (xy -1.388396 0.251318) (xy -1.228433 0.273555)
    (xy -1.159934 0.275506) (xy -1.040019 0.27074) (xy -0.944365 0.255108) (xy -0.864481 0.226353)
    (xy -0.791872 0.182215) (xy -0.782317 0.175071) (xy -0.720302 0.107769) (xy -0.677681 0.020061)
    (xy -0.655938 -0.079713) (xy -0.656557 -0.183217) (xy -0.681023 -0.282112) (xy -0.695325 -0.313766)
    (xy -0.727548 -0.364027) (xy -0.770827 -0.406979) (xy -0.82955 -0.444902) (xy -0.908106 -0.480079)
    (xy -1.010882 -0.514789) (xy -1.142266 -0.551313) (xy -1.162151 -0.556435) (xy -1.321868 -0.60082)
    (xy -1.451883 -0.645605) (xy -1.556302 -0.693193) (xy -1.63923 -0.745984) (xy -1.704774 -0.806379)
    (xy -1.757038 -0.876781) (xy -1.780221 -0.917931) (xy -1.804585 -0.987255) (xy -1.820719 -1.078423)
    (xy -1.827804 -1.180232) (xy -1.825021 -1.28148) (xy -1.812922 -1.365033) (xy -1.773122 -1.474901)
    (xy -1.706688 -1.581499) (xy -1.620298 -1.675469) (xy -1.554864 -1.726515) (xy -1.462383 -1.781326)
    (xy -1.371159 -1.818843) (xy -1.271648 -1.841596) (xy -1.154309 -1.852114) (xy -1.075267 -1.853603)
    (xy -0.961598 -1.85098)) (layer F.SilkS) (width 0.01))
  (fp_poly (pts (xy 0.368568 -1.350001) (xy 0.373069 -0.880533) (xy 1.236133 -0.880533) (xy 1.236133 -1.811867)
    (xy 1.2827 -1.813895) (xy 1.325476 -1.814992) (xy 1.386263 -1.815668) (xy 1.430866 -1.815782)
    (xy 1.532466 -1.815642) (xy 1.536817 -0.662288) (xy 1.541168 0.491067) (xy 1.236133 0.491067)
    (xy 1.236133 -0.6096) (xy 0.372533 -0.6096) (xy 0.372533 0.491067) (xy 0.067498 0.491067)
    (xy 0.071849 -0.661682) (xy 0.0762 -1.814432) (xy 0.220133 -1.816951) (xy 0.364067 -1.81947)
    (xy 0.368568 -1.350001)) (layer F.SilkS) (width 0.01))
  (fp_poly (pts (xy 4.110956 -3.538039) (xy 4.154433 -3.534209) (xy 4.176259 -3.526457) (xy 4.182519 -3.513663)
    (xy 4.182533 -3.512799) (xy 4.179058 -3.492019) (xy 4.169156 -3.441815) (xy 4.153608 -3.365857)
    (xy 4.133197 -3.267811) (xy 4.108704 -3.151345) (xy 4.080914 -3.020127) (xy 4.050607 -2.877825)
    (xy 4.018566 -2.728105) (xy 3.985573 -2.574636) (xy 3.952411 -2.421084) (xy 3.919863 -2.271119)
    (xy 3.888709 -2.128406) (xy 3.859734 -1.996615) (xy 3.843191 -1.921933) (xy 3.833713 -1.878862)
    (xy 3.817782 -1.805948) (xy 3.796105 -1.70645) (xy 3.769391 -1.583627) (xy 3.738347 -1.440738)
    (xy 3.703681 -1.281041) (xy 3.666102 -1.107794) (xy 3.626316 -0.924257) (xy 3.585032 -0.733687)
    (xy 3.572829 -0.677333) (xy 3.532095 -0.48926) (xy 3.493311 -0.310293) (xy 3.457097 -0.143287)
    (xy 3.424073 0.008902) (xy 3.394861 0.143418) (xy 3.370079 0.257405) (xy 3.350349 0.348007)
    (xy 3.33629 0.412369) (xy 3.328524 0.447634) (xy 3.327314 0.452967) (xy 3.32062 0.471541)
    (xy 3.306575 0.482843) (xy 3.27803 0.488667) (xy 3.227835 0.490804) (xy 3.17533 0.491067)
    (xy 3.032372 0.491067) (xy 3.015967 0.427567) (xy 3.008515 0.396802) (xy 2.994514 0.337148)
    (xy 2.974921 0.252739) (xy 2.950687 0.147713) (xy 2.922769 0.026203) (xy 2.892119 -0.107653)
    (xy 2.859692 -0.249721) (xy 2.859284 -0.251512) (xy 2.818022 -0.430403) (xy 2.783261 -0.576378)
    (xy 2.754921 -0.689745) (xy 2.732921 -0.77081) (xy 2.717179 -0.819878) (xy 2.707617 -0.837255)
    (xy 2.705628 -0.835712) (xy 2.698968 -0.812589) (xy 2.685764 -0.760241) (xy 2.666921 -0.682483)
    (xy 2.643341 -0.583129) (xy 2.61593 -0.465992) (xy 2.585591 -0.334887) (xy 2.553229 -0.193626)
    (xy 2.548232 -0.171691) (xy 2.515838 -0.030044) (xy 2.485508 0.101324) (xy 2.458117 0.218728)
    (xy 2.434535 0.318478) (xy 2.415637 0.396887) (xy 2.402296 0.450268) (xy 2.395383 0.474932)
    (xy 2.394907 0.476009) (xy 2.373371 0.484918) (xy 2.32881 0.490061) (xy 2.271158 0.491648)
    (xy 2.210345 0.489892) (xy 2.156304 0.485003) (xy 2.118967 0.477194) (xy 2.108009 0.4699)
    (xy 2.104257 0.449881) (xy 2.095981 0.399222) (xy 2.083618 0.320785) (xy 2.067607 0.217429)
    (xy 2.048386 0.092017) (xy 2.026392 -0.052591) (xy 2.002063 -0.213533) (xy 1.975837 -0.387949)
    (xy 1.948152 -0.572977) (xy 1.938901 -0.635) (xy 1.910736 -0.823726) (xy 1.88384 -1.00344)
    (xy 1.85866 -1.171191) (xy 1.835643 -1.32403) (xy 1.815234 -1.459008) (xy 1.797881 -1.573174)
    (xy 1.784029 -1.663578) (xy 1.774124 -1.727272) (xy 1.768614 -1.761304) (xy 1.767882 -1.7653)
    (xy 1.758376 -1.811867) (xy 1.912121 -1.811867) (xy 1.979555 -1.810303) (xy 2.031944 -1.806111)
    (xy 2.061767 -1.800043) (xy 2.065866 -1.796528) (xy 2.067798 -1.777067) (xy 2.073329 -1.727377)
    (xy 2.082066 -1.650858) (xy 2.093614 -1.550913) (xy 2.107578 -1.430941) (xy 2.123565 -1.294345)
    (xy 2.14118 -1.144526) (xy 2.157661 -1.004895) (xy 2.176899 -0.841884) (xy 2.195287 -0.685466)
    (xy 2.212361 -0.53964) (xy 2.227655 -0.408401) (xy 2.240704 -0.295747) (xy 2.251045 -0.205676)
    (xy 2.258211 -0.142183) (xy 2.261259 -0.114064) (xy 2.268735 -0.055527) (xy 2.277018 -0.011898)
    (xy 2.284321 0.007428) (xy 2.28436 0.007453) (xy 2.2903 -0.006879) (xy 2.30223 -0.050747)
    (xy 2.319305 -0.120514) (xy 2.340681 -0.212546) (xy 2.365513 -0.323207) (xy 2.392957 -0.448863)
    (xy 2.422062 -0.585374) (xy 2.548466 -1.185184) (xy 2.710711 -1.185259) (xy 2.872956 -1.185333)
    (xy 2.970838 -0.7239) (xy 3.010058 -0.539464) (xy 3.042969 -0.3858) (xy 3.070118 -0.260514)
    (xy 3.092055 -0.161213) (xy 3.109326 -0.085502) (xy 3.12248 -0.03099) (xy 3.132063 0.004719)
    (xy 3.138626 0.024017) (xy 3.142714 0.029299) (xy 3.14317 0.029008) (xy 3.147743 0.013347)
    (xy 3.15802 -0.030461) (xy 3.174108 -0.102931) (xy 3.196118 -0.204573) (xy 3.224156 -0.335899)
    (xy 3.258332 -0.497423) (xy 3.298753 -0.689657) (xy 3.345529 -0.913112) (xy 3.398768 -1.168302)
    (xy 3.458578 -1.455737) (xy 3.513199 -1.718733) (xy 3.577203 -2.02703) (xy 3.634572 -2.303142)
    (xy 3.685511 -2.548052) (xy 3.730228 -2.762743) (xy 3.768928 -2.948199) (xy 3.801817 -3.105403)
    (xy 3.8291 -3.235338) (xy 3.850984 -3.338988) (xy 3.867674 -3.417335) (xy 3.879376 -3.471365)
    (xy 3.886297 -3.502058) (xy 3.888165 -3.509433) (xy 3.897283 -3.524166) (xy 3.918482 -3.533121)
    (xy 3.958599 -3.537633) (xy 4.024469 -3.53904) (xy 4.039741 -3.539066) (xy 4.110956 -3.538039)) (layer F.SilkS) (width 0.01))
)
