(page_layout
  (setup (textsize 1.5 1.5)(linewidth 0.15)(textlinewidth 0.15)
  (left_margin 10)(right_margin 10)(top_margin 10)(bottom_margin 10))
  (rect (name rect1:Rect) (start 110 34) (end 2 2))
  (rect (name rect2:Rect) (start 0 0 ltcorner) (end 0 0) (repeat 2) (incrx 2) (incry 2))
  (line (name segm1:Line) (start 50 2 ltcorner) (end 50 0 ltcorner) (repeat 30) (incrx 50))
  (tbtext 1 (name text1:Text) (pos 25 1 ltcorner) (font (size 1.3 1.3)) (repeat 100) (incrx 50))
  (line (name segm2:Line) (start 50 2 lbcorner) (end 50 0 lbcorner) (repeat 30) (incrx 50))
  (tbtext 1 (name text2:Text) (pos 25 1 lbcorner) (font (size 1.3 1.3)) (repeat 100) (incrx 50))
  (line (name segm3:Line) (start 0 50 ltcorner) (end 2 50 ltcorner) (repeat 30) (incry 50))
  (tbtext A (name text3:Text) (pos 1 25 ltcorner) (font (size 1.3 1.3)) (justify center) (repeat 100) (incry 50))
  (line (name segm4:Line) (start 0 50 rtcorner) (end 2 50 rtcorner) (repeat 30) (incry 50))
  (tbtext A (name text4:Text) (pos 1 25 rtcorner) (font (size 1.3 1.3)) (justify center) (repeat 100) (incry 50))
  (tbtext "Date: %D" (name text5:Text) (pos 87 6.9))
  (line (name segm5:Line) (start 110 5.5) (end 2 5.5))
  (tbtext %K (name text6:Text) (pos 109 4.1))
  (line (name segm6:Line) (start 110 8.5) (end 2 8.5))
  (tbtext "Rev: %R" (name text7:Text) (pos 24 6.9) (font bold))
  (tbtext "Size: %Z" (name text8:Text) (pos 109 6.9))
  (tbtext "Id: %S/%N" (name text9:Text) (pos 24 4.1))
  (line (name segm7:Line) (start 110 12.5) (end 2 12.5))
  (tbtext "Title: %T" (name text10:Text) (pos 109 10.7) (font (size 2 2) bold italic))
  (tbtext "File: %F" (name text11:Text) (pos 109 14.3))
  (line (name segm8:Line) (start 110 18.5) (end 2 18.5))
  (tbtext "Sheet: %P" (name text12:Text) (pos 109 17))
  (tbtext %Y (name text13:Text) (pos 109 20) (font bold))
  (tbtext %C0 (name text14:Text) (pos 109 23))
  (tbtext %C1 (name text15:Text) (pos 109 26))
  (tbtext %C2 (name text16:Text) (pos 109 29))
  (tbtext %C3 (name text17:Text) (pos 109 32))
  (line (name segm9:Line) (start 90 8.5) (end 90 5.5))
  (tbtext M10CUBE (name text18:Text) (pos 92.002 26.007) (font (size 4 4) bold))
  (line (name segm10:Line) (start 26 8.5) (end 26 2))
  (bitmap (name bm1:Bitmap) (pos 98.002 26.007) (scale 1)
  (pngdata
    (data "89 50 4E 47 0D 0A 1A 0A 00 00 00 0D 49 48 44 52 00 00 00 64 00 00 00 69 08 06 00 00 00 CC 7C 86 ")
    (data "8A 00 00 00 04 73 42 49 54 08 08 08 08 7C 08 64 88 00 00 00 09 70 48 59 73 00 00 3C F0 00 00 3C ")
    (data "F0 01 A9 F9 3D D2 00 00 18 16 49 44 41 54 78 9C ED 9D 79 7C 14 45 16 C7 BF D5 93 3B 84 43 10 04 ")
    (data "44 8E E5 D8 15 05 5D 41 02 8A 8A AB 1C 8A 06 51 74 45 10 15 08 82 02 8B 8A BA EB A2 A2 AB A2 2C ")
    (data "A8 1C 02 11 45 11 41 71 51 22 1E 1C 1E B0 8B 1C 2A 8B 02 B2 88 A0 A0 72 83 02 09 39 67 BA F6 8F ")
    (data "57 9D 49 26 09 CC 4C BA 25 D9 F5 F7 F9 E4 D3 99 EE EA 57 AF EB 75 57 D5 3B EA 95 D2 5A 53 55 A0 ")
    (data "66 2C 04 A5 BA 01 8B C3 BC A5 3B 5A 2F D1 43 7A 79 C9 96 AB B0 4E 36 03 11 41 29 80 11 11 DC 31 ")
    (data "C2 DC 53 65 50 B5 04 62 6B 80 6E 11 DC D1 CD DC 53 65 50 A5 04 A2 2C 95 08 F8 22 B8 C5 67 EE A9 ")
    (data "32 A8 3A 02 39 B2 1F 0D C9 91 DE A6 21 99 23 FB BD E0 C8 13 54 19 81 A8 79 AB 00 CE 88 E2 D6 C6 ")
    (data "EA B5 55 2E 73 E3 1D AA 8C 40 B0 14 40 9F 28 EE EC 53 95 06 F6 98 5F A2 12 95 91 89 82 58 0D 85 ")
    (data "4B D3 BA 72 79 BD A8 BB F5 3F 46 79 CF FD D1 54 B6 6C 5F 2E 5D 33 97 A2 20 46 83 5F A7 A7 45 43 ")
    (data "26 22 78 FA 85 0C 7D 77 0D 2A 23 13 60 81 86 02 E0 D5 AE 99 4B 69 30 73 51 C4 B4 62 64 30 6F 12 ")
    (data "05 1B 8D 63 22 9B 08 00 D0 60 E6 22 BA 66 2E 05 98 A3 A1 10 58 A0 32 32 19 FA EE 9A 28 58 08 1F ")
    (data "9E 09 A4 EB DC 65 4C DF B5 0F 60 0E D0 DB 9C EE 0B FC B8 C7 B6 5B AB 8C 4C 22 99 90 FA A1 4E B4 ")
    (data "BC F8 E1 D4 70 CB 6A E4 8B DE 63 DB 67 02 3F 00 37 99 4B BD 81 39 D3 77 ED E3 F2 B9 CB A2 65 E5 ")
    (data "84 50 5E 68 EA 1D 67 2F 66 4D 5E 3E C0 F3 C0 A0 72 8A 3D 0E 3C 70 86 CF 62 E7 C0 AB CA 67 50 B4 ")
    (data "73 80 DB 80 17 A2 64 69 20 F0 22 5A 73 3C AD BD F1 0B 8B F8 3E 60 03 FC 0D 78 A0 9C 62 33 81 C1 ")
    (data "A9 09 F1 AC BE B9 7B 94 EC 94 0F D7 05 92 3A 7B 31 6B 45 18 53 81 61 27 28 BE 13 B8 14 F8 B6 78 ")
    (data "FF FC FB 97 DE 63 7D 41 21 0A 92 34 DC 08 3C 02 34 A8 20 6B 7B 80 31 0A E6 69 C8 39 27 2E 96 F5 ")
    (data "B7 5C 51 74 D1 74 AD CD 80 0F 39 71 D7 38 0D 18 76 7E 42 3C 6B 5D 16 8A AB 02 E9 3C 67 09 2B 73 ")
    (data "F2 00 A6 00 77 44 70 EB 20 E0 05 B4 76 BE 86 56 C0 DD C0 60 D7 98 2B 89 E7 81 09 C0 D7 C5 EA 1C ")
    (data "88 BC FD E1 E2 39 E0 8E 0B 12 13 58 D9 3F 12 E3 C1 F1 E1 9A 40 7A CD FF 98 CC C3 47 01 A6 03 43 ")
    (data "A2 20 F1 3D 30 1C 78 19 A8 E9 0A 53 27 C6 11 60 00 30 89 E8 74 9C 0C 60 C8 D5 35 53 C8 BC FE 52 ")
    (data "57 18 72 4D 20 E6 93 9F 05 DC E2 0A C1 AA 83 D9 C0 00 B7 A6 C4 6E CF B2 FA BB 4C AF 2A E0 A6 13 ")
    (data "17 09 1F EE 09 C4 EF 07 B8 C1 35 7A 55 07 37 98 67 77 05 AE 09 44 0F BB 16 60 01 F0 AA 5B 34 AB ")
    (data "00 5E 05 16 98 67 77 05 AE 76 59 A9 09 F1 C4 C1 CD 80 ED 26 DD 4A 0A 3B 0E 6E 4E 4D 88 77 95 A8 ")
    (data "AB 02 59 7D 73 77 0A 6C 6D 03 17 BA 49 B7 92 E2 C2 02 5B DB 6E 2B 87 AE 9B 4E F4 ED BD 00 56 23 ")
    (data "53 C9 FF 55 4C 02 56 9B 67 75 15 9E D8 B2 52 13 E2 51 A2 D8 E5 78 41 FF 24 23 47 C1 DD 6E 77 55 ")
    (data "0E 3C B1 65 01 A8 E7 16 40 4C 4C 43 E0 47 4F 2A 38 79 38 1D BF 7F 97 9B 03 79 71 78 66 ED 35 0C ")
    (data "EF 42 CC 28 FF 2B 98 02 78 26 0C F0 DA 63 28 5F DF 36 4F EB F8 65 B1 0D 8F E3 D8 3C 15 88 4F A9 ")
    (data "18 E0 19 2F EB F8 85 F1 8C 79 26 CF E0 99 40 D4 F4 B7 08 C0 6F BD A2 7F B2 10 80 DF AA E9 6F 79 ")
    (data "46 DF BB 2F C4 B2 40 7C 0B FF 6B F8 D0 3C 9B 27 F0 84 F2 05 AF 2C 46 41 63 A0 AE 17 F4 0D E6 00 ")
    (data "6D 81 FA 0A 6A 29 A8 05 D4 37 E7 E6 78 58 6F 5D 05 8D 2F 78 25 DC F0 E2 C8 E0 49 7F B8 2A 37 1F ")
    (data "E0 61 2F 68 03 0F 29 78 5A 43 16 81 00 7A 68 EF 12 17 D5 B4 37 F7 E2 F3 F5 57 30 4C C3 28 60 AC ")
    (data "DB 0C 68 78 78 55 6E FE AD 6E D3 05 0F F4 90 AE 73 97 B1 2C 3B A7 26 F0 B3 AB 84 C1 0F 9C 07 6C ")
    (data "38 9C 9E 46 8D 13 14 3E 02 D4 14 1F 4D 1B 60 1D EE BF 7C B5 2E AF 96 74 78 69 DF CB 5D 25 5A 61 ")
    (data "81 A8 19 99 60 E2 D0 2C 88 B3 A5 D1 86 23 BE 70 B7 90 0B 9C D1 C0 B2 0E EE 1A 54 7E 40 44 59 68 ")
    (data "38 73 11 BB 6D BB 0E E2 91 74 33 CE 77 1E 30 D9 82 75 B6 84 38 81 06 3D A4 62 8E AA B0 05 72 C9 ")
    (data "9C A5 AC C8 C9 2D 7E EA 0C C4 F7 DD 06 B8 08 B8 18 4E F8 E2 46 8B D4 3A 96 FA F4 C0 A0 AB A3 7A ")
    (data "7B 4E 9D F9 B6 3A 68 EB F3 01 AF 82 AA 8E 00 2B 80 7F 02 1B 80 AF 91 17 00 80 8B 93 12 59 DE AF ")
    (data "6B 58 84 C2 16 88 71 D1 DE 81 04 1E B4 8D 88 DD 8A 61 26 30 B8 A2 2E 52 C3 FF F1 C2 92 BC C0 97 ")
    (data "A6 CE A9 E1 F2 1F A9 40 B2 89 22 02 BD 22 50 90 1C 48 4F CB A9 68 74 AE 06 7C 19 99 C9 5A 9E E1 ")
    (data "97 C4 31 A0 5A B8 02 89 74 DA FB 4B AF 7E C9 D4 62 5D AD 30 14 A0 A5 71 DE 76 81 5C 24 88 A8 CD ")
    (data "2A 7B F4 FB C2 3B 1B 9D E6 1A B1 A1 0D EB 01 78 A7 66 BB 80 CA 2E 90 CD 93 7B 74 70 8D D8 73 57 ")
    (data "A6 02 6C 76 8D A0 07 A8 EC 02 F9 A9 8A D0 74 0D 95 5D 20 B1 55 84 A6 6B A8 EC 02 F1 C2 16 E6 A5 ")
    (data "7D AD C2 A8 EC 02 39 57 CD 58 E8 1A 31 43 EB 5C D7 08 7A 80 CA 2E 90 7E AE AE 0F 14 5A FD DC 23 ")
    (data "E8 3E 22 15 48 C4 4B C3 2A 88 F3 80 16 67 CD 7A B7 C2 84 0C 8D 16 86 E6 2F 89 88 DA 2C 7C 81 F8 ")
    (data "03 00 4D 81 FB 10 BB CD 76 20 2B 92 CA A2 C4 8C AF 0A 2B 1E 3B 6B 68 CC A8 30 A1 13 23 0B 69 9B ")
    (data "15 48 5B 35 35 6D 17 16 A2 B2 F6 AA E7 DE 84 98 12 82 4F 43 96 2C 5F 02 54 C3 7D 23 E3 30 B4 9E ")
    (data "16 6D 12 19 B3 2C 6E 28 B2 C8 C6 4D 1C 41 04 B0 02 78 03 C8 2C BA E2 0F A0 87 F5 2E E7 B6 F2 E1 ")
    (data "9A 3F 64 D2 BA ED 8C FC 7C A3 D3 4F 4F 00 EE 72 85 70 10 A9 D8 F6 5A 7D FB 35 11 DD A4 A6 BF 05 ")
    (data "96 D5 01 F7 2D BD 13 81 BB D1 9A 67 DB 9D CD 88 F3 7E E3 0A 51 F7 03 E5 7E DE 8D 7A E3 B3 16 C0 ")
    (data "56 77 09 03 30 02 DB 9E 1C AE 50 8C 30 46 00 CF 7A C0 4B 4B DD A7 FD 37 D4 AA E8 D2 C7 92 F0 24 ")
    (data "72 D1 58 86 B7 22 83 A8 DB D8 0C B4 EE 96 92 CC E2 1B 2F 2B B3 40 F7 79 1F B0 24 EB 18 C0 57 C0 ")
    (data "99 1E F0 F0 0D D0 D2 8B 44 02 DE 4C 7B 45 C8 5E F9 1D CE 04 36 9B 06 2F 13 E6 DA 66 BC 11 06 C0 ")
    (data "20 AF 02 E6 3C 11 C8 67 FD 7B A1 60 AD 17 B4 0D AE C7 3E CE 12 14 B9 76 BD 57 95 2B 58 FB 59 7F ")
    (data "6F B2 D4 79 22 90 76 49 A0 21 1F 19 F8 DC 86 8E 85 CD 9F F4 2D BF 41 3E E9 DB 8B 58 F9 42 BC 78 ")
    (data "8D 27 6A C8 6F 97 E4 01 65 3C D4 D4 7B D5 AC 0E 92 11 C1 6D 8C 2F 0C 04 EC 4E D5 CB D7 E0 3B 55 ")
    (data "57 14 06 02 36 30 DE 83 FA FF 66 9E CD 13 78 B6 1C 01 8A E6 FF 07 A8 40 9E 92 10 F8 81 D8 B0 FD ")
    (data "D3 32 B9 28 C4 BD 10 A0 83 68 7D AA 97 49 35 3D FB 42 86 BF FF A9 F3 6F 9E 8B 64 B7 10 88 60 F9 ")
    (data "A2 94 DD E2 62 FD 79 50 E2 D9 5C 87 67 02 99 F2 C3 1E 50 AA 0F 70 BA 8B 64 AF D1 43 C3 57 0C 4D ")
    (data "D9 C8 34 C9 E3 E3 74 94 EA 33 E5 87 3D 2E 92 2C 09 4F 04 A2 26 CD 07 49 16 33 DF 45 B2 3F 12 DD ")
    (data "5A 93 6D B8 BB 8A 6B 3E D0 C0 3C A3 EB F0 E6 0B 91 F5 77 EB 5C A6 3A 75 66 C7 DF 47 7C 93 B9 67 ")
    (data "AA CB BC AC A3 AA AC 31 34 03 E9 28 DC 9D F2 16 00 F1 D1 6A C6 86 A7 7C 20 CE 45 9E EE 02 9E 76 ")
    (data "5B 5B 77 F5 0B 69 FE E2 3B 00 67 E1 BE FE F1 5E 85 34 63 B9 F7 3D B7 98 31 98 08 9C 65 9E D9 35 ")
    (data "B8 97 5A 03 D8 2E 76 FF 0F DC A2 59 0C 23 FE DA AA 59 D4 37 9B 7B 23 49 51 1E 2E 3E D8 EE 0F B8 ")
    (data "AA 7D BA 26 10 4B BA 85 29 40 3D B7 68 1A AC 03 7E 78 F4 92 36 51 13 30 F7 FE 80 FB E3 5A 3D 60 ")
    (data "8A 79 76 57 E0 F6 A0 1E 49 16 B9 70 F1 6C 9B B8 8A 47 EE 18 1A 5E 98 E1 5D 7D 66 F7 04 22 49 EF ")
    (data "7B B8 46 4F 50 08 BC F2 45 B1 DC 88 D1 C2 D0 78 C5 D0 74 13 3D DC 4C F8 EF DE 18 22 79 3F 16 03 ")
    (data "E1 2D 84 28 8D F9 C0 BE 90 73 E3 A0 68 3D 50 85 50 8C C6 B8 90 4B FB 88 5E 5F EA 0A 2C 76 33 E7 ")
    (data "89 AB 5D 96 4E 4F 03 CD 32 C4 B7 1E 2E B6 03 29 04 02 37 00 A7 01 0F 12 5C 32 30 7D 8F 8B D3 4A ")
    (data "43 6B BA F9 99 6D EA 3A CD D4 9D 62 78 09 17 97 A0 59 56 A9 A7 BD 60 96 74 69 BD 02 38 51 94 B4 ")
    (data "46 92 0A 34 1F DD AC 51 B6 1E DA 1B 9D 9E 46 CB 18 DF A3 48 E3 F4 00 76 BB 17 FB 2E D2 06 76 1B ")
    (data "DA 29 2D 63 7C 8F EA F4 34 F4 D0 DE 8C 6E D6 28 1B 68 6E 78 3A 51 1F D4 01 AD 57 54 74 F9 5A 59 ")
    (data "F0 2E F9 8C 58 7A DB 20 AB 88 42 71 0C 68 DE 35 25 79 EF 92 72 DC B0 27 0B DD E6 7D C0 D2 AC 63 ")
    (data "A7 21 26 97 B2 16 27 B5 45 EB 0D 5E 59 7C BD 4B 3E 33 A4 17 04 EC 0D 40 EB 90 4B 93 81 6A 6C D9 ")
    (data "51 E9 84 01 B0 E4 C6 CB 60 CB 8E BD 48 38 D3 E4 90 CB AD 09 D8 9E 09 03 3C F6 87 40 51 0C D7 59 ")
    (data "C0 46 A0 39 5A 6F 1F D8 A0 2E 33 AF EA E4 69 BD 15 C5 A0 45 AB 78 61 F7 7E 50 EA 37 C8 D7 72 36 ")
    (data "FE C0 A6 68 62 AD 22 81 E7 02 01 50 D3 17 CA FE 1F B6 4D A4 71 55 27 1B 26 94 08 6C 8D 17 19 E4 ")
    (data "4A D5 57 95 B6 CD FB 7F 40 65 8F 7E FF BF C3 AF 02 A9 64 F8 55 20 95 0C BF 0A A4 92 E1 57 81 54 ")
    (data "32 C4 00 A8 67 E7 43 7C 1C CA 52 49 C8 04 B5 C0 D6 BA 60 CE 25 1D B9 A9 55 3D D4 94 7F E0 8B 8B ")
    (data "8D D5 E0 53 E0 0F 68 ED 57 4A 25 02 56 BC 22 27 CF 1F D0 A5 F2 56 CD 58 88 52 2A 01 88 51 50 68 ")
    (data "6B 9D EF 28 54 6A E4 D3 C4 B4 6E E6 B3 A5 7E 6D 6B 5D E0 94 B5 20 2F 60 DB FE F5 B7 5D C3 39 C7 ")
    (data "71 B8 AA 19 0B 89 51 CA 17 80 04 00 A9 83 02 0E 1F 45 DF D7 BF 44 39 9F 52 3E 5B 32 01 E9 44 A5 ")
    (data "72 72 FC FE 22 7E 3B CC 5E CC E7 79 F9 F1 80 AA A5 54 FE C1 C1 92 E0 46 4D 7B 13 CB E7 8B 03 AC ")
    (data "58 28 C8 EB D1 D2 8E 7B 7F AB 15 10 37 B0 6D 6B 5D 60 29 15 AF 21 56 41 BE AD 75 A1 1E D2 0B 35 ")
    (data "FD 2D E2 2D CB 2A 10 BE 2C 1F E4 FA B5 0E 4C 6A D7 86 E1 E7 35 2B 5A B6 61 29 15 AB 21 1E 08 68 ")
    (data "AD 73 C9 C9 43 8F FA 23 96 7A E6 75 48 8C AF 85 A5 0E 6A 38 A6 21 CB 86 7C 94 9A D8 6F F9 1A F8 ")
    (data "F6 0B 88 8B 25 00 33 6C C8 0D C0 44 94 FA 4C 43 8E 86 EC 3C 8D 8D CF D7 C2 C9 43 A8 86 8D A7 7A ")
    (data "46 A6 42 A9 E5 1A 72 0D BD 3C 94 9A D3 60 E6 DB A8 8B EF 82 33 9B E2 87 BB 6D C8 B3 61 19 4A CD ")
    (data "77 CA 06 A0 10 CB BA F0 DC 59 E5 2F F6 54 93 DE 00 A5 06 F8 C1 AF 21 5B 43 B6 F0 CC 26 6A 55 4F ")
    (data "56 4F 49 42 39 35 61 2E 28 75 53 40 CA 65 69 C8 CE D1 BA 00 9F AF 8D 9A FC 06 00 EB F2 F2 63 6C ")
    (data "C8 B1 21 F7 90 D6 C1 80 3E 9F 0F 1B D6 DB 90 9B 0F 9D D4 9B 1B 29 84 9E 36 E4 DA F0 11 4A 3D 65 ")
    (data "43 9E 79 BE 02 94 EA 2B FA 96 D5 39 1F 02 4E 5B FA C1 8F 52 B7 8C 58 B7 11 80 91 EB 36 81 52 F7 ")
    (data "D8 50 60 78 CA 41 A9 EF 54 72 62 0D F5 F4 6B 58 24 25 9C 8A 2C A6 AF 1D F2 DC A3 50 2C 51 1F EC ")
    (data "74 7E 3B 0A CB 9D 40 BB 90 B2 5B B1 AC A6 B3 36 FD 08 E7 B4 24 4B C2 6E 2E 0E 29 73 D3 1E 5B EF ")
    (data "E0 A6 A2 D3 0E BD CE 94 DE 30 F2 5F 28 D5 A1 C7 6B A5 BD C1 6A D2 7C 48 88 BB 06 78 A9 B4 A8 68 ")
    (data "0D EC A6 66 8A 58 08 52 92 1F A2 74 BA BF 18 E0 4B E2 E3 3A DF 9A B9 32 94 97 50 E8 72 AE 77 04 ")
    (data "46 17 FB 7D 18 98 8B A5 06 20 29 9A 42 31 0B 78 DB 04 5B 3C 4E E9 10 D7 26 1A 0E 93 9C 78 AA 55 ")
    (data "EC E2 0F 40 4D 25 06 B5 73 0C 13 5D 81 D0 D8 1B 1B 68 A8 20 59 C9 76 74 4E 64 E2 8D B7 AD 5A 07 ")
    (data "B2 CA B5 01 B2 09 57 72 82 C2 42 F2 21 E6 21 79 18 AF 0C A1 A7 80 54 53 6F 6D C4 F0 08 30 76 F1 ")
    (data "D1 D2 4B 0E DA 56 AF 06 F0 A2 F9 79 AB 0F 62 63 A4 91 6B 00 93 14 34 BF B1 4E 2D 88 F1 C5 20 E6 ")
    (data "75 80 74 25 B6 A9 6A 88 93 0A 60 EE 4B FB 0E 95 A2 1F 26 2C E0 7A C3 73 7D A0 AD 82 53 08 BE 24 ")
    (data "23 15 54 37 75 5E 0A 64 2B 89 C6 6F 08 FC 19 09 89 6D 10 27 43 40 22 B2 8E 05 60 BC 05 74 31 3F ")
    (data "7A A6 26 C4 1F B1 D3 D3 72 D0 FA 4B C4 F6 04 70 7E 08 33 9F A2 F5 6E 3B 3D 2D E7 81 16 4D 0F 22 ")
    (data "99 D5 40 12 99 41 F0 6D 1F 0A E4 E4 69 34 F2 06 39 EB FB AE 0F 59 EA BC 11 58 6B A7 A7 E5 5C 53 ")
    (data "AB FA 4F 04 77 AC 29 73 3D F9 E1 40 00 CC B8 01 E8 80 6C 25 13 00 8E 02 23 75 5E FE 81 79 7B 0E ")
    (data "80 C4 13 3B 93 96 E7 FB D5 AD 7D 2C 35 21 FE 98 E1 0B 2A B6 EB DB 3E E0 8D 17 2F 6C 97 43 7E C1 ")
    (data "5E B4 FE 5E 07 5F DC 2C 34 93 C6 B4 6A 9A 65 A7 A7 1D 43 F3 31 85 FE 14 1D B0 F3 08 BA 24 3E 01 ")
    (data "F6 14 88 9F 35 8F E0 96 E4 3D 2C 82 99 0D 36 38 5B 2F 98 C1 D7 59 DF D1 28 84 99 8D CE E0 FC 68 ")
    (data "97 36 C5 CB 39 21 E1 BF 33 C7 87 80 55 C5 FE 9C DC 7C A1 F4 7E 42 B6 D9 E3 CD 3E 5D 00 BE 30 E7 ")
    (data "CB 5C 4E BC 53 CA 3A 5B A9 BE 04 1C 42 8C 7F FF 06 5E 4E 4A 4C 50 66 DF 5C 67 93 AF AD 00 B3 7B ")
    (data "5D E8 EC 3B E8 7C 76 15 99 61 6E 07 B8 E5 CC 86 E8 E1 7D 9C 75 95 1D CD B5 37 08 04 18 7B B1 BC ")
    (data "9F 7A 48 1A FA 8E 6B C1 67 41 D0 F2 DD 8A 92 6D E3 BC D4 A7 C6 50 7E 64 78 81 39 86 CE 75 F2 CB ")
    (data "F9 ED D0 71 56 4E 94 97 31 21 A5 D4 99 08 CC 69 7B EE B8 8E FA 19 99 CF 22 5D D4 18 A4 AB 38 C5 ")
    (data "A9 33 47 EB 2B F0 F9 4E 25 98 5F B1 DC 60 EF 14 50 27 D8 BE 21 12 43 9F F3 42 FE 7C 9C 18 B2 6A ")
    (data "E6 78 1A 45 FE B2 12 50 16 66 AD B9 25 53 30 00 7A CC FB 00 82 6F 58 68 F6 9C 86 CE 42 FE E5 87 ")
    (data "0A 40 FA 50 90 44 95 00 7B CD B1 15 32 3E 84 FE B5 8F 28 82 3D 04 A7 81 13 50 F1 08 32 E5 8C 43 ")
    (data "36 84 BC 12 69 FC 3A 48 D7 E0 F0 51 6E B0 77 56 E9 06 B7 C6 AF F9 BA F8 EF 6A 84 0F 27 CA BE 8B ")
    (data "F9 42 01 68 3D EB 5D 8A A5 07 71 F2 30 CE A6 EC B6 51 31 48 1F 7E 91 0D 4F AA 8C CC 3F 15 AB C0 ")
    (data "19 5B FE 1D 52 71 EA 57 85 7E 27 3C 13 82 9B 3F 3A D3 B1 65 48 B6 84 89 40 4F 67 E3 46 05 A7 68 ")
    (data "28 44 EB AC E2 0C 47 82 6D 40 8B 19 0B C1 52 97 22 5D DA 32 43 F3 3B 94 FA 0E E9 EE 52 91 97 61 ")
    (data "2E D2 E0 A7 00 F5 55 46 A6 13 B2 EE 4C 2A 8E 02 58 32 0E 39 82 B9 FC DE 0D 5B E6 DC BB 61 0B C8 ")
    (data "18 D3 24 1C BE 3A 25 C6 B3 2A 37 7F B9 F9 79 2E 3E 5F 5D 95 91 B9 1F 20 16 2C 94 BA 01 E9 96 3E ")
    (data "33 65 7A 23 FB 27 16 47 2B E0 6B 8B E0 60 3B 12 59 00 3F CE 3C 48 35 00 55 7A 1A D7 00 D8 0F 3C ")
    (data "06 6C 42 B2 3B 00 BC 83 64 2D 75 82 08 AE 04 96 A3 D4 B5 C0 23 5A FA FA A3 28 15 B5 9B BC C5 D4 ")
    (data "05 A0 54 7D 24 85 F9 52 24 03 E8 50 B3 EC E1 7D 44 18 00 F3 6A 2A 15 40 FC E7 98 E3 14 A4 51 9C ")
    (data "D8 CF A5 D8 9A C2 BC 82 00 C1 B7 FB 15 60 21 F2 32 ED 0A 97 AF 4F FA 77 07 19 57 76 22 6F FA 3E ")
    (data "64 83 CC 09 85 32 A3 9A 0B 3C 0D 7C 8A BC 08 D5 90 9E 69 00 90 8E 6C 7C B3 05 48 B3 80 D7 09 EE ")
    (data "60 70 11 92 0E 02 A4 0B 6A A2 BF F9 BE 44 6E 58 43 B4 26 F0 17 82 83 D4 87 C0 52 FD A7 3F 82 D6 ")
    (data "3B 81 2B 90 F8 A7 8B 81 7F 20 7D 3D C0 F6 64 A5 9C 50 1F E7 33 29 6F 70 2D 75 FE 89 73 5B 83 4C ")
    (data "A7 FF 6A 1E E2 6C E4 85 9A 0F 74 47 66 5B F7 3E D5 F6 77 85 3F 8B C6 7D 3A 41 A1 DC 41 70 3F F6 ")
    (data "D5 40 1F 7D 7B 2F F4 88 3E 18 3A 07 CC B5 34 24 58 7C 0F B2 FC B9 38 AF E5 F2 D6 2E 3E 0E E0 37 ")
    (data "04 BB CA 9B 91 80 6C 85 64 7C 18 5F C7 52 0A 99 FA 67 23 42 79 09 49 F7 91 88 B4 F7 46 4B A7 A7 ")
    (data "81 AD 47 F9 24 B1 D7 7D C8 9B D4 0B 48 BA AA 46 CA 4E 3D 7E 78 68 DD 2B 91 7E FB 5E E4 4D 6A 02 ")
    (data "5C F6 52 E7 F6 80 CC D0 EE 6F DE F8 7D 53 A6 2F B2 91 EF 83 0A AA A1 75 F3 7B 5A 36 D5 66 0C 78 ")
    (data "1F 59 3A 3D 8E DC E0 B8 6B C9 97 94 4E 19 B1 B8 F7 77 FA 2D 3A 3D 8D C1 0D EA 3E 86 E8 00 1D 80 ")
    (data "27 10 A1 5C 0B C4 9C 1D 17 3B 7E 74 87 96 C2 8B 84 E8 34 44 A6 EE 13 80 47 81 06 68 DD A9 78 F8 ")
    (data "4E AE FC 5F 17 59 DC 33 0D B8 0E E9 09 FE 8C 6C 23 FB 0D 87 B3 40 BA C4 41 48 EF 50 02 9F 0D E8 ")
    (data "C1 13 67 B5 0C 20 63 6A 13 53 66 0A 22 EC 9A 7F A8 96 B4 FB C0 A0 AB 75 B7 94 E4 C3 C8 C4 26 D5 ")
    (data "B4 DF 53 48 DA DD A4 D4 84 F8 6F 83 1E C3 9D 9B 50 2F AE 86 D8 58 38 78 18 FD F4 48 67 3A E7 8C ")
    (data "17 2F 20 5B 68 4F D0 FD BA DC A3 9E 7C 5D 54 B2 31 6F A1 75 19 89 3E 0B F2 50 0F CC 84 9A D5 44 ")
    (data "53 78 78 30 C5 BD 93 AA FD 70 B8 EC 4C 38 9A 83 9E 7A 77 F0 BE 6F 3E 47 CD FA 4C 72 85 3C 75 67 ")
    (data "29 B2 6A 9A C9 61 B9 63 37 EC D8 0F AD 1B CB 94 F2 D0 11 F4 C4 91 A5 F9 00 54 9F 07 A1 4D 53 D0 ")
    (data "36 3C F4 18 5A 7F 5B 76 B9 51 CF 40 9D 9A 70 E8 28 7A E2 08 D4 5D CF CA 5A 97 27 86 A2 B5 46 29 ")
    (data "05 F7 3F 07 D9 B9 E8 C9 E5 67 0E 51 2A 0D C6 A6 09 5F 1F 6E 44 7F 34 A1 74 99 BE 63 E1 CC 33 24 ")
    (data "32 7F E5 16 F4 92 A7 E4 7C 38 2E DC 52 02 49 4F BB E7 84 37 79 00 E3 DF FE 19 B1 16 B4 66 FD D6 ")
    (data "BD 7A DA E8 13 DD 56 A5 10 CD EA D4 93 ED 84 77 76 92 56 C4 7A BA D9 CD 49 C1 AF FE 90 4A 86 A8 ")
    (data "BE 90 87 56 6C E4 91 AF 4D 3F 5C 50 88 BE F3 BA 52 85 D4 E4 37 20 3E A8 E4 4F 6D DF 86 61 E7 36 ")
    (data "0D 5E 9F BA A0 28 E7 D6 D5 B5 AA F3 F6 FE 9F C0 2C 3B B8 A5 5E 1D 66 A5 5D C0 FC ED 07 B9 E1 83 ")
    (data "95 32 96 95 D5 B5 B6 6E 5A A4 74 A5 37 AC C7 8C 9E 62 BD 50 8F BD 24 63 01 F0 D1 B5 57 D0 A5 8E ")
    (data "F0 B1 F2 28 74 9E 67 94 B4 0D DB D0 53 EF 41 5D FF 10 5C 16 B4 9F F6 3E A5 06 0B AE BB 24 C8 E7 ")
    (data "E3 2F 43 6D 93 FE 6B DB 8F B4 6D DD 8C 2F 0B 24 80 BE 53 62 BC 33 E5 A5 FF 5B FF 62 CE 01 A3 43 ")
    (data "6B CD AA BE BD E8 58 DA 26 71 42 44 33 86 8C 03 DE 34 FF 57 07 3E 06 66 36 F5 F9 F8 76 60 4F EA ")
    (data "CF 5C C4 DE 40 00 94 BA 1D 99 DD 24 23 F3 F2 8F 81 B7 9C 72 56 46 66 0D 2D B3 9E 23 C8 B4 F8 2E ")
    (data "A0 3D 32 6D FC 3B 05 85 BB 54 5C 6C 2D 2D E7 9B 03 5F A1 F9 1B AA A8 CB 6C 80 4C AB DB 21 CA ED ")
    (data "CB CE CC C9 CA C8 8C D7 32 CB D9 8C D6 2F EA 21 BD 9C DC EF 49 5A F8 F7 13 CC E7 75 93 A1 53 13 ")
    (data "B1 4A AC 02 66 D7 B5 14 FB 06 5D 8D 2F 23 33 D6 16 8B 78 01 32 B3 1C 88 04 93 1F 03 A6 A1 F9 D2 ")
    (data "4C 8A DB 02 B7 22 C6 84 AD C8 6E A0 07 23 0D C6 8E E6 0B B9 8A A0 71 0F 64 6A 3B E8 90 6D 77 DC ")
    (data "01 7A 9F 6D 27 A1 D4 7E 4A C7 C5 0E 07 D6 1E B4 ED 8E C8 FB 9E 62 CE 1D 03 6E A1 A4 89 A3 3E 71 ")
    (data "B1 23 75 70 4E 2F 50 3C 82 8C 61 8E 5E B0 05 51 F6 B2 11 45 CC 19 F8 9B 22 3B 8D 12 AB D4 CB 40 ")
    (data "E0 A2 57 96 A0 E1 6A 53 E7 37 88 40 BE 41 84 5D 1C 43 80 71 07 6D DD F8 D5 AF F7 16 6A 69 A3 91 ")
    (data "A6 DE 6E 04 AD DA 00 1D 50 9C 6B 68 85 4E A5 C6 00 3D 55 46 E6 BB 91 08 25 9A 31 A4 35 A2 1C 3E ")
    (data "48 50 8B EF 70 54 EB 3E 4D 67 2C 44 8B C2 F6 28 A2 CD 0F 41 1A E1 61 44 51 EC 90 A5 F5 95 21 BB ")
    (data "9C 25 23 7E 95 A9 C8 BC 7D 3D A2 C0 BD 8F 34 42 1E F2 75 FE DD D0 2C AE A4 7D 81 98 F6 AB 21 4A ")
    (data "99 B3 19 D9 53 4E 81 42 A8 AD C6 64 B0 52 74 1D C7 E2 BC CC 1C 47 23 1A F3 DD 86 CF BB 91 AF A4 ")
    (data "BE 0D 8F F7 5B 5E 22 09 9D 42 84 F1 B2 A1 BF CD 12 93 7B 5B 44 18 36 F2 55 5C 4D D0 1A F0 0E 50 ")
    (data "7F C0 C2 95 84 8B 68 04 F2 1F A0 83 4E 4F 7B 14 F9 D4 9D E8 F6 EB 50 CA AC 11 D1 4F 02 F5 2E 4D ")
    (data "4E CA D0 E9 69 8B BA 24 27 8E 45 72 12 02 FC BE 8C 5D CE 1A 5F 94 94 70 67 87 84 F8 E1 04 FD 0A ")
    (data "CD 90 46 18 D0 C8 67 0D EA 94 98 30 DA 92 73 A1 58 65 8E D7 AB A9 0B 50 62 24 BD 8A A0 15 7A 30 ")
    (data "8D 8A 96 3D 3A F6 B9 F1 F6 E0 34 F0 07 16 02 D5 D9 73 70 A2 4E 4F 5B F4 BB D8 98 89 04 9D 5A 67 ")
    (data "95 91 A2 B6 33 5A DF D2 C4 E7 BB 0F 68 61 CB 0B E3 2C 69 9B D0 3C C6 37 52 A7 A7 2D 32 F5 3B 5A ")
    (data "FE 0D B3 F7 87 EF 08 8B 46 20 4B 9D 4F D0 1C 9D 45 F9 35 00 FA BE F9 4F 72 AE 69 8F 82 94 8F 8F ")
    (data "E5 9C 62 65 64 D6 5E 7E 2C B7 36 C1 3D D6 43 13 1B 65 01 FB 56 F4 EB C6 9A 9B BB 53 EC F3 76 2C ")
    (data "AD EF 7E 3F F0 2A 3E E9 DF 8D 98 50 53 FA 97 DB 8A D7 7F 39 B1 31 68 68 69 7E 3F 89 7C 95 4E 46 ")
    (data "A2 3A 88 16 FD 23 B0 63 DC EA FF 80 CF 42 41 B2 AA 5F E7 14 2B 23 B3 F6 96 42 7F 6D 82 EE 86 50 ")
    (data "B7 83 0D AC D5 43 7A F1 DD C0 9E C5 F9 74 84 FC F2 76 7F A0 B6 95 91 59 5B 89 E7 D3 71 1D A7 12 ")
    (data "01 A2 19 43 0A 42 7E 97 F0 8F CC 3B F8 33 F3 16 7E BE 96 D2 9E C6 F2 50 9E 2D DE 02 A8 A9 54 91 ")
    (data "1F B7 A0 A0 D0 A6 F8 02 50 71 FA BC 67 68 38 0D 33 02 20 16 C6 16 C2 1F 80 0B 10 FB 91 93 40 39 ")
    (data "13 AD F9 CB A6 AD A0 D4 6C 0D C1 10 95 E8 E0 38 F8 36 95 33 3D 8A 68 DF 2B 2F 34 AB 47 10 61 E4 ")
    (data "23 5B D6 39 46 BB 01 44 B6 F1 BD 06 D4 11 AD 63 31 0B 35 6B C5 C7 A9 9F CB 9E 15 BE 83 F4 DD 9D ")
    (data "11 5B D3 91 42 11 D2 9D C8 98 D4 8D E0 DA C7 D9 E6 78 19 41 61 3C 0E 7C 67 FE BF 88 C8 84 74 04 ")
    (data "99 6D 8E A2 EC DD 7B 76 96 71 AE 5C 78 21 10 E7 5B 6E 8A D6 C1 B4 39 4A 5D 44 64 02 C9 07 12 35 ")
    (data "9C 95 F6 FA 47 EB 53 1B D5 E7 B0 D6 09 A1 85 74 7A 1A 2A 23 F3 75 44 20 19 E6 F4 1A F6 1D 82 7A ")
    (data "B5 BF 40 BA B9 31 C8 E4 E1 18 F0 A9 19 1B D2 4D D9 CE 68 56 16 19 20 94 8A 23 32 81 6C 42 DC D2 ")
    (data "FB D1 7A 6E D1 59 67 FC D1 9A F4 86 E1 7B 1C BC D0 D4 1D 0F E3 5F 51 8A A2 3F 31 C9 47 02 C7 6C ")
    (data "3E EF ED 23 59 35 FE B2 69 2B BA FC 1D 3C 9D 86 70 F6 DE BD 47 8F B9 CD F1 2C 1E 44 A6 D4 B5 90 ")
    (data "70 9C 50 FA 8F 88 AF AE 88 CF 9B C3 E6 50 72 3B 3A FE F0 0C 94 6A 56 8C CE 7B 48 0C 1B ED 1B 37 ")
    (data "0C 9B A4 17 02 79 D2 1C 87 21 AF 5D 8E 39 86 C6 7D 95 0F 71 F1 3A 26 EE 56 C8 D4 56 23 9E B6 F2 ")
    (data "34 59 67 2F D4 6C E4 AD E5 F9 0B CE 83 92 79 57 16 74 4C 8C C7 98 FB 9F 36 E7 BA 18 9A C7 CC 31 ")
    (data "EC 2D 7D CC E2 A3 57 80 CF 91 2F 70 3B C1 E7 ED 81 74 63 2D 07 2F 5E 11 2E C9 88 04 72 00 E9 0F ")
    (data "43 7D EC D9 E6 BC A3 C4 2D 06 7A 1A 26 F3 91 BE FC 7D 24 8B C2 8E 62 F7 FB 11 0D BE 54 1F 6B 12 ")
    (data "8F CD 42 94 CE FF 20 63 C8 46 C4 E7 B1 13 E9 EF 83 09 D5 C5 94 F1 BC B9 B6 C2 11 D9 A0 B3 1B 81 ")
    (data "34 FC 0E C4 03 B8 7C 55 FF EE E8 91 37 60 CA B6 43 2C 08 39 48 5B AC 46 B4 F1 1F 10 07 15 48 E3 ")
    (data "EE 25 38 C6 94 C0 19 3E 8B 44 A5 CE 47 74 AD AD 88 5F E9 10 F0 1A A2 1B 6D D5 A3 C3 DF 90 E1 BF ")
    (data "1B 35 18 3E D3 33 B2 5B 00 00 00 00 49 45 4E 44 AE 42 60 82 ")
    )
  )
)
