EESchema Schematic File Version 4
EELAYER 30 0
EELAYER END
$Descr A4 11693 8268
encoding utf-8
Sheet 3 8
Title "M10SE01"
Date "2020-10-01"
Rev ""
Comp "M10CUBE"
Comment1 ""
Comment2 "GPS, LoRa, RS485"
Comment3 "Temperature, Humidity, Barometric"
Comment4 "Ambient Light, UV Light, VOC, Sound"
$EndDescr
Wire Wire Line
	6500 2750 6300 2750
Wire Wire Line
	6500 2850 6300 2850
$Comp
L Connector:RJ45_LED_Shielded J?
U 1 1 5F0BCA51
P 6900 3050
AR Path="/5EE02BE5/5F0BCA51" Ref="J?"  Part="1" 
AR Path="/5EEB7824/5F0BCA51" Ref="J?"  Part="1" 
AR Path="/5F0C03C5/5F0BCA51" Ref="J4"  Part="1" 
F 0 "J4" H 7075 2450 59  0000 L BNN
F 1 "RJ45" H 6650 2450 59  0000 L BNN
F 2 "Connector_RJ:RJ45_Amphenol_RJHSE538X" H 6900 3050 50  0001 C CNN
F 3 "" H 6900 3050 50  0001 C CNN
	1    6900 3050
	-1   0    0    1   
$EndComp
$Comp
L Connector:RJ45_LED_Shielded J?
U 1 1 5F0BDAE0
P 6925 4575
AR Path="/5EE02BE5/5F0BDAE0" Ref="J?"  Part="1" 
AR Path="/5EEB7824/5F0BDAE0" Ref="J?"  Part="1" 
AR Path="/5F0C03C5/5F0BDAE0" Ref="J5"  Part="1" 
F 0 "J5" H 7075 3975 59  0000 L BNN
F 1 "RJ45" H 6675 3975 59  0000 L BNN
F 2 "Connector_RJ:RJ45_Amphenol_RJHSE538X" H 6925 4575 50  0001 C CNN
F 3 "" H 6925 4575 50  0001 C CNN
	1    6925 4575
	-1   0    0    1   
$EndComp
$Comp
L power:+5V #PWR029
U 1 1 5F0D01E6
P 6500 3450
F 0 "#PWR029" H 6500 3300 50  0001 C CNN
F 1 "+5V" V 6515 3578 50  0000 L CNN
F 2 "" H 6500 3450 50  0001 C CNN
F 3 "" H 6500 3450 50  0001 C CNN
	1    6500 3450
	0    -1   -1   0   
$EndComp
Wire Wire Line
	6525 4275 6325 4275
Wire Wire Line
	6525 4375 6325 4375
$Comp
L power:+5V #PWR030
U 1 1 5F0F13C6
P 6525 4975
F 0 "#PWR030" H 6525 4825 50  0001 C CNN
F 1 "+5V" V 6540 5103 50  0000 L CNN
F 2 "" H 6525 4975 50  0001 C CNN
F 3 "" H 6525 4975 50  0001 C CNN
	1    6525 4975
	0    -1   -1   0   
$EndComp
$Comp
L Device:C C6
U 1 1 5F15C933
P 2950 3250
F 0 "C6" H 3065 3296 50  0000 L CNN
F 1 "100nF" H 3065 3205 50  0000 L CNN
F 2 "Capacitor_SMD:C_0805_2012Metric_Pad1.15x1.40mm_HandSolder" H 2988 3100 50  0001 C CNN
F 3 "~" H 2950 3250 50  0001 C CNN
	1    2950 3250
	1    0    0    -1  
$EndComp
$Comp
L power:GND #PWR022
U 1 1 5F15C939
P 2950 3400
F 0 "#PWR022" H 2950 3150 50  0001 C CNN
F 1 "GND" H 2955 3227 50  0000 C CNN
F 2 "" H 2950 3400 50  0001 C CNN
F 3 "" H 2950 3400 50  0001 C CNN
	1    2950 3400
	1    0    0    -1  
$EndComp
Wire Wire Line
	4000 3200 4000 3100
Wire Wire Line
	2950 3100 4000 3100
Connection ~ 4000 3100
Wire Wire Line
	4000 3100 4000 3000
$Comp
L Interface_UART:SP3485CN U2
U 1 1 5F2154B0
P 4000 3600
F 0 "U2" H 4175 4075 50  0000 C CNN
F 1 "SP3485CN" H 4250 3975 50  0000 C CNN
F 2 "Package_SO:SOP-8_3.9x4.9mm_P1.27mm" H 5050 3250 50  0001 C CIN
F 3 "http://www.icbase.com/pdf/SPX/SPX00480106.pdf" H 4000 3600 50  0001 C CNN
	1    4000 3600
	1    0    0    -1  
$EndComp
Wire Wire Line
	3600 3500 3600 3700
$Comp
L power:GND #PWR027
U 1 1 5F6E034B
P 5675 2950
F 0 "#PWR027" H 5675 2700 50  0001 C CNN
F 1 "GND" H 5680 2777 50  0000 C CNN
F 2 "" H 5675 2950 50  0001 C CNN
F 3 "" H 5675 2950 50  0001 C CNN
	1    5675 2950
	0    1    1    0   
$EndComp
$Comp
L power:GND #PWR028
U 1 1 5F6E0DD3
P 5700 4475
F 0 "#PWR028" H 5700 4225 50  0001 C CNN
F 1 "GND" H 5705 4302 50  0000 C CNN
F 2 "" H 5700 4475 50  0001 C CNN
F 3 "" H 5700 4475 50  0001 C CNN
	1    5700 4475
	0    1    1    0   
$EndComp
Wire Wire Line
	5675 2950 6500 2950
Wire Wire Line
	5700 4475 6525 4475
$Comp
L power:GND #PWR024
U 1 1 5F0B9244
P 4000 4000
F 0 "#PWR024" H 4000 3750 50  0001 C CNN
F 1 "GND" H 4005 3827 50  0000 C CNN
F 2 "" H 4000 4000 50  0001 C CNN
F 3 "" H 4000 4000 50  0001 C CNN
	1    4000 4000
	1    0    0    -1  
$EndComp
Text HLabel 3600 3400 0    50   Input ~ 0
R0_RS485
Text HLabel 3600 3500 0    50   Input ~ 0
RE_RS485
Text HLabel 3600 3800 0    50   Input ~ 0
D1_RS485
NoConn ~ 6500 3050
NoConn ~ 6500 3150
NoConn ~ 6500 3250
NoConn ~ 6500 3350
NoConn ~ 6525 4575
NoConn ~ 6525 4675
NoConn ~ 6525 4775
NoConn ~ 6525 4875
NoConn ~ 7300 2750
NoConn ~ 7300 2850
NoConn ~ 7300 3350
NoConn ~ 7300 3450
NoConn ~ 7325 4275
NoConn ~ 7325 4375
NoConn ~ 7325 4875
NoConn ~ 7325 4975
Text Label 4400 3500 0    50   ~ 0
TXD_RXD-
Text Label 4400 3700 0    50   ~ 0
TXD_RXD+
Text Label 6300 2750 2    50   ~ 0
TXD_RXD+
Text Label 6300 2850 2    50   ~ 0
TXD_RXD-
Text Label 6325 4275 2    50   ~ 0
TXD_RXD+
Text Label 6325 4375 2    50   ~ 0
TXD_RXD-
$Comp
L power:+3.3V #PWR023
U 1 1 5F55F7C7
P 4000 3000
F 0 "#PWR023" H 4000 2850 50  0001 C CNN
F 1 "+3.3V" H 4015 3173 50  0000 C CNN
F 2 "" H 4000 3000 50  0001 C CNN
F 3 "" H 4000 3000 50  0001 C CNN
	1    4000 3000
	1    0    0    -1  
$EndComp
$Comp
L Device:R R12
U 1 1 5F57E405
P 4850 5175
F 0 "R12" H 4920 5221 50  0000 L CNN
F 1 "R120" H 4920 5130 50  0000 L CNN
F 2 "Resistor_SMD:R_0805_2012Metric_Pad1.15x1.40mm_HandSolder" V 4780 5175 50  0001 C CNN
F 3 "~" H 4850 5175 50  0001 C CNN
	1    4850 5175
	1    0    0    -1  
$EndComp
$Comp
L Device:R R11
U 1 1 5F57F01F
P 4850 4875
F 0 "R11" H 4920 4921 50  0000 L CNN
F 1 "R680" H 4920 4830 50  0000 L CNN
F 2 "Resistor_SMD:R_0805_2012Metric_Pad1.15x1.40mm_HandSolder" V 4780 4875 50  0001 C CNN
F 3 "~" H 4850 4875 50  0001 C CNN
	1    4850 4875
	1    0    0    -1  
$EndComp
$Comp
L Device:R R13
U 1 1 5F57F802
P 4850 5475
F 0 "R13" H 4920 5521 50  0000 L CNN
F 1 "R680" H 4920 5430 50  0000 L CNN
F 2 "Resistor_SMD:R_0805_2012Metric_Pad1.15x1.40mm_HandSolder" V 4780 5475 50  0001 C CNN
F 3 "~" H 4850 5475 50  0001 C CNN
	1    4850 5475
	1    0    0    -1  
$EndComp
Wire Wire Line
	4850 5025 4450 5025
Connection ~ 4850 5025
Wire Wire Line
	4850 5325 4450 5325
Connection ~ 4850 5325
Text Label 4450 5025 0    50   ~ 0
TXD_RXD-
Text Label 4450 5325 0    50   ~ 0
TXD_RXD+
$Comp
L power:GND #PWR026
U 1 1 5F5835FA
P 4850 5625
F 0 "#PWR026" H 4850 5375 50  0001 C CNN
F 1 "GND" H 4855 5452 50  0000 C CNN
F 2 "" H 4850 5625 50  0001 C CNN
F 3 "" H 4850 5625 50  0001 C CNN
	1    4850 5625
	1    0    0    -1  
$EndComp
$Comp
L power:+5V #PWR025
U 1 1 5F5843A1
P 4850 4725
F 0 "#PWR025" H 4850 4575 50  0001 C CNN
F 1 "+5V" V 4865 4853 50  0000 L CNN
F 2 "" H 4850 4725 50  0001 C CNN
F 3 "" H 4850 4725 50  0001 C CNN
	1    4850 4725
	1    0    0    -1  
$EndComp
$Comp
L power:GND #PWR031
U 1 1 5F63171B
P 6900 2350
F 0 "#PWR031" H 6900 2100 50  0001 C CNN
F 1 "GND" H 6905 2177 50  0000 C CNN
F 2 "" H 6900 2350 50  0001 C CNN
F 3 "" H 6900 2350 50  0001 C CNN
	1    6900 2350
	-1   0    0    1   
$EndComp
$Comp
L power:GND #PWR032
U 1 1 5F631FB8
P 6925 3875
F 0 "#PWR032" H 6925 3625 50  0001 C CNN
F 1 "GND" H 6930 3702 50  0000 C CNN
F 2 "" H 6925 3875 50  0001 C CNN
F 3 "" H 6925 3875 50  0001 C CNN
	1    6925 3875
	-1   0    0    1   
$EndComp
Wire Wire Line
	6900 2350 6900 2550
Wire Wire Line
	6925 3875 6925 4075
$EndSCHEMATC
