Ref,Val,Package,PosX,PosY,Rot,Side
"C1","100nF","C_0805_2012Metric_Pad1.18x1.45mm_HandSolder",-49.720000,-14.060000,180.000000,bottom
"C3","100n","C_0805_2012Metric_Pad1.18x1.45mm_HandSolder",-45.000000,-21.650000,180.000000,bottom
"C4","100nF","C_0805_2012Metric_Pad1.18x1.45mm_HandSolder",-45.000000,-32.650000,0.000000,bottom
"C5","10µF","CP_EIA-3216-18_Kemet-A_Pad1.58x1.35mm_HandSolder",-45.025000,-35.400000,0.000000,bottom
"C6","10µF","CP_EIA-3216-18_Kemet-A_Pad1.58x1.35mm_HandSolder",-44.975000,-18.900000,180.000000,bottom
"C7","100n","C_0805_2012Metric_Pad1.18x1.45mm_HandSolder",-55.770000,-42.800000,-90.000000,bottom
"C9","100nF","C_0805_2012Metric_Pad1.18x1.45mm_HandSolder",-52.075000,-56.225000,90.000000,bottom
"FID1","Fiducial","Fiducial_1mm_Mask2mm",-11.490000,-85.800000,180.000000,bottom
"FID2","Fiducial","Fiducial_1mm_Mask2mm",-11.190000,-3.870000,180.000000,bottom
"FID3","Fiducial","Fiducial_1mm_Mask2mm",-77.430000,-4.000000,180.000000,bottom
"J1","40HAT","PinSocket_2x20_P2.54mm_Vertical",-20.870000,-5.270000,-90.000000,bottom
"Q1","DMG2305UX-7","SOT-23",-51.620000,-17.050000,180.000000,bottom
"Q2","2N7002","SOT-23",-45.000000,-83.000000,0.000000,bottom
"R1","3.9K","R_0805_2012Metric_Pad1.20x1.40mm_HandSolder",-55.510000,-10.110000,180.000000,bottom
"R2","3.9K","R_0805_2012Metric_Pad1.20x1.40mm_HandSolder",-55.510000,-8.150000,180.000000,bottom
"R3","10K","R_0805_2012Metric_Pad1.20x1.40mm_HandSolder",-55.510000,-12.060000,180.000000,bottom
"R4","10K","R_0805_2012Metric_Pad1.20x1.40mm_HandSolder",-55.770000,-39.000000,-90.000000,bottom
"R5","560","R_0805_2012Metric_Pad1.20x1.40mm_HandSolder",-79.950000,-4.020000,-90.000000,bottom
"R6","1K","R_0805_2012Metric_Pad1.20x1.40mm_HandSolder",-42.050000,-83.010000,-90.000000,bottom
"R7","1K","R_0805_2012Metric_Pad1.20x1.40mm_HandSolder",-47.936480,-83.000000,90.000000,bottom
"R10","100","R_0805_2012Metric_Pad1.20x1.40mm_HandSolder",-58.970000,-81.500000,90.000000,bottom
"R11","100","R_0805_2012Metric_Pad1.20x1.40mm_HandSolder",-61.510000,-81.500000,90.000000,bottom
"R12","100","R_0805_2012Metric_Pad1.20x1.40mm_HandSolder",-64.050000,-81.500000,90.000000,bottom
"R13","100","R_0805_2012Metric_Pad1.20x1.40mm_HandSolder",-66.590000,-81.500000,90.000000,bottom
"R14","100","R_0805_2012Metric_Pad1.20x1.40mm_HandSolder",-69.130000,-81.500000,90.000000,bottom
"R15","100","R_0805_2012Metric_Pad1.20x1.40mm_HandSolder",-71.670000,-81.500000,90.000000,bottom
"R16","100","R_0805_2012Metric_Pad1.20x1.40mm_HandSolder",-74.210000,-81.500000,90.000000,bottom
"R17","100","R_0805_2012Metric_Pad1.20x1.40mm_HandSolder",-76.750000,-81.500000,90.000000,bottom
"R18","1M","R_0805_2012Metric_Pad1.20x1.40mm_HandSolder",-5.880000,-78.840000,-90.000000,bottom
"U1","24LC32A","SOIC-8_3.9x4.9mm_P1.27mm",-49.800000,-10.130000,0.000000,bottom
"U2","TS1117-3.3","SOT-223-3_TabPin2",-45.000000,-27.150000,-90.000000,bottom
"U3","ULN2803A","SOIC-18W_7.5x11.6mm_P1.27mm",-45.000000,-52.637000,-90.000000,bottom
