Ref,Val,Package,PosX,PosY,Rot,Side
"BZ1","PKLCS1212","Buzzer_Murata_PKLCS1212E",45.000000,-83.000000,0.000000,top
"C2","C_Polarized","CP_Elec_4x5.8",10.280000,-5.140000,-90.000000,top
"C8","100nF","C_0805_2012Metric_Pad1.18x1.45mm_HandSolder",58.020000,-19.980000,-90.000000,top
"C10","47µ / 35V","CP_Elec_6.3x7.7",25.400000,-74.450000,90.000000,top
"D1","LED","LED_0805_2012Metric_Pad1.15x1.40mm_HandSolder",79.950000,-4.010000,-90.000000,top
"D2","B340","D_SMC",18.270000,-74.450000,90.000000,top
"F1","2A","TE5",12.610000,-73.960000,90.000000,top
"J2","Conn_01x02","JST_PH_B2B-PH-K_1x02_P2.00mm_Vertical",65.500000,-71.850000,0.000000,top
"J3","Wiznet EVB Pico","Wiznet-EVB-Pico_dual_SMD",45.000000,-40.500000,0.000000,top
"J4","DEBUG","PinSocket_1x03_P2.54mm_Vertical",47.530000,-69.420000,-90.000000,top
"J5","UART Debug","JST_PH_B4B-PH-K_1x04_P2.00mm_Vertical",30.010000,-86.480000,180.000000,top
"J6","PWR2","JST_EH_B2B-EH-A_1x02_P2.50mm_Vertical",8.180000,-72.590000,-90.000000,top
"J7","PWR1","PhoenixContact_MC_1,5_4-G-3.81_1x04_P3.81mm_Horizontal",3.000000,-61.000000,-90.000000,top
"J8","Conn_01x08","PhoenixContact_MSTBA_2,5_8-G-5,08_1x08_P5.08mm_Horizontal",5.000000,-17.940000,-90.000000,top
"J9","Conn_01x08","PhoenixContact_MSTBA_2,5_8-G-5,08_1x08_P5.08mm_Horizontal",85.000000,-53.500000,90.000000,top
"JP1","CONN_01X02","PinHeader_1x02_P2.54mm_Vertical",44.425000,-11.455000,180.000000,top
"JP4","SPI0_JMP","PinHeader_2x06_P2.54mm_Vertical",41.451480,-8.887000,-90.000000,top
"JP5","Conn_01x05_Male","PinHeader_1x03_P2.54mm_Vertical",30.975000,-76.975000,180.000000,top
"JP6","Conn_01x02","PinHeader_1x02_P2.54mm_Vertical",3.030000,-77.620000,0.000000,top
"K1","SRA-12VDC-CL","SRA24VDC-A",18.160000,-62.235000,180.000000,top
"K2","SRA-12VDC-CL","SRA24VDC-A",18.160000,-47.928334,180.000000,top
"K3","SRA-12VDC-CL","SRA24VDC-A",18.160000,-33.636668,180.000000,top
"K4","SRA-12VDC-CL","SRA24VDC-A",18.160000,-19.335000,180.000000,top
"K5","SRA-12VDC-CL","SRA24VDC-A",71.840000,-19.370000,0.000000,top
"K6","SRA-12VDC-CL","SRA24VDC-A",71.840000,-33.670000,0.000000,top
"K7","SRA-12VDC-CL","SRA24VDC-A",71.840000,-47.970000,0.000000,top
"K8","SRA-12VDC-CL","SRA24VDC-A",71.840000,-62.270000,0.000000,top
"L1","LED","LED_Rectangular_W3.0mm_H2.0mm",58.970000,-84.730000,-90.000000,top
"L2","LED","LED_Rectangular_W3.0mm_H2.0mm",61.510000,-84.730000,-90.000000,top
"L3","LED","LED_Rectangular_W3.0mm_H2.0mm",64.050000,-84.730000,-90.000000,top
"L4","LED","LED_Rectangular_W3.0mm_H2.0mm",66.590000,-84.730000,-90.000000,top
"L5","LED","LED_Rectangular_W3.0mm_H2.0mm",69.130000,-84.730000,-90.000000,top
"L6","LED","LED_Rectangular_W3.0mm_H2.0mm",71.670000,-84.730000,-90.000000,top
"L7","LED","LED_Rectangular_W3.0mm_H2.0mm",74.210000,-84.730000,-90.000000,top
"L8","LED","LED_Rectangular_W3.0mm_H2.0mm",76.750000,-84.730000,-90.000000,top
"LOG1","OSHWGR","OSHW_LOGO",82.060000,-74.740000,0.000000,top
"R8","2.7K","R_0805_2012Metric_Pad1.20x1.40mm_HandSolder",24.225000,-9.925000,180.000000,top
"R9","2.7K","R_0805_2012Metric_Pad1.20x1.40mm_HandSolder",24.225000,-7.975000,180.000000,top
"SW1","SW_Push","SW_DIP_SPSTx01_Slide_6.7x4.1mm_W8.61mm_P2.54mm_LowProfile",66.475000,-77.750000,0.000000,top
