(module MountingHole:MountingHole_3.5mm_Pad_Via locked (layer F.Cu) (tedit 56DDBDB4)
  (descr "Mounting Hole 3.5mm")
  (tags "mounting hole 3.5mm")
  (attr virtual)
  (fp_text reference H4 (at 0 -4.5) (layer F.SilkS) hide
    (effects (font (size 1 1) (thickness 0.15)))
  )
  (fp_text value MountingHole (at 0 4.5) (layer F.Fab) hide
    (effects (font (size 1 1) (thickness 0.15)))
  )
  (fp_text user %R (at 0.3 0) (layer F.Fab) hide
    (effects (font (size 1 1) (thickness 0.15)))
  )
  (fp_circle (center 0 0) (end 3.75 0) (layer F.CrtYd) (width 0.05))
  (fp_circle (center 0 0) (end 3.5 0) (layer Cmts.User) (width 0.15))
  (pad 1 thru_hole circle (at 0 0) (size 7 7) (drill 3.5) (layers *.Cu *.Mask))
  (pad 1 thru_hole circle (at 2.625 0) (size 0.8 0.8) (drill 0.5) (layers *.Cu *.Mask))
  (pad 1 thru_hole circle (at 1.856155 1.856155) (size 0.8 0.8) (drill 0.5) (layers *.Cu *.Mask))
  (pad 1 thru_hole circle (at 0 2.625) (size 0.8 0.8) (drill 0.5) (layers *.Cu *.Mask))
  (pad 1 thru_hole circle (at -1.856155 1.856155) (size 0.8 0.8) (drill 0.5) (layers *.Cu *.Mask))
  (pad 1 thru_hole circle (at -2.625 0) (size 0.8 0.8) (drill 0.5) (layers *.Cu *.Mask))
  (pad 1 thru_hole circle (at -1.856155 -1.856155) (size 0.8 0.8) (drill 0.5) (layers *.Cu *.Mask))
  (pad 1 thru_hole circle (at 0 -2.625) (size 0.8 0.8) (drill 0.5) (layers *.Cu *.Mask))
  (pad 1 thru_hole circle (at 1.856155 -1.856155) (size 0.8 0.8) (drill 0.5) (layers *.Cu *.Mask))
)
