(module Relais-Modul_a:RES_ARRAY (layer F.Cu) (tedit 0)
  (fp_text reference RA1 (at -3.2512 -0.2032) (layer F.SilkS)
    (effects (font (size 0.57912 0.57912) (thickness 0.046329)) (justify left bottom))
  )
  (fp_text value 10k (at -3.2004 0.7112) (layer F.Fab)
    (effects (font (size 0.57912 0.57912) (thickness 0.046329)) (justify left bottom))
  )
  (fp_line (start -1.6 0.787) (end 1.6 0.787) (layer F.Fab) (width 0.1524))
  (fp_line (start 1.6 0.8) (end 1.6 -0.8) (layer F.SilkS) (width 0.127))
  (fp_line (start 1.6 -0.787) (end -1.6 -0.787) (layer F.Fab) (width 0.1524))
  (fp_line (start -1.6 -0.8) (end -1.6 0.8) (layer F.SilkS) (width 0.127))
  (pad 1 smd rect (at -1.2 0.9) (size 0.5 0.8) (layers F.Cu F.Paste F.Mask)
    (solder_mask_margin 0.0508))
  (pad 2 smd rect (at -0.4 0.9) (size 0.5 0.8) (layers F.Cu F.Paste F.Mask)
    (solder_mask_margin 0.0508))
  (pad 3 smd rect (at 0.4 0.9) (size 0.5 0.8) (layers F.Cu F.Paste F.Mask)
    (solder_mask_margin 0.0508))
  (pad 4 smd rect (at 1.2 0.9) (size 0.5 0.8) (layers F.Cu F.Paste F.Mask)
    (solder_mask_margin 0.0508))
  (pad 5 smd rect (at 1.2 -0.9) (size 0.5 0.8) (layers F.Cu F.Paste F.Mask)
    (solder_mask_margin 0.0508))
  (pad 6 smd rect (at 0.4 -0.9) (size 0.5 0.8) (layers F.Cu F.Paste F.Mask)
    (solder_mask_margin 0.0508))
  (pad 7 smd rect (at -0.4 -0.9) (size 0.5 0.8) (layers F.Cu F.Paste F.Mask)
    (solder_mask_margin 0.0508))
  (pad 8 smd rect (at -1.2 -0.9) (size 0.5 0.8) (layers F.Cu F.Paste F.Mask)
    (solder_mask_margin 0.0508))
)
