(module Relais-Modul_a:TE5 (layer F.Cu) (tedit 0)
  (descr "<b>FUSE</b><p>\nWickmann")
  (fp_text reference F1 (at -5.0292 1.0414 90) (layer F.SilkS)
    (effects (font (size 0.57912 0.57912) (thickness 0.057912)) (justify left bottom))
  )
  (fp_text value 2A (at -5.0038 -0.6096 90) (layer F.Fab)
    (effects (font (size 0.57912 0.57912) (thickness 0.057912)) (justify left bottom))
  )
  (fp_arc (start 3.683 -1.397) (end 3.683 -2.032) (angle 90) (layer F.SilkS) (width 0.1524))
  (fp_arc (start 3.683 1.397) (end 3.683 2.032) (angle -90) (layer F.SilkS) (width 0.1524))
  (fp_arc (start -3.683 1.397) (end -4.318 1.397) (angle -90) (layer F.SilkS) (width 0.1524))
  (fp_arc (start -3.683 -1.397) (end -4.318 -1.397) (angle 90) (layer F.SilkS) (width 0.1524))
  (fp_line (start 3.683 -2.032) (end -3.683 -2.032) (layer F.SilkS) (width 0.1524))
  (fp_line (start -4.318 -1.397) (end -4.318 1.397) (layer F.SilkS) (width 0.1524))
  (fp_line (start -3.683 2.032) (end 3.683 2.032) (layer F.SilkS) (width 0.1524))
  (fp_line (start 4.318 1.397) (end 4.318 -1.397) (layer F.SilkS) (width 0.1524))
  (fp_line (start -2.159 0) (end 2.159 0) (layer F.Fab) (width 0.1524))
  (fp_line (start -1.27 -0.381) (end -1.27 0.381) (layer F.Fab) (width 0.1524))
  (fp_line (start -1.27 0.381) (end 1.27 0.381) (layer F.Fab) (width 0.1524))
  (fp_line (start 1.27 -0.381) (end 1.27 0.381) (layer F.Fab) (width 0.1524))
  (fp_line (start 1.27 -0.381) (end -1.27 -0.381) (layer F.Fab) (width 0.1524))
  (pad 1 thru_hole oval (at -2.54 0 90) (size 3.048 1.524) (drill 1.016) (layers *.Cu *.Mask)
    (solder_mask_margin 0.0508))
  (pad 2 thru_hole oval (at 2.54 0 90) (size 3.048 1.524) (drill 1.016) (layers *.Cu *.Mask)
    (solder_mask_margin 0.0508))
  (model "${CUSTOM}/kicad-packages3D/Fuse.3dshapes/litlefuse-radial-lead-fuses-te5-1.snapshot.4/Fuse 508 v1.step"
    (at (xyz 0 0 0))
    (scale (xyz 1 1 1))
    (rotate (xyz 0 0 0))
  )
)
