G04 #@! TF.GenerationSoftware,KiCad,Pcbnew,5.1.6-c6e7f7d~87~ubuntu20.04.1*
G04 #@! TF.CreationDate,2020-09-30T18:30:16+03:00*
G04 #@! TF.ProjectId,M10PR01-01,4d313050-5230-4312-9d30-312e6b696361,01*
G04 #@! TF.SameCoordinates,Original*
G04 #@! TF.FileFunction,Copper,L2,Bot*
G04 #@! TF.FilePolarity,Positive*
%FSLAX46Y46*%
G04 Gerber Fmt 4.6, Leading zero omitted, Abs format (unit mm)*
G04 Created by KiCad (PCBNEW 5.1.6-c6e7f7d~87~ubuntu20.04.1) date 2020-09-30 18:30:16*
%MOMM*%
%LPD*%
G01*
G04 APERTURE LIST*
G04 #@! TA.AperFunction,ComponentPad*
%ADD10R,1.700000X1.700000*%
G04 #@! TD*
G04 #@! TA.AperFunction,ComponentPad*
%ADD11O,1.700000X1.700000*%
G04 #@! TD*
G04 #@! TA.AperFunction,ComponentPad*
%ADD12C,0.800000*%
G04 #@! TD*
G04 #@! TA.AperFunction,ComponentPad*
%ADD13C,7.000000*%
G04 #@! TD*
G04 APERTURE END LIST*
D10*
X65703300Y-45913700D03*
D11*
X65703300Y-43373700D03*
X68243300Y-45913700D03*
X68243300Y-43373700D03*
X70783300Y-45913700D03*
X70783300Y-43373700D03*
X73323300Y-45913700D03*
X73323300Y-43373700D03*
X75863300Y-45913700D03*
X75863300Y-43373700D03*
X78403300Y-45913700D03*
X78403300Y-43373700D03*
X80943300Y-45913700D03*
X80943300Y-43373700D03*
X83483300Y-45913700D03*
X83483300Y-43373700D03*
X86023300Y-45913700D03*
X86023300Y-43373700D03*
X88563300Y-45913700D03*
X88563300Y-43373700D03*
X91103300Y-45913700D03*
X91103300Y-43373700D03*
X93643300Y-45913700D03*
X93643300Y-43373700D03*
X96183300Y-45913700D03*
X96183300Y-43373700D03*
X98723300Y-45913700D03*
X98723300Y-43373700D03*
X101263300Y-45913700D03*
X101263300Y-43373700D03*
X103803300Y-45913700D03*
X103803300Y-43373700D03*
X106343300Y-45913700D03*
X106343300Y-43373700D03*
X108883300Y-45913700D03*
X108883300Y-43373700D03*
X111423300Y-45913700D03*
X111423300Y-43373700D03*
X113963300Y-45913700D03*
X113963300Y-43373700D03*
D12*
X50200955Y-41710845D03*
X48344800Y-40942000D03*
X46488645Y-41710845D03*
X45719800Y-43567000D03*
X46488645Y-45423155D03*
X48344800Y-46192000D03*
X50200955Y-45423155D03*
X50969800Y-43567000D03*
D13*
X48344800Y-43567000D03*
X131326600Y-43567000D03*
D12*
X133951600Y-43567000D03*
X133182755Y-45423155D03*
X131326600Y-46192000D03*
X129470445Y-45423155D03*
X128701600Y-43567000D03*
X129470445Y-41710845D03*
X131326600Y-40942000D03*
X133182755Y-41710845D03*
X133208155Y-124718045D03*
X131352000Y-123949200D03*
X129495845Y-124718045D03*
X128727000Y-126574200D03*
X129495845Y-128430355D03*
X131352000Y-129199200D03*
X133208155Y-128430355D03*
X133977000Y-126574200D03*
D13*
X131352000Y-126574200D03*
X48344800Y-126548800D03*
D12*
X50969800Y-126548800D03*
X50200955Y-128404955D03*
X48344800Y-129173800D03*
X46488645Y-128404955D03*
X45719800Y-126548800D03*
X46488645Y-124692645D03*
X48344800Y-123923800D03*
X50200955Y-124692645D03*
M02*
