EESchema Schematic File Version 4
EELAYER 30 0
EELAYER END
$Descr A4 11693 8268
encoding utf-8
Sheet 6 8
Title "M10SE02"
Date "2020-10-18"
Rev ""
Comp "M10CUBE"
Comment1 ""
Comment2 "GPS, LoRa, I2C EXTENDER"
Comment3 "Temperature, Humidity, Barometric"
Comment4 "Ambient Light, UV Light, VOC, Sound"
$EndDescr
$Comp
L GPS_UBLOX:U-BLOX-NEO6V2 GPSMODULE1
U 1 1 5F214330
P 6550 3900
F 0 "GPSMODULE1" H 7350 5400 50  0000 C CNN
F 1 "U-BLOX-NEO6V2" H 7350 5500 50  0000 C CNN
F 2 "GPS_UBLOX:U-BLOX-NEO6V2" H 6550 3900 50  0001 C CNN
F 3 "" H 6550 3900 50  0001 C CNN
	1    6550 3900
	1    0    0    -1  
$EndComp
Text HLabel 6350 3100 0    50   Input ~ 0
TX_GPS
Text HLabel 6350 3400 0    50   Input ~ 0
RX_GPS
$Comp
L power:+3.3V #PWR?
U 1 1 5F57A7BE
P 6350 3700
AR Path="/5F57A7BE" Ref="#PWR?"  Part="1" 
AR Path="/5F0E9E55/5F57A7BE" Ref="#PWR?"  Part="1" 
AR Path="/5F20557D/5F57A7BE" Ref="#PWR062"  Part="1" 
F 0 "#PWR062" H 6350 3550 50  0001 C CNN
F 1 "+3.3V" V 6365 3828 50  0000 L CNN
F 2 "" H 6350 3700 50  0001 C CNN
F 3 "" H 6350 3700 50  0001 C CNN
	1    6350 3700
	0    -1   -1   0   
$EndComp
NoConn ~ 8450 1400
$Comp
L power:GND #PWR061
U 1 1 5F57994B
P 5725 2775
F 0 "#PWR061" H 5725 2525 50  0001 C CNN
F 1 "GND" H 5730 2602 50  0000 C CNN
F 2 "" H 5725 2775 50  0001 C CNN
F 3 "" H 5725 2775 50  0001 C CNN
	1    5725 2775
	0    1    1    0   
$EndComp
Text Label 5725 2775 0    50   ~ 0
GND
Text Label 6350 2800 2    50   ~ 0
GND
$EndSCHEMATC
