M48
; DRILL file {KiCad 5.1.6-c6e7f7d~87~ubuntu20.04.1} date Thu Oct  1 21:27:18 2020
; FORMAT={-:-/ absolute / inch / decimal}
; #@! TF.CreationDate,2020-10-01T21:27:18+03:00
; #@! TF.GenerationSoftware,Kicad,Pcbnew,5.1.6-c6e7f7d~87~ubuntu20.04.1
; #@! TF.FileFunction,Plated,1,2,PTH
FMAT,2
INCH
T1C0.0197
T2C0.0394
T3C0.1378
%
G90
G05
T1
X4.506Y-4.6056
X4.5363Y-4.5325
X4.5363Y-4.6787
X4.6094Y-4.5023
X4.6094Y-4.709
X4.6825Y-4.5325
X4.6825Y-4.6787
X4.7127Y-4.6056
X4.505Y-1.3376
X4.5353Y-1.2645
X4.5353Y-1.4107
X4.6084Y-1.2343
X4.6084Y-1.441
X4.6815Y-1.2645
X4.6815Y-1.4107
X4.7117Y-1.3376
X1.238Y-1.3376
X1.2683Y-1.2645
X1.2683Y-1.4107
X1.3414Y-1.2343
X1.3414Y-1.441
X1.4145Y-1.2645
X1.4145Y-1.4107
X1.4447Y-1.3376
X1.238Y-4.6046
X1.2683Y-4.5315
X1.2683Y-4.6777
X1.3414Y-4.5013
X1.3414Y-4.708
X1.4145Y-4.5315
X1.4145Y-4.6777
X1.4447Y-4.6046
T2
X4.575Y-2.7
X4.375Y-4.2
X2.475Y-3.9
X3.475Y-2.2
X1.675Y-2.1
X3.675Y-3.6
X3.175Y-2.6
X4.075Y-1.7
X2.275Y-2.2
X3.875Y-3.0
X1.375Y-4.0
X1.575Y-2.9
X2.475Y-1.8
X1.975Y-4.0
X4.075Y-3.1
X2.375Y-4.4
X2.775Y-3.1
X4.575Y-2.8
X2.275Y-1.8
X3.675Y-3.4
X3.575Y-3.7
X3.075Y-3.1
X4.475Y-3.6
X2.775Y-4.0
X3.575Y-2.3
X4.475Y-2.9
X4.275Y-4.4
X2.775Y-3.3
X2.775Y-2.3
X3.275Y-4.3
X4.175Y-4.0
X3.775Y-2.2
X2.075Y-3.3
X1.475Y-1.9
X3.175Y-2.8
X3.975Y-4.1
X3.675Y-2.9
X4.575Y-2.2
X3.075Y-3.7
X2.975Y-2.2
X1.475Y-3.3
X2.275Y-3.7
X4.475Y-3.1
X1.775Y-2.2
X2.375Y-3.5
X2.675Y-1.7
X4.075Y-1.8
X3.975Y-2.6
X2.875Y-3.3
X2.275Y-2.5
X3.375Y-2.1
X3.175Y-3.3
X3.875Y-4.0
X3.775Y-2.1
X1.975Y-2.3
X4.575Y-4.4
X2.975Y-1.7
X2.875Y-2.7
X2.975Y-2.3
X1.775Y-1.9
X1.475Y-2.6
X2.275Y-4.3
X4.275Y-3.9
X1.975Y-3.1
X3.375Y-3.1
X3.775Y-2.9
X2.075Y-3.0
X2.675Y-2.0
X3.175Y-4.1
X2.775Y-2.6
X2.975Y-3.5
X1.775Y-2.7
X3.975Y-3.3
X1.875Y-4.1
X2.075Y-2.0
X3.275Y-2.8
X1.475Y-4.1
X1.975Y-3.3
X3.375Y-3.4
X3.075Y-2.5
X3.075Y-1.8
X3.775Y-2.7
X2.375Y-2.2
X1.975Y-2.0
X3.075Y-3.8
X3.675Y-3.7
X3.875Y-2.1
X1.975Y-3.6
X3.775Y-3.4
X1.475Y-4.2
X3.875Y-2.0
X1.475Y-3.9
X3.175Y-3.6
X2.275Y-2.8
X2.075Y-1.9
X2.375Y-4.2
X1.475Y-3.7
X1.975Y-1.9
X2.275Y-3.5
X1.975Y-4.3
X1.375Y-2.8
X3.775Y-3.6
X3.375Y-2.8
X4.375Y-2.5
X3.975Y-2.7
X2.475Y-3.0
X3.075Y-2.1
X3.775Y-3.1
X1.775Y-1.7
X2.175Y-2.2
X2.875Y-3.1
X2.675Y-2.3
X3.375Y-1.9
X1.475Y-3.1
X1.975Y-3.0
X4.375Y-2.1
X2.075Y-2.6
X2.175Y-1.8
X3.875Y-2.5
X2.875Y-3.7
X3.775Y-4.4
X2.975Y-2.7
X4.575Y-3.4
X2.375Y-2.1
X1.575Y-4.4
X4.275Y-4.1
X3.975Y-3.7
X4.275Y-2.2
X3.375Y-3.7
X1.975Y-1.8
X1.475Y-4.3
X3.975Y-2.2
X4.275Y-3.8
X2.175Y-3.7
X3.575Y-4.4
X1.575Y-2.0
X3.575Y-3.9
X3.975Y-3.8
X2.175Y-4.3
X4.175Y-2.0
X4.075Y-3.5
X2.875Y-4.2
X1.875Y-3.9
X1.475Y-2.5
X2.775Y-4.3
X4.475Y-2.0
X3.875Y-4.1
X1.575Y-2.1
X2.075Y-3.1
X4.275Y-2.1
X3.675Y-2.6
X2.975Y-4.2
X3.975Y-2.9
X4.275Y-3.1
X4.175Y-3.7
X1.675Y-2.6
X3.275Y-4.0
X3.275Y-1.8
X2.175Y-4.1
X3.075Y-2.3
X2.375Y-4.0
X1.975Y-2.9
X3.675Y-1.8
X4.475Y-2.3
X4.275Y-2.0
X2.275Y-3.4
X2.375Y-4.3
X3.775Y-4.0
X3.975Y-2.0
X2.275Y-2.0
X1.875Y-3.3
X2.075Y-2.7
X1.775Y-3.7
X2.175Y-3.6
X1.675Y-4.3
X2.875Y-4.4
X3.475Y-3.0
X1.475Y-3.4
X1.575Y-2.3
X3.875Y-3.1
X3.275Y-4.2
X3.875Y-2.7
X4.575Y-1.7
X4.375Y-3.8
X3.875Y-3.7
X3.775Y-2.5
X2.675Y-3.0
X3.575Y-3.4
X3.275Y-2.5
X2.475Y-3.3
X1.775Y-2.6
X3.975Y-2.8
X4.375Y-3.1
X2.975Y-2.8
X2.575Y-2.5
X1.475Y-3.8
X3.675Y-4.2
X2.775Y-3.5
X1.975Y-2.8
X2.375Y-3.1
X3.375Y-4.0
X4.175Y-3.8
X2.175Y-3.0
X2.575Y-1.8
X1.475Y-3.6
X1.475Y-4.4
X1.775Y-3.1
X3.475Y-2.7
X2.175Y-4.0
X4.075Y-3.7
X4.175Y-3.6
X4.375Y-3.4
X2.075Y-4.1
X3.075Y-3.9
X4.575Y-3.8
X2.375Y-3.3
X2.375Y-3.8
X2.975Y-1.9
X3.675Y-1.7
X1.575Y-3.7
X2.475Y-1.9
X1.475Y-1.7
X4.375Y-3.5
X3.175Y-1.8
X4.475Y-3.3
X4.075Y-2.9
X2.275Y-3.6
X2.875Y-4.3
X3.075Y-4.4
X4.575Y-3.6
X3.075Y-1.9
X1.475Y-2.2
X2.175Y-4.2
X2.575Y-2.7
X1.875Y-4.2
X1.575Y-3.9
X3.675Y-3.1
X2.675Y-3.9
X3.575Y-3.1
X2.575Y-4.2
X3.675Y-2.3
X4.275Y-3.0
X4.375Y-4.3
X1.675Y-4.0
X1.375Y-2.0
X3.475Y-2.8
X4.075Y-4.2
X2.575Y-4.1
X3.275Y-3.8
X2.475Y-2.3
X4.575Y-2.3
X4.575Y-4.0
X4.275Y-4.3
X3.675Y-2.2
X2.475Y-3.5
X1.575Y-3.5
X2.875Y-1.7
X1.775Y-2.3
X3.875Y-1.8
X2.975Y-3.4
X1.675Y-3.1
X2.875Y-2.1
X2.775Y-2.2
X2.875Y-2.3
X3.775Y-1.8
X1.675Y-3.3
X1.775Y-4.1
X1.375Y-2.3
X2.675Y-2.6
X3.675Y-4.4
X4.475Y-1.7
X1.875Y-4.4
X4.175Y-3.3
X2.775Y-3.0
X1.475Y-2.7
X4.575Y-4.3
X3.475Y-1.9
X4.075Y-4.3
X4.375Y-4.1
X2.675Y-3.6
X1.875Y-2.0
X1.775Y-2.1
X4.275Y-1.8
X1.575Y-4.1
X3.875Y-2.6
X1.875Y-1.8
X1.875Y-1.7
X3.575Y-4.2
X2.375Y-2.0
X2.175Y-2.0
X3.675Y-2.5
X2.375Y-3.6
X2.975Y-3.9
X1.775Y-3.8
X2.575Y-3.0
X3.075Y-4.1
X4.575Y-4.2
X2.075Y-4.3
X2.275Y-2.1
X4.475Y-3.4
X4.075Y-3.8
X1.875Y-3.8
X2.575Y-3.8
X4.475Y-3.7
X3.475Y-4.4
X4.175Y-3.5
X2.775Y-2.9
X3.775Y-2.8
X3.675Y-3.9
X3.675Y-2.8
X2.475Y-4.1
X1.875Y-2.5
X4.575Y-2.6
X1.875Y-2.6
X1.475Y-2.3
X2.975Y-4.3
X2.575Y-3.4
X2.875Y-2.5
X1.575Y-2.8
X4.175Y-2.6
X4.575Y-2.1
X1.975Y-3.4
X3.675Y-4.0
X1.375Y-2.2
X2.575Y-2.6
X2.675Y-4.3
X3.975Y-4.3
X1.475Y-2.0
X3.275Y-2.0
X2.275Y-4.2
X1.675Y-4.2
X1.375Y-4.1
X3.175Y-2.2
X2.875Y-3.9
X4.175Y-1.9
X2.775Y-2.7
X2.275Y-3.0
X4.475Y-4.2
X2.075Y-3.5
X3.475Y-3.9
X2.775Y-3.8
X4.075Y-3.9
X3.275Y-3.1
X4.375Y-2.8
X2.775Y-2.8
X2.975Y-4.1
X4.275Y-3.3
X1.375Y-3.9
X2.175Y-2.3
X1.575Y-2.7
X2.275Y-3.3
X2.775Y-1.7
X4.075Y-4.1
X2.975Y-3.6
X2.275Y-3.9
X3.375Y-2.9
X2.975Y-4.0
X2.275Y-1.7
X2.675Y-4.0
X2.575Y-2.3
X2.275Y-4.1
X4.375Y-2.7
X2.775Y-2.0
X1.875Y-2.2
X4.275Y-2.8
X3.575Y-2.5
X4.075Y-1.9
X1.375Y-2.9
X1.875Y-4.0
X3.775Y-3.8
X1.675Y-2.7
X2.475Y-2.1
X2.275Y-4.4
X2.575Y-3.1
X4.175Y-4.3
X3.775Y-3.0
X3.375Y-2.2
X2.975Y-2.6
X1.675Y-2.9
X4.475Y-2.2
X2.975Y-3.3
X2.175Y-3.3
X3.575Y-3.0
X3.675Y-2.7
X4.375Y-2.2
X4.475Y-4.1
X3.275Y-2.3
X3.275Y-3.4
X2.875Y-2.9
X2.575Y-1.9
X1.575Y-1.7
X2.975Y-2.0
X2.375Y-2.3
X2.475Y-4.4
X4.175Y-2.7
X3.775Y-2.0
X3.175Y-2.3
X3.175Y-4.0
X4.375Y-1.9
X2.575Y-2.1
X4.175Y-3.4
X3.575Y-3.8
X3.575Y-2.2
X3.875Y-4.3
X2.175Y-3.8
X3.275Y-1.9
X2.675Y-1.9
X4.475Y-2.8
X1.875Y-3.4
X3.475Y-3.6
X3.075Y-2.9
X3.275Y-3.6
X3.675Y-3.3
X1.875Y-4.3
X2.475Y-2.9
X2.875Y-2.0
X2.475Y-3.4
X2.875Y-2.6
X3.175Y-3.5
X2.075Y-2.5
X1.875Y-3.0
X4.475Y-1.9
X1.775Y-2.9
X4.375Y-2.3
X3.375Y-4.1
X4.475Y-2.1
X1.375Y-1.9
X4.175Y-2.1
X1.375Y-2.1
X1.675Y-2.0
X3.175Y-3.7
X3.875Y-2.8
X2.675Y-2.7
X3.375Y-2.3
X1.375Y-3.4
X1.375Y-3.6
X3.275Y-3.5
X3.775Y-3.7
X3.175Y-3.1
X2.0248Y-1.33
X2.0248Y-1.43
X2.1248Y-1.33
X2.1248Y-1.43
X2.2248Y-1.33
X2.2248Y-1.43
X2.3248Y-1.33
X2.3248Y-1.43
X2.4248Y-1.33
X2.4248Y-1.43
X2.5248Y-1.33
X2.5248Y-1.43
X2.6248Y-1.33
X2.6248Y-1.43
X2.7248Y-1.33
X2.7248Y-1.43
X2.8248Y-1.33
X2.8248Y-1.43
X2.9248Y-1.33
X2.9248Y-1.43
X3.0248Y-1.33
X3.0248Y-1.43
X3.1248Y-1.33
X3.1248Y-1.43
X3.2248Y-1.33
X3.2248Y-1.43
X3.3248Y-1.33
X3.3248Y-1.43
X3.4248Y-1.33
X3.4248Y-1.43
X3.5248Y-1.33
X3.5248Y-1.43
X3.6248Y-1.33
X3.6248Y-1.43
X3.7248Y-1.33
X3.7248Y-1.43
X3.8248Y-1.33
X3.8248Y-1.43
X3.9248Y-1.33
X3.9248Y-1.43
X2.875Y-2.2
X1.775Y-4.4
X4.475Y-2.6
X4.575Y-3.9
X2.675Y-3.7
X2.575Y-2.9
X4.075Y-2.1
X3.675Y-4.3
X4.075Y-2.3
X2.275Y-2.9
X4.175Y-4.1
X3.975Y-1.9
X1.675Y-2.5
X1.975Y-2.1
X2.575Y-4.0
X4.575Y-3.5
X2.575Y-2.8
X1.575Y-3.3
X2.475Y-2.6
X2.475Y-4.2
X4.075Y-2.7
X1.975Y-2.7
X3.775Y-3.5
X3.875Y-3.4
X3.575Y-4.1
X1.675Y-3.7
X2.875Y-3.6
X2.075Y-2.8
X4.275Y-1.7
X3.475Y-2.9
X4.275Y-1.9
X2.175Y-2.5
X2.075Y-2.1
X1.875Y-3.1
X1.975Y-2.2
X1.575Y-3.4
X2.275Y-1.9
X4.075Y-3.6
X2.375Y-2.5
X2.575Y-4.4
X3.375Y-3.5
X2.775Y-4.1
X3.175Y-2.5
X2.375Y-1.8
X2.175Y-3.9
X2.775Y-3.9
X2.975Y-1.8
X2.575Y-3.5
X2.775Y-3.4
X3.475Y-3.8
X4.375Y-2.0
X3.875Y-1.7
X2.675Y-4.4
X2.675Y-4.1
X2.775Y-1.9
X3.775Y-1.7
X1.975Y-3.8
X2.875Y-2.8
X3.375Y-3.9
X1.575Y-2.6
X4.275Y-2.6
X3.175Y-3.4
X3.275Y-3.9
X4.175Y-3.0
X4.475Y-3.8
X1.575Y-4.0
X2.475Y-2.2
X1.475Y-1.8
X3.475Y-3.5
X3.475Y-2.5
X3.375Y-4.4
X3.375Y-3.6
X3.075Y-3.0
X1.375Y-1.8
X2.175Y-2.7
X3.775Y-2.6
X3.375Y-2.5
X4.075Y-3.3
X1.575Y-3.0
X3.375Y-3.3
X1.375Y-3.1
X2.175Y-3.4
X4.375Y-1.8
X2.575Y-2.0
X4.375Y-3.0
X2.175Y-2.6
X2.175Y-2.9
X1.675Y-4.1
X3.775Y-2.3
X1.475Y-2.8
X3.575Y-2.0
X4.275Y-3.6
X3.575Y-1.8
X1.575Y-3.8
X3.275Y-2.2
X1.875Y-3.6
X3.775Y-3.3
X4.575Y-3.7
X1.775Y-3.5
X2.975Y-3.1
X2.775Y-4.4
X2.075Y-4.4
X4.275Y-2.5
X4.575Y-1.8
X3.175Y-2.1
X2.075Y-3.4
X3.175Y-4.2
X4.175Y-2.2
X3.375Y-4.3
X2.475Y-2.0
X3.075Y-4.2
X1.775Y-2.8
X4.375Y-4.0
X1.375Y-3.8
X2.175Y-3.5
X2.875Y-3.0
X2.275Y-2.7
X2.775Y-3.6
X2.475Y-3.1
X4.475Y-2.5
X2.675Y-3.3
X3.475Y-2.3
X4.375Y-3.6
X3.675Y-3.0
X4.175Y-3.9
X3.075Y-2.8
X2.075Y-1.7
X2.675Y-3.8
X1.375Y-2.5
X1.775Y-4.3
X2.675Y-3.5
X3.075Y-3.6
X1.675Y-3.0
X4.275Y-4.2
X4.075Y-4.4
X1.575Y-3.6
X3.175Y-2.7
X1.875Y-2.8
X1.375Y-4.4
X4.375Y-4.4
X3.875Y-3.5
X1.875Y-1.9
X2.775Y-2.5
X3.275Y-1.7
X3.675Y-2.1
X2.375Y-1.7
X2.675Y-2.8
X4.375Y-3.3
X3.175Y-2.9
X1.775Y-4.0
X3.575Y-2.8
X1.675Y-3.5
X1.675Y-2.3
X3.775Y-3.9
X3.075Y-2.6
X4.075Y-2.5
X1.975Y-4.4
X4.375Y-3.7
X3.175Y-3.8
X3.075Y-3.5
X3.575Y-4.0
X1.375Y-3.3
X4.175Y-1.8
X2.575Y-3.3
X3.675Y-1.9
X1.575Y-4.3
X1.975Y-2.5
X3.375Y-2.6
X2.575Y-1.7
X1.775Y-1.8
X3.875Y-3.3
X1.675Y-1.8
X3.875Y-4.4
X3.975Y-2.5
X2.475Y-3.7
X4.075Y-2.0
X1.775Y-3.4
X3.475Y-3.4
X3.175Y-1.9
X2.475Y-3.6
X3.675Y-4.1
X4.575Y-3.0
X1.375Y-3.5
X1.675Y-2.8
X1.375Y-3.7
X2.275Y-4.0
X1.775Y-3.0
X2.375Y-1.9
X3.275Y-3.3
X4.375Y-2.6
X4.175Y-4.4
X3.975Y-2.1
X3.775Y-4.2
X3.875Y-4.2
X1.975Y-3.7
X1.675Y-3.8
X4.375Y-2.9
X2.675Y-3.4
X1.775Y-2.5
X3.575Y-2.6
X1.675Y-2.2
X2.075Y-1.8
X3.475Y-3.7
X1.975Y-4.1
X2.875Y-3.4
X1.475Y-3.0
X1.375Y-3.0
X3.875Y-3.9
X4.575Y-2.9
X2.675Y-2.9
X2.475Y-4.0
X2.875Y-3.5
X2.475Y-2.5
X1.975Y-3.5
X3.775Y-4.3
X2.575Y-3.6
X3.975Y-4.2
X2.175Y-3.1
X4.175Y-1.7
X2.075Y-2.2
X1.875Y-3.7
X1.575Y-2.5
X3.575Y-3.3
X1.675Y-1.9
X3.475Y-1.8
X3.075Y-2.0
X2.275Y-3.1
X4.475Y-3.9
X1.475Y-3.5
X4.575Y-3.3
X1.775Y-3.6
X4.575Y-4.1
X1.975Y-2.6
X3.975Y-3.5
X1.475Y-2.1
X3.575Y-2.7
X1.975Y-3.9
X3.475Y-2.1
X1.475Y-2.9
X3.375Y-2.0
X3.675Y-2.0
X3.175Y-2.0
X1.575Y-3.1
X4.275Y-2.7
X2.075Y-4.0
X2.275Y-3.8
X3.275Y-2.9
X4.375Y-3.9
X2.375Y-3.7
X2.475Y-3.8
X2.975Y-3.0
X4.475Y-4.4
X4.175Y-4.2
X2.075Y-4.2
X3.075Y-3.3
X1.775Y-4.2
X3.075Y-3.4
X1.675Y-3.6
X3.975Y-3.9
X1.875Y-2.9
X3.575Y-4.3
X3.175Y-1.7
X3.075Y-4.0
X1.675Y-3.9
X3.975Y-1.8
X2.875Y-4.1
X2.475Y-2.7
X3.975Y-3.1
X3.475Y-3.1
X3.875Y-3.8
X3.375Y-3.8
X3.475Y-4.3
X2.075Y-3.6
X2.875Y-1.8
X2.675Y-2.5
X3.475Y-3.3
X1.375Y-4.3
X4.175Y-2.3
X3.375Y-1.7
X3.475Y-1.7
X1.575Y-4.2
X2.175Y-4.4
X2.375Y-2.8
X4.475Y-2.7
X4.275Y-2.3
X3.475Y-4.2
X2.075Y-3.8
X4.175Y-2.5
X3.075Y-4.3
X3.975Y-4.4
X4.375Y-1.7
X3.075Y-2.7
X4.575Y-3.1
X3.975Y-2.3
X2.475Y-1.7
X3.675Y-3.8
X3.375Y-4.2
X2.675Y-2.2
X2.275Y-2.6
X4.475Y-1.8
X4.275Y-4.0
X1.975Y-1.7
X2.775Y-2.1
X2.475Y-4.3
X3.975Y-3.4
X1.675Y-1.7
X3.875Y-2.2
X3.275Y-2.6
X4.275Y-3.7
X4.275Y-3.4
X3.075Y-1.7
X2.675Y-3.1
X1.775Y-2.0
X2.875Y-3.8
X3.475Y-4.1
X3.075Y-2.2
X2.175Y-1.9
X3.775Y-1.9
X1.775Y-3.3
X3.275Y-4.1
X1.575Y-1.9
X2.375Y-2.7
X2.775Y-4.2
X4.275Y-3.5
X3.975Y-3.6
X3.275Y-3.0
X3.175Y-4.3
X4.175Y-2.9
X4.075Y-3.0
X3.175Y-4.4
X3.775Y-4.1
X3.275Y-2.7
X2.675Y-1.8
X2.375Y-3.9
X2.375Y-3.0
X2.375Y-4.1
X3.175Y-3.9
X3.375Y-1.8
X3.975Y-1.7
X2.175Y-2.1
X2.575Y-3.9
X2.575Y-2.2
X4.075Y-3.4
X1.875Y-3.5
X1.775Y-3.9
X2.675Y-4.2
X2.975Y-3.8
X1.675Y-3.4
X3.375Y-2.7
X2.975Y-4.4
X3.575Y-2.1
X1.675Y-4.4
X4.075Y-4.0
X4.175Y-3.1
X4.075Y-2.8
X4.475Y-4.3
X1.575Y-1.8
X2.075Y-2.9
X2.175Y-2.8
X3.875Y-2.9
X2.975Y-2.1
X3.475Y-2.6
X3.275Y-3.7
X3.275Y-2.1
X1.375Y-4.2
X3.975Y-4.0
X2.275Y-2.3
X4.575Y-2.5
X1.875Y-2.3
X2.175Y-1.7
X2.075Y-2.3
X3.475Y-2.0
X2.875Y-4.0
X3.975Y-3.0
X2.575Y-3.7
X2.075Y-3.7
X1.975Y-4.2
X3.275Y-4.4
X3.575Y-3.5
X4.075Y-2.2
X3.575Y-1.7
X2.375Y-2.6
X2.375Y-2.9
X3.375Y-3.0
X2.875Y-1.9
X4.275Y-2.9
X3.475Y-4.0
X4.575Y-2.0
X3.875Y-1.9
X2.775Y-3.7
X2.675Y-2.1
X3.575Y-3.6
X3.875Y-2.3
X2.375Y-3.4
X2.575Y-4.3
X1.575Y-2.2
X2.075Y-3.9
X3.675Y-3.5
X4.575Y-1.9
X1.875Y-2.7
X4.475Y-3.5
X4.475Y-4.0
X1.375Y-2.7
X2.975Y-2.5
X2.975Y-3.7
X4.075Y-2.6
X1.875Y-2.1
X2.475Y-2.8
X2.775Y-1.8
X3.875Y-3.6
X1.475Y-4.0
X3.575Y-1.9
X4.475Y-3.0
X1.375Y-1.7
X2.975Y-2.9
X3.175Y-3.0
X4.175Y-2.8
X1.375Y-2.6
X3.575Y-2.9
T3
X4.6094Y-4.6056
X4.6084Y-1.3376
X1.3414Y-1.3376
X1.3414Y-4.6046
T0
M30
